ISO-10303-21;
HEADER;
FILE_DESCRIPTION (( 'STEP AP214' ),
    '1' );
FILE_NAME ('secondary guide cap.STEP',
    '2016-04-22T00:10:55',
    ( '' ),
    ( '' ),
    'SwSTEP 2.0',
    'SolidWorks 2015',
    '' );
FILE_SCHEMA (( 'AUTOMOTIVE_DESIGN' ));
ENDSEC;

DATA;
#1 = EDGE_CURVE ( 'NONE', #46, #458, #239, .T. ) ;
#2 = FACE_OUTER_BOUND ( 'NONE', #460, .T. ) ;
#3 = ORIENTED_EDGE ( 'NONE', *, *, #234, .T. ) ;
#4 = CYLINDRICAL_SURFACE ( 'NONE', #82, 0.2000000000000003200 ) ;
#5 = ADVANCED_FACE ( 'NONE', ( #308, #457 ), #291, .T. ) ;
#6 = VECTOR ( 'NONE', #403, 39.37007874015748100 ) ;
#7 = LINE ( 'NONE', #244, #6 ) ;
#8 = DIRECTION ( 'NONE',  ( -1.000000000000000000, 0.0000000000000000000, 0.0000000000000000000 ) ) ;
#9 = EDGE_LOOP ( 'NONE', ( #217, #251 ) ) ;
#10 = CARTESIAN_POINT ( 'NONE',  ( -2.264763779527558800, 2.109763779527559400, 0.3100000000000000000 ) ) ;
#11 = DIRECTION ( 'NONE',  ( 0.0000000000000000000, 0.0000000000000000000, -1.000000000000000000 ) ) ;
#12 = DIRECTION ( 'NONE',  ( -0.0000000000000000000, -0.0000000000000000000, -1.000000000000000000 ) ) ;
#13 = LINE ( 'NONE', #355, #89 ) ;
#14 = CARTESIAN_POINT ( 'NONE',  ( -2.264763779527558800, 2.109763779527559400, 0.01000000000000000000 ) ) ;
#15 = ORIENTED_EDGE ( 'NONE', *, *, #361, .F. ) ;
#16 = ORIENTED_EDGE ( 'NONE', *, *, #431, .T. ) ;
#17 = DIRECTION ( 'NONE',  ( -1.000000000000000000, 0.0000000000000000000, 0.0000000000000000000 ) ) ;
#18 = FILL_AREA_STYLE_COLOUR ( '', #91 ) ;
#19 = LINE ( 'NONE', #256, #205 ) ;
#20 = FACE_OUTER_BOUND ( 'NONE', #440, .T. ) ;
#21 = DIRECTION ( 'NONE',  ( -1.000000000000000000, 0.0000000000000000000, 0.0000000000000000000 ) ) ;
#22 = ORIENTED_EDGE ( 'NONE', *, *, #347, .T. ) ;
#23 = ORIENTED_EDGE ( 'NONE', *, *, #361, .T. ) ;
#24 = MECHANICAL_DESIGN_GEOMETRIC_PRESENTATION_REPRESENTATION (  '', ( #31 ), #132 ) ;
#25 = CARTESIAN_POINT ( 'NONE',  ( -2.253000944737014500, 2.331143471215976000, 0.01000000000000000000 ) ) ;
#26 = FACE_OUTER_BOUND ( 'NONE', #327, .T. ) ;
#27 =( CONVERSION_BASED_UNIT ( 'INCH', #304 ) LENGTH_UNIT ( ) NAMED_UNIT ( #289 ) );
#28 = EDGE_LOOP ( 'NONE', ( #365, #257, #130, #269 ) ) ;
#29 = PLANE ( 'NONE',  #197 ) ;
#30 = CIRCLE ( 'NONE', #211, 0.07381889763779533900 ) ;
#31 = STYLED_ITEM ( 'NONE', ( #394 ), #429 ) ;
#32 = FACE_OUTER_BOUND ( 'NONE', #135, .T. ) ;
#33 = EDGE_CURVE ( 'NONE', #400, #395, #30, .T. ) ;
#34 = VERTEX_POINT ( 'NONE', #456 ) ;
#35 = ORIENTED_EDGE ( 'NONE', *, *, #71, .F. ) ;
#36 = DIRECTION ( 'NONE',  ( -0.0000000000000000000, -1.000000000000000000, -0.0000000000000000000 ) ) ;
#37 = CARTESIAN_POINT ( 'NONE',  ( -2.053000944737014300, 1.881143471215975400, 0.3100000000000000000 ) ) ;
#38 = CYLINDRICAL_SURFACE ( 'NONE', #128, 0.07381889763779533900 ) ;
#39 = DIRECTION ( 'NONE',  ( -1.000000000000000000, 0.0000000000000000000, 0.0000000000000000000 ) ) ;
#40 = ORIENTED_EDGE ( 'NONE', *, *, #388, .T. ) ;
#41 = ORIENTED_EDGE ( 'NONE', *, *, #218, .T. ) ;
#42 = ORIENTED_EDGE ( 'NONE', *, *, #297, .F. ) ;
#43 =( NAMED_UNIT ( * ) SI_UNIT ( $, .STERADIAN. ) SOLID_ANGLE_UNIT ( ) );
#44 = PLANE ( 'NONE',  #84 ) ;
#45 = DIRECTION ( 'NONE',  ( 0.0000000000000000000, -0.0000000000000000000, -1.000000000000000000 ) ) ;
#46 = VERTEX_POINT ( 'NONE', #452 ) ;
#47 = DIRECTION ( 'NONE',  ( -0.0000000000000000000, 0.0000000000000000000, -1.000000000000000000 ) ) ;
#48 = LINE ( 'NONE', #196, #260 ) ;
#49 =( NAMED_UNIT ( * ) PLANE_ANGLE_UNIT ( ) SI_UNIT ( $, .RADIAN. ) );
#50 = PLANE ( 'NONE',  #94 ) ;
#51 = EDGE_CURVE ( 'NONE', #121, #99, #261, .T. ) ;
#52 = DIRECTION ( 'NONE',  ( -0.0000000000000000000, -1.000000000000000000, -0.0000000000000000000 ) ) ;
#53 = CARTESIAN_POINT ( 'NONE',  ( -2.253000944737014500, 2.131143471215975800, 0.3100000000000000000 ) ) ;
#54 = LINE ( 'NONE', #373, #77 ) ;
#55 = CARTESIAN_POINT ( 'NONE',  ( -2.253000944737014500, 2.331143471215976000, 0.3100000000000000000 ) ) ;
#56 = DIRECTION ( 'NONE',  ( 0.0000000000000000000, -1.000000000000000000, 0.0000000000000000000 ) ) ;
#57 = EDGE_CURVE ( 'NONE', #401, #305, #242, .T. ) ;
#58 = CARTESIAN_POINT ( 'NONE',  ( -2.053000944737014300, 1.881143471215975400, 0.3100000000000000000 ) ) ;
#59 = DIRECTION ( 'NONE',  ( 0.0000000000000000000, 0.0000000000000000000, -1.000000000000000000 ) ) ;
#60 = ORIENTED_EDGE ( 'NONE', *, *, #444, .F. ) ;
#61 = CARTESIAN_POINT ( 'NONE',  ( -2.710171703592304300, 2.331143471215976000, 0.01000000000000000000 ) ) ;
#62 = VECTOR ( 'NONE', #288, 39.37007874015748100 ) ;
#63 = CARTESIAN_POINT ( 'NONE',  ( -2.623999999999999700, 2.331143471215976000, 0.0000000000000000000 ) ) ;
#64 = EDGE_LOOP ( 'NONE', ( #80, #41, #76, #442, #336, #149 ) ) ;
#65 = ORIENTED_EDGE ( 'NONE', *, *, #159, .T. ) ;
#66 = DIRECTION ( 'NONE',  ( 0.0000000000000000000, -1.000000000000000000, 0.0000000000000000000 ) ) ;
#67 = AXIS2_PLACEMENT_3D ( 'NONE', #169, #163, #158 ) ;
#68 = DIRECTION ( 'NONE',  ( -1.000000000000000000, 0.0000000000000000000, 0.0000000000000000000 ) ) ;
#69 = DIRECTION ( 'NONE',  ( -0.0000000000000000000, 0.0000000000000000000, -1.000000000000000000 ) ) ;
#70 = PLANE ( 'NONE',  #332 ) ;
#71 = EDGE_CURVE ( 'NONE', #461, #34, #134, .T. ) ;
#72 = DIRECTION ( 'NONE',  ( 0.0000000000000000000, -1.000000000000000000, 0.0000000000000000000 ) ) ;
#73 = CIRCLE ( 'NONE', #292, 0.07381889763779533900 ) ;
#74 = DIRECTION ( 'NONE',  ( -0.0000000000000000000, -0.0000000000000000000, -1.000000000000000000 ) ) ;
#75 = ORIENTED_EDGE ( 'NONE', *, *, #437, .T. ) ;
#76 = ORIENTED_EDGE ( 'NONE', *, *, #226, .T. ) ;
#77 = VECTOR ( 'NONE', #346, 39.37007874015748100 ) ;
#78 = CARTESIAN_POINT ( 'NONE',  ( -3.724999999999999600, 2.331143471215976000, 0.3100000000000000000 ) ) ;
#79 = ORIENTED_EDGE ( 'NONE', *, *, #33, .F. ) ;
#80 = ORIENTED_EDGE ( 'NONE', *, *, #170, .T. ) ;
#81 = CARTESIAN_POINT ( 'NONE',  ( -2.264763779527558800, 2.109763779527559400, 0.3100000000000000000 ) ) ;
#82 = AXIS2_PLACEMENT_3D ( 'NONE', #428, #386, #213 ) ;
#83 = DIRECTION ( 'NONE',  ( 0.0000000000000000000, 0.0000000000000000000, -1.000000000000000000 ) ) ;
#84 = AXIS2_PLACEMENT_3D ( 'NONE', #53, #47, #21 ) ;
#85 = VERTEX_POINT ( 'NONE', #189 ) ;
#86 = CARTESIAN_POINT ( 'NONE',  ( -2.623999999999999700, 2.331143471215976000, 0.0000000000000000000 ) ) ;
#87 = DIRECTION ( 'NONE',  ( 0.0000000000000000000, -0.0000000000000000000, 1.000000000000000000 ) ) ;
#88 = DIRECTION ( 'NONE',  ( 0.0000000000000000000, 1.000000000000000000, 0.0000000000000000000 ) ) ;
#89 = VECTOR ( 'NONE', #74, 39.37007874015748100 ) ;
#90 = CARTESIAN_POINT ( 'NONE',  ( -3.411417322834645400, 2.109763779527559400, 0.01000000000000000000 ) ) ;
#91 = COLOUR_RGB ( '',1.000000000000000000, 0.2705882352941176300, 0.1843137254901960900 ) ;
#92 = CARTESIAN_POINT ( 'NONE',  ( 0.0000000000000000000, 0.0000000000000000000, 0.0000000000000000000 ) ) ;
#93 = AXIS2_PLACEMENT_3D ( 'NONE', #331, #117, #113 ) ;
#94 = AXIS2_PLACEMENT_3D ( 'NONE', #55, #56, #45 ) ;
#95 = ORIENTED_EDGE ( 'NONE', *, *, #193, .F. ) ;
#96 = DIRECTION ( 'NONE',  ( -1.000000000000000000, 0.0000000000000000000, 0.0000000000000000000 ) ) ;
#97 = DIRECTION ( 'NONE',  ( -1.000000000000000000, 0.0000000000000000000, 0.0000000000000000000 ) ) ;
#98 = ORIENTED_EDGE ( 'NONE', *, *, #337, .T. ) ;
#99 = VERTEX_POINT ( 'NONE', #119 ) ;
#100 = ADVANCED_FACE ( 'NONE', ( #439 ), #404, .F. ) ;
#101 = PLANE ( 'NONE',  #351 ) ;
#102 = AXIS2_PLACEMENT_3D ( 'NONE', #63, #36, #206 ) ;
#103 = LENGTH_MEASURE_WITH_UNIT ( LENGTH_MEASURE( 0.02539999999999999900 ), #438 );
#104 = ORIENTED_EDGE ( 'NONE', *, *, #444, .T. ) ;
#105 = DIRECTION ( 'NONE',  ( -1.000000000000000000, 0.0000000000000000000, 0.0000000000000000000 ) ) ;
#106 = AXIS2_PLACEMENT_3D ( 'NONE', #230, #173, #454 ) ;
#107 = DIRECTION ( 'NONE',  ( -0.0000000000000000000, -0.0000000000000000000, -1.000000000000000000 ) ) ;
#108 = FACE_OUTER_BOUND ( 'NONE', #28, .T. ) ;
#109 = ORIENTED_EDGE ( 'NONE', *, *, #398, .T. ) ;
#110 = CARTESIAN_POINT ( 'NONE',  ( -2.537828296407695000, 2.331143471215976000, 0.01000000000000000000 ) ) ;
#111 = ORIENTED_EDGE ( 'NONE', *, *, #379, .F. ) ;
#112 = VECTOR ( 'NONE', #241, 39.37007874015748100 ) ;
#113 = DIRECTION ( 'NONE',  ( -0.0000000000000000000, 0.0000000000000000000, -1.000000000000000000 ) ) ;
#114 = ORIENTED_EDGE ( 'NONE', *, *, #203, .T. ) ;
#115 = CARTESIAN_POINT ( 'NONE',  ( -2.253000944737014500, 2.131143471215975800, 0.3100000000000000000 ) ) ;
#116 = AXIS2_PLACEMENT_3D ( 'NONE', #144, #83, #264 ) ;
#117 = DIRECTION ( 'NONE',  ( 1.000000000000000000, 0.0000000000000000000, -0.0000000000000000000 ) ) ;
#118 = FACE_OUTER_BOUND ( 'NONE', #255, .T. ) ;
#119 = CARTESIAN_POINT ( 'NONE',  ( -3.559055118110236100, 2.109763779527559400, 0.01000000000000000000 ) ) ;
#120 = ORIENTED_EDGE ( 'NONE', *, *, #51, .F. ) ;
#121 = VERTEX_POINT ( 'NONE', #90 ) ;
#122 = EDGE_CURVE ( 'NONE', #395, #400, #357, .T. ) ;
#123 = ORIENTED_EDGE ( 'NONE', *, *, #431, .F. ) ;
#124 = LINE ( 'NONE', #224, #125 ) ;
#125 = VECTOR ( 'NONE', #199, 39.37007874015748100 ) ;
#126 = CARTESIAN_POINT ( 'NONE',  ( -3.724999999999999600, 1.881143471215975400, 0.3100000000000000000 ) ) ;
#127 = FACE_OUTER_BOUND ( 'NONE', #223, .T. ) ;
#128 = AXIS2_PLACEMENT_3D ( 'NONE', #253, #107, #97 ) ;
#129 = VERTEX_POINT ( 'NONE', #246 ) ;
#130 = ORIENTED_EDGE ( 'NONE', *, *, #51, .T. ) ;
#131 = CARTESIAN_POINT ( 'NONE',  ( -3.724999999999999600, 2.331143471215976000, 0.01000000000000000000 ) ) ;
#132 =( GEOMETRIC_REPRESENTATION_CONTEXT ( 3 ) GLOBAL_UNCERTAINTY_ASSIGNED_CONTEXT ( ( #301 ) ) GLOBAL_UNIT_ASSIGNED_CONTEXT ( ( #338, #339, #342 ) ) REPRESENTATION_CONTEXT ( 'NONE', 'WORKASPACE' ) );
#133 = APPLICATION_PROTOCOL_DEFINITION ( 'draft international standard', 'automotive_design', 1998, #138 ) ;
#134 = LINE ( 'NONE', #402, #235 ) ;
#135 = EDGE_LOOP ( 'NONE', ( #16, #95, #358, #434 ) ) ;
#136 = CARTESIAN_POINT ( 'NONE',  ( -2.710171703592304300, 2.331143471215976000, 0.01000000000000000000 ) ) ;
#137 = ORIENTED_EDGE ( 'NONE', *, *, #376, .T. ) ;
#138 = APPLICATION_CONTEXT ( 'automotive_design' ) ;
#139 = AXIS2_PLACEMENT_3D ( 'NONE', #209, #293, #309 ) ;
#140 = SURFACE_STYLE_USAGE ( .BOTH. , #167 ) ;
#141 = CIRCLE ( 'NONE', #254, 0.2000000000000003200 ) ;
#142 = ORIENTED_EDGE ( 'NONE', *, *, #226, .F. ) ;
#143 = ORIENTED_EDGE ( 'NONE', *, *, #207, .F. ) ;
#144 = CARTESIAN_POINT ( 'NONE',  ( -3.485236220472440700, 2.109763779527559400, 0.3100000000000000000 ) ) ;
#145 = PLANE ( 'NONE',  #93 ) ;
#146 = FACE_OUTER_BOUND ( 'NONE', #64, .T. ) ;
#147 = VECTOR ( 'NONE', #72, 39.37007874015748100 ) ;
#148 = ORIENTED_EDGE ( 'NONE', *, *, #312, .T. ) ;
#149 = ORIENTED_EDGE ( 'NONE', *, *, #280, .T. ) ;
#150 = PRODUCT_DEFINITION ( 'UNKNOWN', '', #248, #409 ) ;
#151 = CIRCLE ( 'NONE', #212, 0.08674999999999995200 ) ;
#152 = LINE ( 'NONE', #225, #165 ) ;
#153 = ORIENTED_EDGE ( 'NONE', *, *, #71, .T. ) ;
#154 = CARTESIAN_POINT ( 'NONE',  ( -2.537828296407695000, 2.331143471215976000, 0.01000000000000000000 ) ) ;
#155 = AXIS2_PLACEMENT_3D ( 'NONE', #367, #422, #435 ) ;
#156 = CARTESIAN_POINT ( 'NONE',  ( -2.053000944737014300, 1.881143471215975400, 0.3100000000000000000 ) ) ;
#157 = VECTOR ( 'NONE', #195, 39.37007874015748100 ) ;
#158 = DIRECTION ( 'NONE',  ( -1.000000000000000000, 0.0000000000000000000, 0.0000000000000000000 ) ) ;
#159 = EDGE_CURVE ( 'NONE', #415, #447, #232, .T. ) ;
#160 = ORIENTED_EDGE ( 'NONE', *, *, #159, .F. ) ;
#161 = CARTESIAN_POINT ( 'NONE',  ( -2.253000944737014500, 2.331143471215976000, 0.01000000000000000000 ) ) ;
#162 =( LENGTH_UNIT ( ) NAMED_UNIT ( * ) SI_UNIT ( $, .METRE. ) );
#163 = DIRECTION ( 'NONE',  ( 0.0000000000000000000, 0.0000000000000000000, -1.000000000000000000 ) ) ;
#164 = CIRCLE ( 'NONE', #441, 0.2000000000000003200 ) ;
#165 = VECTOR ( 'NONE', #220, 39.37007874015748100 ) ;
#166 = CIRCLE ( 'NONE', #284, 0.07381889763779533900 ) ;
#167 = SURFACE_SIDE_STYLE ('',( #408 ) ) ;
#168 = AXIS2_PLACEMENT_3D ( 'NONE', #279, #12, #382 ) ;
#169 = CARTESIAN_POINT ( 'NONE',  ( -3.485236220472440700, 2.109763779527559400, 0.3100000000000000000 ) ) ;
#170 = EDGE_CURVE ( 'NONE', #228, #354, #371, .T. ) ;
#171 = FILL_AREA_STYLE ('',( #18 ) ) ;
#172 = LINE ( 'NONE', #233, #157 ) ;
#173 = DIRECTION ( 'NONE',  ( 0.0000000000000000000, 0.0000000000000000000, -1.000000000000000000 ) ) ;
#174 = ORIENTED_EDGE ( 'NONE', *, *, #170, .F. ) ;
#175 = CARTESIAN_POINT ( 'NONE',  ( -2.190944881889763400, 2.109763779527559400, 0.01000000000000000000 ) ) ;
#176 = LINE ( 'NONE', #285, #198 ) ;
#177 = DIRECTION ( 'NONE',  ( -1.092739197465703900E-015, -1.000000000000000000, 0.0000000000000000000 ) ) ;
#178 =( GEOMETRIC_REPRESENTATION_CONTEXT ( 3 ) GLOBAL_UNCERTAINTY_ASSIGNED_CONTEXT ( ( #418 ) ) GLOBAL_UNIT_ASSIGNED_CONTEXT ( ( #385, #411, #314 ) ) REPRESENTATION_CONTEXT ( 'NONE', 'WORKASPACE' ) );
#179 = ORIENTED_EDGE ( 'NONE', *, *, #207, .T. ) ;
#180 = ORIENTED_EDGE ( 'NONE', *, *, #286, .F. ) ;
#181 = APPLICATION_CONTEXT ( 'automotive_design' ) ;
#182 = AXIS2_PLACEMENT_3D ( 'NONE', #81, #247, #39 ) ;
#183 = LINE ( 'NONE', #318, #62 ) ;
#184 = ORIENTED_EDGE ( 'NONE', *, *, #297, .T. ) ;
#185 = DIRECTION ( 'NONE',  ( -1.000000000000000000, 1.092739197465703900E-015, 0.0000000000000000000 ) ) ;
#186 = DIRECTION ( 'NONE',  ( 0.0000000000000000000, 0.0000000000000000000, -1.000000000000000000 ) ) ;
#187 = VECTOR ( 'NONE', #413, 39.37007874015748100 ) ;
#188 = ORIENTED_EDGE ( 'NONE', *, *, #252, .F. ) ;
#189 = CARTESIAN_POINT ( 'NONE',  ( -2.338582677165354200, 2.109763779527559400, 0.01000000000000000000 ) ) ;
#190 = ORIENTED_EDGE ( 'NONE', *, *, #312, .F. ) ;
#191 = DIRECTION ( 'NONE',  ( 1.000000000000000000, 0.0000000000000000000, 0.0000000000000000000 ) ) ;
#192 = LINE ( 'NONE', #268, #187 ) ;
#193 = EDGE_CURVE ( 'NONE', #245, #421, #381, .T. ) ;
#194 = DIRECTION ( 'NONE',  ( -0.0000000000000000000, 0.0000000000000000000, -1.000000000000000000 ) ) ;
#195 = DIRECTION ( 'NONE',  ( 1.000000000000000000, 0.0000000000000000000, 0.0000000000000000000 ) ) ;
#196 = CARTESIAN_POINT ( 'NONE',  ( -2.253000944737014500, 2.331143471215976000, 0.01000000000000000000 ) ) ;
#197 = AXIS2_PLACEMENT_3D ( 'NONE', #37, #185, #177 ) ;
#198 = VECTOR ( 'NONE', #303, 39.37007874015748100 ) ;
#199 = DIRECTION ( 'NONE',  ( 1.092739197465703900E-015, 1.000000000000000000, 0.0000000000000000000 ) ) ;
#200 = ORIENTED_EDGE ( 'NONE', *, *, #280, .F. ) ;
#201 = STYLED_ITEM ( 'NONE', ( #363 ), #359 ) ;
#202 = DIRECTION ( 'NONE',  ( -1.000000000000000000, 0.0000000000000000000, 0.0000000000000000000 ) ) ;
#203 = EDGE_CURVE ( 'NONE', #290, #462, #424, .T. ) ;
#204 = DIRECTION ( 'NONE',  ( 0.0000000000000000000, 0.0000000000000000000, 1.000000000000000000 ) ) ;
#205 = VECTOR ( 'NONE', #240, 39.37007874015748100 ) ;
#206 = DIRECTION ( 'NONE',  ( 0.0000000000000000000, 0.0000000000000000000, -1.000000000000000000 ) ) ;
#207 = EDGE_CURVE ( 'NONE', #354, #46, #380, .T. ) ;
#208 = DIRECTION ( 'NONE',  ( 0.0000000000000000000, 0.0000000000000000000, -1.000000000000000000 ) ) ;
#209 = CARTESIAN_POINT ( 'NONE',  ( -2.264763779527558800, 2.109763779527559400, 0.3100000000000000000 ) ) ;
#210 = VERTEX_POINT ( 'NONE', #175 ) ;
#211 = AXIS2_PLACEMENT_3D ( 'NONE', #10, #407, #105 ) ;
#212 = AXIS2_PLACEMENT_3D ( 'NONE', #270, #272, #274 ) ;
#213 = DIRECTION ( 'NONE',  ( -1.000000000000000000, 0.0000000000000000000, 0.0000000000000000000 ) ) ;
#214 = CYLINDRICAL_SURFACE ( 'NONE', #155, 0.07381889763779533900 ) ;
#215 = ORIENTED_EDGE ( 'NONE', *, *, #437, .F. ) ;
#216 = CARTESIAN_POINT ( 'NONE',  ( -2.264763779527558800, 2.109763779527559400, 0.01000000000000000000 ) ) ;
#217 = ORIENTED_EDGE ( 'NONE', *, *, #122, .T. ) ;
#218 = EDGE_CURVE ( 'NONE', #354, #447, #414, .T. ) ;
#219 = CARTESIAN_POINT ( 'NONE',  ( -2.253000944737014500, 2.131143471215975800, 0.01000000000000000000 ) ) ;
#220 = DIRECTION ( 'NONE',  ( -0.0000000000000000000, -0.0000000000000000000, -1.000000000000000000 ) ) ;
#221 = CYLINDRICAL_SURFACE ( 'NONE', #182, 0.07381889763779533900 ) ;
#222 = COLOUR_RGB ( '',1.000000000000000000, 0.2705882352941176300, 0.1843137254901960900 ) ;
#223 = EDGE_LOOP ( 'NONE', ( #343, #200, #42, #378 ) ) ;
#224 = CARTESIAN_POINT ( 'NONE',  ( -2.053000944737014300, 1.881143471215975400, 0.3100000000000000000 ) ) ;
#225 = CARTESIAN_POINT ( 'NONE',  ( -3.724999999999999600, 2.331143471215976000, 0.3100000000000000000 ) ) ;
#226 = EDGE_CURVE ( 'NONE', #447, #461, #48, .T. ) ;
#227 = DIRECTION ( 'NONE',  ( 0.0000000000000000000, 0.0000000000000000000, 1.000000000000000000 ) ) ;
#228 = VERTEX_POINT ( 'NONE', #161 ) ;
#229 = EDGE_LOOP ( 'NONE', ( #366, #298 ) ) ;
#230 = CARTESIAN_POINT ( 'NONE',  ( -3.485236220472440700, 2.109763779527559400, 0.01000000000000000000 ) ) ;
#231 = DIRECTION ( 'NONE',  ( -1.000000000000000000, 0.0000000000000000000, 0.0000000000000000000 ) ) ;
#232 = LINE ( 'NONE', #61, #406 ) ;
#233 = CARTESIAN_POINT ( 'NONE',  ( -3.724999999999999600, 1.881143471215975400, 0.01000000000000000000 ) ) ;
#234 = EDGE_CURVE ( 'NONE', #99, #121, #73, .T. ) ;
#235 = VECTOR ( 'NONE', #66, 39.37007874015748100 ) ;
#236 = ORIENTED_EDGE ( 'NONE', *, *, #410, .F. ) ;
#237 = VECTOR ( 'NONE', #231, 39.37007874015748100 ) ;
#238 = ORIENTED_EDGE ( 'NONE', *, *, #57, .T. ) ;
#239 = LINE ( 'NONE', #433, #278 ) ;
#240 = DIRECTION ( 'NONE',  ( -0.0000000000000000000, -0.0000000000000000000, -1.000000000000000000 ) ) ;
#241 = DIRECTION ( 'NONE',  ( -0.0000000000000000000, -0.0000000000000000000, -1.000000000000000000 ) ) ;
#242 = LINE ( 'NONE', #356, #237 ) ;
#243 = ORIENTED_EDGE ( 'NONE', *, *, #234, .F. ) ;
#244 = CARTESIAN_POINT ( 'NONE',  ( -2.338582677165354200, 2.109763779527559400, 0.3100000000000000000 ) ) ;
#245 = VERTEX_POINT ( 'NONE', #443 ) ;
#246 = CARTESIAN_POINT ( 'NONE',  ( -3.724999999999999600, 1.881143471215975400, 0.3100000000000000000 ) ) ;
#247 = DIRECTION ( 'NONE',  ( -0.0000000000000000000, -0.0000000000000000000, -1.000000000000000000 ) ) ;
#248 = PRODUCT_DEFINITION_FORMATION_WITH_SPECIFIED_SOURCE ( 'ANY', '', #271, .NOT_KNOWN. ) ;
#249 = VECTOR ( 'NONE', #426, 39.37007874015748100 ) ;
#250 = CARTESIAN_POINT ( 'NONE',  ( -2.190944881889763400, 2.109763779527559400, 0.3100000000000000000 ) ) ;
#251 = ORIENTED_EDGE ( 'NONE', *, *, #33, .T. ) ;
#252 = EDGE_CURVE ( 'NONE', #290, #121, #419, .T. ) ;
#253 = CARTESIAN_POINT ( 'NONE',  ( -3.485236220472440700, 2.109763779527559400, 0.3100000000000000000 ) ) ;
#254 = AXIS2_PLACEMENT_3D ( 'NONE', #115, #204, #344 ) ;
#255 = EDGE_LOOP ( 'NONE', ( #143, #174, #111, #123, #349 ) ) ;
#256 = CARTESIAN_POINT ( 'NONE',  ( -3.559055118110236100, 2.109763779527559400, 0.3100000000000000000 ) ) ;
#257 = ORIENTED_EDGE ( 'NONE', *, *, #252, .T. ) ;
#258 = PRODUCT_CONTEXT ( 'NONE', #181, 'mechanical' ) ;
#259 = CARTESIAN_POINT ( 'NONE',  ( -2.253000944737014500, 2.131143471215975800, 0.01000000000000000000 ) ) ;
#260 = VECTOR ( 'NONE', #377, 39.37007874015748100 ) ;
#261 = CIRCLE ( 'NONE', #106, 0.07381889763779533900 ) ;
#262 = DIRECTION ( 'NONE',  ( 0.0000000000000000000, 0.0000000000000000000, 1.000000000000000000 ) ) ;
#263 = DIRECTION ( 'NONE',  ( 1.000000000000000000, 0.0000000000000000000, 0.0000000000000000000 ) ) ;
#264 = DIRECTION ( 'NONE',  ( -1.000000000000000000, 0.0000000000000000000, 0.0000000000000000000 ) ) ;
#265 = CARTESIAN_POINT ( 'NONE',  ( -2.338582677165354200, 2.109763779527559400, 0.3100000000000000000 ) ) ;
#266 = SHAPE_DEFINITION_REPRESENTATION ( #340, #359 ) ;
#267 = EDGE_LOOP ( 'NONE', ( #160, #15, #35, #142 ) ) ;
#268 = CARTESIAN_POINT ( 'NONE',  ( -2.190944881889763400, 2.109763779527559400, 0.3100000000000000000 ) ) ;
#269 = ORIENTED_EDGE ( 'NONE', *, *, #388, .F. ) ;
#270 = CARTESIAN_POINT ( 'NONE',  ( -2.623999999999999700, 1.881143471215975400, 0.0000000000000000000 ) ) ;
#271 = PRODUCT ( 'secondary guide cap', 'secondary guide cap', '', ( #258 ) ) ;
#272 = DIRECTION ( 'NONE',  ( 0.0000000000000000000, -1.000000000000000000, 0.0000000000000000000 ) ) ;
#273 = ADVANCED_FACE ( 'NONE', ( #108 ), #214, .F. ) ;
#274 = DIRECTION ( 'NONE',  ( 0.0000000000000000000, 0.0000000000000000000, -1.000000000000000000 ) ) ;
#275 = ADVANCED_FACE ( 'NONE', ( #127 ), #4, .T. ) ;
#276 = CARTESIAN_POINT ( 'NONE',  ( -2.710171703592304300, 1.881143471215975400, 0.01000000000000000000 ) ) ;
#277 = PRESENTATION_LAYER_ASSIGNMENT (  '', '', ( #201 ) ) ;
#278 = VECTOR ( 'NONE', #191, 39.37007874015748100 ) ;
#279 = CARTESIAN_POINT ( 'NONE',  ( -2.264763779527558800, 2.109763779527559400, 0.3100000000000000000 ) ) ;
#280 = EDGE_CURVE ( 'NONE', #401, #228, #13, .T. ) ;
#281 = ADVANCED_FACE ( 'NONE', ( #392 ), #221, .F. ) ;
#282 = AXIS2_PLACEMENT_3D ( 'NONE', #335, #194, #445 ) ;
#283 = EDGE_LOOP ( 'NONE', ( #153, #320, #190, #137 ) ) ;
#284 = AXIS2_PLACEMENT_3D ( 'NONE', #216, #208, #202 ) ;
#285 = CARTESIAN_POINT ( 'NONE',  ( -3.724999999999999600, 1.881143471215975400, 0.3100000000000000000 ) ) ;
#286 = EDGE_CURVE ( 'NONE', #395, #85, #7, .T. ) ;
#287 = APPLICATION_PROTOCOL_DEFINITION ( 'draft international standard', 'automotive_design', 1998, #181 ) ;
#288 = DIRECTION ( 'NONE',  ( 1.092739197465703900E-015, 1.000000000000000000, 0.0000000000000000000 ) ) ;
#289 = DIMENSIONAL_EXPONENTS ( 1.000000000000000000, 0.0000000000000000000, 0.0000000000000000000, 0.0000000000000000000, 0.0000000000000000000, 0.0000000000000000000, 0.0000000000000000000 ) ;
#290 = VERTEX_POINT ( 'NONE', #384 ) ;
#291 = PLANE ( 'NONE',  #282 ) ;
#292 = AXIS2_PLACEMENT_3D ( 'NONE', #330, #59, #96 ) ;
#293 = DIRECTION ( 'NONE',  ( 0.0000000000000000000, 0.0000000000000000000, -1.000000000000000000 ) ) ;
#294 = CARTESIAN_POINT ( 'NONE',  ( -2.053000944737013900, 2.131143471215975800, 0.01000000000000000000 ) ) ;
#295 = VERTEX_POINT ( 'NONE', #58 ) ;
#296 = DIMENSIONAL_EXPONENTS ( 1.000000000000000000, 0.0000000000000000000, 0.0000000000000000000, 0.0000000000000000000, 0.0000000000000000000, 0.0000000000000000000, 0.0000000000000000000 ) ;
#297 = EDGE_CURVE ( 'NONE', #245, #401, #141, .T. ) ;
#298 = ORIENTED_EDGE ( 'NONE', *, *, #347, .F. ) ;
#299 = DIMENSIONAL_EXPONENTS ( 1.000000000000000000, 0.0000000000000000000, 0.0000000000000000000, 0.0000000000000000000, 0.0000000000000000000, 0.0000000000000000000, 0.0000000000000000000 ) ;
#300 = FILL_AREA_STYLE_COLOUR ( '', #222 ) ;
#301 = UNCERTAINTY_MEASURE_WITH_UNIT (LENGTH_MEASURE( 1.000000000000000100E-005 ), #338, 'distance_accuracy_value', 'NONE');
#302 = ADVANCED_FACE ( 'NONE', ( #399 ), #145, .F. ) ;
#303 = DIRECTION ( 'NONE',  ( -0.0000000000000000000, -0.0000000000000000000, -1.000000000000000000 ) ) ;
#304 = LENGTH_MEASURE_WITH_UNIT ( LENGTH_MEASURE( 0.02539999999999999900 ), #162 );
#305 = VERTEX_POINT ( 'NONE', #364 ) ;
#306 = CARTESIAN_POINT ( 'NONE',  ( -3.559055118110236100, 2.109763779527559400, 0.3100000000000000000 ) ) ;
#307 = ADVANCED_FACE ( 'NONE', ( #427 ), #101, .F. ) ;
#308 = FACE_OUTER_BOUND ( 'NONE', #267, .T. ) ;
#309 = DIRECTION ( 'NONE',  ( -1.000000000000000000, 0.0000000000000000000, 0.0000000000000000000 ) ) ;
#310 = PRODUCT_RELATED_PRODUCT_CATEGORY ( 'part', '', ( #271 ) ) ;
#311 = ADVANCED_FACE ( 'NONE', ( #2 ), #38, .F. ) ;
#312 = EDGE_CURVE ( 'NONE', #305, #129, #423, .T. ) ;
#313 = ADVANCED_FACE ( 'NONE', ( #118, #387 ), #70, .T. ) ;
#314 =( NAMED_UNIT ( * ) SI_UNIT ( $, .STERADIAN. ) SOLID_ANGLE_UNIT ( ) );
#315 = ADVANCED_FACE ( 'NONE', ( #20 ), #362, .F. ) ;
#316 = AXIS2_PLACEMENT_3D ( 'NONE', #86, #368, #186 ) ;
#317 = ORIENTED_EDGE ( 'NONE', *, *, #218, .F. ) ;
#318 = CARTESIAN_POINT ( 'NONE',  ( -2.053000944737014300, 1.881143471215975400, 0.01000000000000000000 ) ) ;
#319 = ADVANCED_FACE ( 'NONE', ( #146 ), #50, .F. ) ;
#320 = ORIENTED_EDGE ( 'NONE', *, *, #420, .F. ) ;
#321 = ADVANCED_FACE ( 'NONE', ( #369, #341, #26 ), #44, .F. ) ;
#322 = FILL_AREA_STYLE ('',( #300 ) ) ;
#323 = ADVANCED_FACE ( 'NONE', ( #32 ), #29, .F. ) ;
#324 = CIRCLE ( 'NONE', #446, 0.07381889763779533900 ) ;
#325 = VECTOR ( 'NONE', #52, 39.37007874015748100 ) ;
#326 = SURFACE_SIDE_STYLE ('',( #405 ) ) ;
#327 = EDGE_LOOP ( 'NONE', ( #184, #238, #148, #104, #98 ) ) ;
#328 = SURFACE_STYLE_USAGE ( .BOTH. , #326 ) ;
#329 = ORIENTED_EDGE ( 'NONE', *, *, #398, .F. ) ;
#330 = CARTESIAN_POINT ( 'NONE',  ( -3.485236220472440700, 2.109763779527559400, 0.01000000000000000000 ) ) ;
#331 = CARTESIAN_POINT ( 'NONE',  ( -3.724999999999999600, 2.331143471215976000, 0.3100000000000000000 ) ) ;
#332 = AXIS2_PLACEMENT_3D ( 'NONE', #219, #69, #68 ) ;
#333 =( LENGTH_UNIT ( ) NAMED_UNIT ( * ) SI_UNIT ( $, .METRE. ) );
#334 = EDGE_LOOP ( 'NONE', ( #23, #329, #350, #391, #60, #448 ) ) ;
#335 = CARTESIAN_POINT ( 'NONE',  ( -2.253000944737014500, 2.131143471215975800, 0.01000000000000000000 ) ) ;
#336 = ORIENTED_EDGE ( 'NONE', *, *, #57, .F. ) ;
#337 = EDGE_CURVE ( 'NONE', #295, #245, #124, .T. ) ;
#338 =( CONVERSION_BASED_UNIT ( 'INCH', #455 ) LENGTH_UNIT ( ) NAMED_UNIT ( #296 ) );
#339 =( NAMED_UNIT ( * ) PLANE_ANGLE_UNIT ( ) SI_UNIT ( $, .RADIAN. ) );
#340 = PRODUCT_DEFINITION_SHAPE ( 'NONE', 'NONE',  #150 ) ;
#341 = FACE_BOUND ( 'NONE', #451, .T. ) ;
#342 =( NAMED_UNIT ( * ) SI_UNIT ( $, .STERADIAN. ) SOLID_ANGLE_UNIT ( ) );
#343 = ORIENTED_EDGE ( 'NONE', *, *, #379, .T. ) ;
#344 = DIRECTION ( 'NONE',  ( -1.000000000000000000, 0.0000000000000000000, 0.0000000000000000000 ) ) ;
#345 =( GEOMETRIC_REPRESENTATION_CONTEXT ( 3 ) GLOBAL_UNCERTAINTY_ASSIGNED_CONTEXT ( ( #450 ) ) GLOBAL_UNIT_ASSIGNED_CONTEXT ( ( #27, #49, #43 ) ) REPRESENTATION_CONTEXT ( 'NONE', 'WORKASPACE' ) );
#346 = DIRECTION ( 'NONE',  ( 1.000000000000000000, 0.0000000000000000000, 0.0000000000000000000 ) ) ;
#347 = EDGE_CURVE ( 'NONE', #210, #85, #166, .T. ) ;
#348 = DIRECTION ( 'NONE',  ( 0.0000000000000000000, 1.000000000000000000, 0.0000000000000000000 ) ) ;
#349 = ORIENTED_EDGE ( 'NONE', *, *, #1, .F. ) ;
#350 = ORIENTED_EDGE ( 'NONE', *, *, #1, .T. ) ;
#351 = AXIS2_PLACEMENT_3D ( 'NONE', #126, #88, #87 ) ;
#352 = LINE ( 'NONE', #156, #112 ) ;
#353 = ORIENTED_EDGE ( 'NONE', *, *, #286, .T. ) ;
#354 = VERTEX_POINT ( 'NONE', #110 ) ;
#355 = CARTESIAN_POINT ( 'NONE',  ( -2.253000944737014500, 2.331143471215976000, 0.3100000000000000000 ) ) ;
#356 = CARTESIAN_POINT ( 'NONE',  ( -2.253000944737014500, 2.331143471215976000, 0.3100000000000000000 ) ) ;
#357 = CIRCLE ( 'NONE', #139, 0.07381889763779533900 ) ;
#358 = ORIENTED_EDGE ( 'NONE', *, *, #337, .F. ) ;
#359 = ADVANCED_BREP_SHAPE_REPRESENTATION ( 'secondary guide cap', ( #429, #417 ), #178 ) ;
#360 = CARTESIAN_POINT ( 'NONE',  ( -2.253000944737014500, 2.331143471215976000, 0.3100000000000000000 ) ) ;
#361 = EDGE_CURVE ( 'NONE', #34, #415, #172, .T. ) ;
#362 = CYLINDRICAL_SURFACE ( 'NONE', #102, 0.08674999999999995200 ) ;
#363 = PRESENTATION_STYLE_ASSIGNMENT (( #140 ) ) ;
#364 = CARTESIAN_POINT ( 'NONE',  ( -3.724999999999999600, 2.331143471215976000, 0.3100000000000000000 ) ) ;
#365 = ORIENTED_EDGE ( 'NONE', *, *, #203, .F. ) ;
#366 = ORIENTED_EDGE ( 'NONE', *, *, #449, .F. ) ;
#367 = CARTESIAN_POINT ( 'NONE',  ( -3.485236220472440700, 2.109763779527559400, 0.3100000000000000000 ) ) ;
#368 = DIRECTION ( 'NONE',  ( 0.0000000000000000000, -1.000000000000000000, 0.0000000000000000000 ) ) ;
#369 = FACE_BOUND ( 'NONE', #9, .T. ) ;
#370 = CARTESIAN_POINT ( 'NONE',  ( -3.411417322834645400, 2.109763779527559400, 0.3100000000000000000 ) ) ;
#371 = LINE ( 'NONE', #25, #393 ) ;
#372 = MECHANICAL_DESIGN_GEOMETRIC_PRESENTATION_REPRESENTATION (  '', ( #201 ), #345 ) ;
#373 = CARTESIAN_POINT ( 'NONE',  ( -3.724999999999999600, 1.881143471215975400, 0.3100000000000000000 ) ) ;
#374 = ORIENTED_EDGE ( 'NONE', *, *, #122, .F. ) ;
#375 = EDGE_LOOP ( 'NONE', ( #243, #120 ) ) ;
#376 = EDGE_CURVE ( 'NONE', #305, #461, #152, .T. ) ;
#377 = DIRECTION ( 'NONE',  ( -1.000000000000000000, 0.0000000000000000000, 0.0000000000000000000 ) ) ;
#378 = ORIENTED_EDGE ( 'NONE', *, *, #193, .T. ) ;
#379 = EDGE_CURVE ( 'NONE', #421, #228, #164, .T. ) ;
#380 = LINE ( 'NONE', #154, #325 ) ;
#381 = LINE ( 'NONE', #425, #412 ) ;
#382 = DIRECTION ( 'NONE',  ( -1.000000000000000000, 0.0000000000000000000, 0.0000000000000000000 ) ) ;
#383 = ORIENTED_EDGE ( 'NONE', *, *, #449, .T. ) ;
#384 = CARTESIAN_POINT ( 'NONE',  ( -3.411417322834645400, 2.109763779527559400, 0.3100000000000000000 ) ) ;
#385 =( CONVERSION_BASED_UNIT ( 'INCH', #103 ) LENGTH_UNIT ( ) NAMED_UNIT ( #299 ) );
#386 = DIRECTION ( 'NONE',  ( -0.0000000000000000000, -0.0000000000000000000, -1.000000000000000000 ) ) ;
#387 = FACE_BOUND ( 'NONE', #229, .T. ) ;
#388 = EDGE_CURVE ( 'NONE', #462, #99, #19, .T. ) ;
#389 = CLOSED_SHELL ( 'NONE', ( #100, #273, #313, #275, #319, #302, #307, #323, #321, #5, #311, #281, #315 ) ) ;
#390 = CARTESIAN_POINT ( 'NONE',  ( -2.053000944737014300, 1.881143471215975400, 0.01000000000000000000 ) ) ;
#391 = ORIENTED_EDGE ( 'NONE', *, *, #459, .F. ) ;
#392 = FACE_OUTER_BOUND ( 'NONE', #436, .T. ) ;
#393 = VECTOR ( 'NONE', #17, 39.37007874015748100 ) ;
#394 = PRESENTATION_STYLE_ASSIGNMENT (( #328 ) ) ;
#395 = VERTEX_POINT ( 'NONE', #265 ) ;
#396 = ORIENTED_EDGE ( 'NONE', *, *, #410, .T. ) ;
#397 = DIRECTION ( 'NONE',  ( -0.0000000000000000000, -0.0000000000000000000, -1.000000000000000000 ) ) ;
#398 = EDGE_CURVE ( 'NONE', #46, #415, #151, .T. ) ;
#399 = FACE_OUTER_BOUND ( 'NONE', #283, .T. ) ;
#400 = VERTEX_POINT ( 'NONE', #250 ) ;
#401 = VERTEX_POINT ( 'NONE', #360 ) ;
#402 = CARTESIAN_POINT ( 'NONE',  ( -3.724999999999999600, 2.331143471215976000, 0.01000000000000000000 ) ) ;
#403 = DIRECTION ( 'NONE',  ( -0.0000000000000000000, -0.0000000000000000000, -1.000000000000000000 ) ) ;
#404 = CYLINDRICAL_SURFACE ( 'NONE', #168, 0.07381889763779533900 ) ;
#405 = SURFACE_STYLE_FILL_AREA ( #322 ) ;
#406 = VECTOR ( 'NONE', #348, 39.37007874015748100 ) ;
#407 = DIRECTION ( 'NONE',  ( 0.0000000000000000000, 0.0000000000000000000, -1.000000000000000000 ) ) ;
#408 = SURFACE_STYLE_FILL_AREA ( #171 ) ;
#409 = PRODUCT_DEFINITION_CONTEXT ( 'detailed design', #138, 'design' ) ;
#410 = EDGE_CURVE ( 'NONE', #400, #210, #192, .T. ) ;
#411 =( NAMED_UNIT ( * ) PLANE_ANGLE_UNIT ( ) SI_UNIT ( $, .RADIAN. ) );
#412 = VECTOR ( 'NONE', #397, 39.37007874015748100 ) ;
#413 = DIRECTION ( 'NONE',  ( -0.0000000000000000000, -0.0000000000000000000, -1.000000000000000000 ) ) ;
#414 = CIRCLE ( 'NONE', #316, 0.08674999999999995200 ) ;
#415 = VERTEX_POINT ( 'NONE', #276 ) ;
#416 = DIRECTION ( 'NONE',  ( -1.000000000000000000, 0.0000000000000000000, 0.0000000000000000000 ) ) ;
#417 = AXIS2_PLACEMENT_3D ( 'NONE', #92, #227, #263 ) ;
#418 = UNCERTAINTY_MEASURE_WITH_UNIT (LENGTH_MEASURE( 1.000000000000000100E-005 ), #385, 'distance_accuracy_value', 'NONE');
#419 = LINE ( 'NONE', #370, #249 ) ;
#420 = EDGE_CURVE ( 'NONE', #129, #34, #176, .T. ) ;
#421 = VERTEX_POINT ( 'NONE', #294 ) ;
#422 = DIRECTION ( 'NONE',  ( -0.0000000000000000000, -0.0000000000000000000, -1.000000000000000000 ) ) ;
#423 = LINE ( 'NONE', #78, #147 ) ;
#424 = CIRCLE ( 'NONE', #116, 0.07381889763779533900 ) ;
#425 = CARTESIAN_POINT ( 'NONE',  ( -2.053000944737013900, 2.131143471215975800, 0.3100000000000000000 ) ) ;
#426 = DIRECTION ( 'NONE',  ( -0.0000000000000000000, -0.0000000000000000000, -1.000000000000000000 ) ) ;
#427 = FACE_OUTER_BOUND ( 'NONE', #334, .T. ) ;
#428 = CARTESIAN_POINT ( 'NONE',  ( -2.253000944737014500, 2.131143471215975800, 0.3100000000000000000 ) ) ;
#429 = MANIFOLD_SOLID_BREP ( 'Cut-Extrude2', #389 ) ;
#430 = EDGE_LOOP ( 'NONE', ( #79, #396, #22, #180 ) ) ;
#431 = EDGE_CURVE ( 'NONE', #458, #421, #183, .T. ) ;
#432 = CIRCLE ( 'NONE', #67, 0.07381889763779533900 ) ;
#433 = CARTESIAN_POINT ( 'NONE',  ( -3.724999999999999600, 1.881143471215975400, 0.01000000000000000000 ) ) ;
#434 = ORIENTED_EDGE ( 'NONE', *, *, #459, .T. ) ;
#435 = DIRECTION ( 'NONE',  ( -1.000000000000000000, 0.0000000000000000000, 0.0000000000000000000 ) ) ;
#436 = EDGE_LOOP ( 'NONE', ( #236, #374, #353, #383 ) ) ;
#437 = EDGE_CURVE ( 'NONE', #462, #290, #432, .T. ) ;
#438 =( LENGTH_UNIT ( ) NAMED_UNIT ( * ) SI_UNIT ( $, .METRE. ) );
#439 = FACE_OUTER_BOUND ( 'NONE', #430, .T. ) ;
#440 = EDGE_LOOP ( 'NONE', ( #179, #109, #65, #317 ) ) ;
#441 = AXIS2_PLACEMENT_3D ( 'NONE', #259, #262, #416 ) ;
#442 = ORIENTED_EDGE ( 'NONE', *, *, #376, .F. ) ;
#443 = CARTESIAN_POINT ( 'NONE',  ( -2.053000944737013900, 2.131143471215975800, 0.3100000000000000000 ) ) ;
#444 = EDGE_CURVE ( 'NONE', #129, #295, #54, .T. ) ;
#445 = DIRECTION ( 'NONE',  ( -1.000000000000000000, 0.0000000000000000000, 0.0000000000000000000 ) ) ;
#446 = AXIS2_PLACEMENT_3D ( 'NONE', #14, #11, #8 ) ;
#447 = VERTEX_POINT ( 'NONE', #136 ) ;
#448 = ORIENTED_EDGE ( 'NONE', *, *, #420, .T. ) ;
#449 = EDGE_CURVE ( 'NONE', #85, #210, #324, .T. ) ;
#450 = UNCERTAINTY_MEASURE_WITH_UNIT (LENGTH_MEASURE( 1.000000000000000100E-005 ), #27, 'distance_accuracy_value', 'NONE');
#451 = EDGE_LOOP ( 'NONE', ( #75, #114 ) ) ;
#452 = CARTESIAN_POINT ( 'NONE',  ( -2.537828296407695000, 1.881143471215975400, 0.01000000000000000000 ) ) ;
#453 = PRESENTATION_LAYER_ASSIGNMENT (  '', '', ( #31 ) ) ;
#454 = DIRECTION ( 'NONE',  ( -1.000000000000000000, 0.0000000000000000000, 0.0000000000000000000 ) ) ;
#455 = LENGTH_MEASURE_WITH_UNIT ( LENGTH_MEASURE( 0.02539999999999999900 ), #333 );
#456 = CARTESIAN_POINT ( 'NONE',  ( -3.724999999999999600, 1.881143471215975400, 0.01000000000000000000 ) ) ;
#457 = FACE_BOUND ( 'NONE', #375, .T. ) ;
#458 = VERTEX_POINT ( 'NONE', #390 ) ;
#459 = EDGE_CURVE ( 'NONE', #295, #458, #352, .T. ) ;
#460 = EDGE_LOOP ( 'NONE', ( #188, #215, #40, #3 ) ) ;
#461 = VERTEX_POINT ( 'NONE', #131 ) ;
#462 = VERTEX_POINT ( 'NONE', #306 ) ;
ENDSEC;
END-ISO-10303-21;
