ISO-10303-21;
HEADER;
FILE_DESCRIPTION (( 'STEP AP214' ),
    '1' );
FILE_NAME ('shelf spacer.STEP',
    '2016-04-22T00:07:33',
    ( '' ),
    ( '' ),
    'SwSTEP 2.0',
    'SolidWorks 2015',
    '' );
FILE_SCHEMA (( 'AUTOMOTIVE_DESIGN' ));
ENDSEC;

DATA;
#1 = CARTESIAN_POINT ( 'NONE',  ( 2.173763779527559100, 1.320000000000000100, 0.1327755905511811300 ) ) ;
#2 = FACE_OUTER_BOUND ( 'NONE', #363, .T. ) ;
#3 = ORIENTED_EDGE ( 'NONE', *, *, #18, .T. ) ;
#4 = EDGE_CURVE ( 'NONE', #455, #585, #211, .T. ) ;
#5 = DIRECTION ( 'NONE',  ( -0.0000000000000000000, -0.0000000000000000000, -1.000000000000000000 ) ) ;
#6 = PLANE ( 'NONE',  #271 ) ;
#7 = DIRECTION ( 'NONE',  ( 1.000000000000000000, 0.0000000000000000000, 0.0000000000000000000 ) ) ;
#8 = CARTESIAN_POINT ( 'NONE',  ( 2.993272996566406000, 1.370000000000000100, -0.05000000000000000300 ) ) ;
#9 = DIRECTION ( 'NONE',  ( -1.000000000000000000, 0.0000000000000000000, 0.0000000000000000000 ) ) ;
#10 = CIRCLE ( 'NONE', #629, 0.07381889763779533900 ) ;
#11 = ORIENTED_EDGE ( 'NONE', *, *, #491, .F. ) ;
#12 = VERTEX_POINT ( 'NONE', #368 ) ;
#13 = LINE ( 'NONE', #554, #134 ) ;
#14 = CARTESIAN_POINT ( 'NONE',  ( 2.993272996566406000, 1.370000000000000100, -0.05000000000000000300 ) ) ;
#15 = SURFACE_SIDE_STYLE ('',( #583 ) ) ;
#16 = CARTESIAN_POINT ( 'NONE',  ( 2.625000000000000000, 1.070000000000000100, -0.05000000000000000300 ) ) ;
#17 = CARTESIAN_POINT ( 'NONE',  ( 3.058818897637795200, 1.070000000000000100, 0.1327755905511811300 ) ) ;
#18 = EDGE_CURVE ( 'NONE', #78, #524, #209, .T. ) ;
#19 = DIRECTION ( 'NONE',  ( 0.0000000000000000000, 0.0000000000000000000, -1.000000000000000000 ) ) ;
#20 = DIRECTION ( 'NONE',  ( 0.0000000000000000000, -0.0000000000000000000, -1.000000000000000000 ) ) ;
#21 = VERTEX_POINT ( 'NONE', #648 ) ;
#22 = CARTESIAN_POINT ( 'NONE',  ( 2.625000000000000000, 1.070000000000000100, -0.05000000000000000300 ) ) ;
#23 = LINE ( 'NONE', #276, #154 ) ;
#24 = PLANE ( 'NONE',  #365 ) ;
#25 = CARTESIAN_POINT ( 'NONE',  ( 1.673763779527558400, 1.820000000000000300, 0.1327755905511811300 ) ) ;
#26 = ADVANCED_FACE ( 'NONE', ( #204 ), #539, .F. ) ;
#27 = CARTESIAN_POINT ( 'NONE',  ( 2.265000000000000100, 1.070000000000000100, 0.0000000000000000000 ) ) ;
#28 = FACE_OUTER_BOUND ( 'NONE', #593, .T. ) ;
#29 = ADVANCED_FACE ( 'NONE', ( #208 ), #123, .F. ) ;
#30 = ORIENTED_EDGE ( 'NONE', *, *, #579, .F. ) ;
#31 = ORIENTED_EDGE ( 'NONE', *, *, #90, .T. ) ;
#32 = FACE_OUTER_BOUND ( 'NONE', #584, .T. ) ;
#33 = EDGE_CURVE ( 'NONE', #589, #78, #462, .T. ) ;
#34 = UNCERTAINTY_MEASURE_WITH_UNIT (LENGTH_MEASURE( 1.000000000000000100E-005 ), #392, 'distance_accuracy_value', 'NONE');
#35 = LINE ( 'NONE', #251, #613 ) ;
#36 = EDGE_LOOP ( 'NONE', ( #305, #323, #416, #436 ) ) ;
#37 = ORIENTED_EDGE ( 'NONE', *, *, #339, .F. ) ;
#38 = ORIENTED_EDGE ( 'NONE', *, *, #270, .T. ) ;
#39 = EDGE_CURVE ( 'NONE', #50, #186, #85, .T. ) ;
#40 = AXIS2_PLACEMENT_3D ( 'NONE', #378, #330, #178 ) ;
#41 = VECTOR ( 'NONE', #610, 39.37007874015748100 ) ;
#42 = VERTEX_POINT ( 'NONE', #200 ) ;
#43 = VERTEX_POINT ( 'NONE', #144 ) ;
#44 = CIRCLE ( 'NONE', #504, 0.07381889763779533900 ) ;
#45 = CARTESIAN_POINT ( 'NONE',  ( 3.724999999999999600, -0.005475010030633318600, -0.05000000000000001000 ) ) ;
#46 =( NAMED_UNIT ( * ) PLANE_ANGLE_UNIT ( ) SI_UNIT ( $, .RADIAN. ) );
#47 = EDGE_CURVE ( 'NONE', #42, #585, #122, .T. ) ;
#48 =( LENGTH_UNIT ( ) NAMED_UNIT ( * ) SI_UNIT ( $, .METRE. ) );
#49 = ORIENTED_EDGE ( 'NONE', *, *, #375, .T. ) ;
#50 = VERTEX_POINT ( 'NONE', #441 ) ;
#51 = CYLINDRICAL_SURFACE ( 'NONE', #110, 0.4999999999999998300 ) ;
#52 = LINE ( 'NONE', #512, #499 ) ;
#53 = DIRECTION ( 'NONE',  ( 1.000000000000000000, 0.0000000000000000000, 0.0000000000000000000 ) ) ;
#54 = DIRECTION ( 'NONE',  ( 1.000000000000000000, 0.0000000000000000000, 0.0000000000000000000 ) ) ;
#55 = DIRECTION ( 'NONE',  ( -1.000000000000000000, 0.0000000000000000000, 0.0000000000000000000 ) ) ;
#56 = SURFACE_STYLE_USAGE ( .BOTH. , #15 ) ;
#57 = CIRCLE ( 'NONE', #314, 0.5000000000000001100 ) ;
#58 = ORIENTED_EDGE ( 'NONE', *, *, #334, .F. ) ;
#59 = DIRECTION ( 'NONE',  ( 0.0000000000000000000, 0.0000000000000000000, 1.000000000000000000 ) ) ;
#60 = ORIENTED_EDGE ( 'NONE', *, *, #39, .F. ) ;
#61 = PRODUCT_DEFINITION_FORMATION_WITH_SPECIFIED_SOURCE ( 'ANY', '', #244, .NOT_KNOWN. ) ;
#62 = CIRCLE ( 'NONE', #354, 0.07381889763779533900 ) ;
#63 = CARTESIAN_POINT ( 'NONE',  ( 2.984999999999999900, 1.070000000000000100, 0.1327755905511811300 ) ) ;
#64 = CARTESIAN_POINT ( 'NONE',  ( 2.625000000000000000, 1.070000000000000100, -0.05000000000000000300 ) ) ;
#65 = EDGE_CURVE ( 'NONE', #585, #589, #480, .T. ) ;
#66 = AXIS2_PLACEMENT_3D ( 'NONE', #439, #326, #570 ) ;
#67 = DIRECTION ( 'NONE',  ( -2.961352838660447200E-016, 1.000000000000000000, 0.0000000000000000000 ) ) ;
#68 = CARTESIAN_POINT ( 'NONE',  ( 3.576236220472441800, 0.2292837836171291400, 0.1327755905511809900 ) ) ;
#69 = VERTEX_POINT ( 'NONE', #96 ) ;
#70 = ORIENTED_EDGE ( 'NONE', *, *, #224, .T. ) ;
#71 = EDGE_CURVE ( 'NONE', #381, #215, #340, .T. ) ;
#72 = DIRECTION ( 'NONE',  ( 0.0000000000000000000, 1.000000000000000000, 0.0000000000000000000 ) ) ;
#73 = ADVANCED_FACE ( 'NONE', ( #28 ), #99, .F. ) ;
#74 = VECTOR ( 'NONE', #389, 39.37007874015748100 ) ;
#75 = ORIENTED_EDGE ( 'NONE', *, *, #47, .F. ) ;
#76 = DIRECTION ( 'NONE',  ( 0.0000000000000000000, 0.0000000000000000000, 1.000000000000000000 ) ) ;
#77 = ADVANCED_FACE ( 'NONE', ( #219 ), #587, .F. ) ;
#78 = VERTEX_POINT ( 'NONE', #601 ) ;
#79 = FACE_OUTER_BOUND ( 'NONE', #430, .T. ) ;
#80 = ORIENTED_EDGE ( 'NONE', *, *, #197, .F. ) ;
#81 = VERTEX_POINT ( 'NONE', #101 ) ;
#82 = FACE_BOUND ( 'NONE', #203, .T. ) ;
#83 = CARTESIAN_POINT ( 'NONE',  ( 3.576236220472441800, 1.320000000000000100, -0.05000000000000001000 ) ) ;
#84 = AXIS2_PLACEMENT_3D ( 'NONE', #350, #449, #153 ) ;
#85 = CIRCLE ( 'NONE', #124, 0.07381889763779533900 ) ;
#86 = ORIENTED_EDGE ( 'NONE', *, *, #71, .F. ) ;
#87 = ORIENTED_EDGE ( 'NONE', *, *, #560, .F. ) ;
#88 = ORIENTED_EDGE ( 'NONE', *, *, #4, .F. ) ;
#89 = PLANE ( 'NONE',  #230 ) ;
#90 = EDGE_CURVE ( 'NONE', #534, #78, #414, .T. ) ;
#91 = AXIS2_PLACEMENT_3D ( 'NONE', #141, #128, #529 ) ;
#92 = CARTESIAN_POINT ( 'NONE',  ( 1.673763779527559100, -0.02500000000000001200, 2.891687519587348800 ) ) ;
#93 = VECTOR ( 'NONE', #349, 39.37007874015748100 ) ;
#94 = VERTEX_POINT ( 'NONE', #148 ) ;
#95 =( LENGTH_UNIT ( ) NAMED_UNIT ( * ) SI_UNIT ( $, .METRE. ) );
#96 = CARTESIAN_POINT ( 'NONE',  ( 2.993272996566406000, 1.370000000000000100, 0.0000000000000000000 ) ) ;
#97 = DIRECTION ( 'NONE',  ( 0.0000000000000000000, 0.0000000000000000000, -1.000000000000000000 ) ) ;
#98 = PRESENTATION_STYLE_ASSIGNMENT (( #440 ) ) ;
#99 = PLANE ( 'NONE',  #241 ) ;
#100 = CARTESIAN_POINT ( 'NONE',  ( 2.875000000000000000, -0.8999999999999999100, 0.1327755905511809900 ) ) ;
#101 = CARTESIAN_POINT ( 'NONE',  ( 2.256727003433594000, 0.7700000000000001300, -0.05000000000000000300 ) ) ;
#102 = EDGE_CURVE ( 'NONE', #21, #69, #35, .T. ) ;
#103 = DIRECTION ( 'NONE',  ( -0.0000000000000000000, -0.0000000000000000000, -1.000000000000000000 ) ) ;
#104 = LINE ( 'NONE', #17, #41 ) ;
#105 = EDGE_LOOP ( 'NONE', ( #162, #38, #542, #297 ) ) ;
#106 =( CONVERSION_BASED_UNIT ( 'INCH', #289 ) LENGTH_UNIT ( ) NAMED_UNIT ( #126 ) );
#107 = ORIENTED_EDGE ( 'NONE', *, *, #448, .F. ) ;
#108 = CARTESIAN_POINT ( 'NONE',  ( 2.265000000000000100, 1.070000000000000100, 0.1327755905511811300 ) ) ;
#109 = DIRECTION ( 'NONE',  ( -1.000000000000000000, 0.0000000000000000000, 0.0000000000000000000 ) ) ;
#110 = AXIS2_PLACEMENT_3D ( 'NONE', #222, #19, #321 ) ;
#111 = DIRECTION ( 'NONE',  ( -1.000000000000000000, 0.0000000000000000000, 0.0000000000000000000 ) ) ;
#112 = ORIENTED_EDGE ( 'NONE', *, *, #527, .F. ) ;
#113 = ORIENTED_EDGE ( 'NONE', *, *, #401, .T. ) ;
#114 = LINE ( 'NONE', #83, #382 ) ;
#115 = CARTESIAN_POINT ( 'NONE',  ( 3.076236220472441800, 1.820000000000000300, 0.0000000000000000000 ) ) ;
#116 = CARTESIAN_POINT ( 'NONE',  ( 1.673763779527559100, -0.02500000000000001200, 0.1327755905511811300 ) ) ;
#117 =( NAMED_UNIT ( * ) SI_UNIT ( $, .STERADIAN. ) SOLID_ANGLE_UNIT ( ) );
#118 = EDGE_CURVE ( 'NONE', #215, #455, #406, .T. ) ;
#119 = AXIS2_PLACEMENT_3D ( 'NONE', #284, #423, #76 ) ;
#120 = CARTESIAN_POINT ( 'NONE',  ( 2.993272996566406000, 0.7700000000000000200, -0.05000000000000000300 ) ) ;
#121 = CARTESIAN_POINT ( 'NONE',  ( 1.673763779527558400, 1.820000000000000300, 2.891687519587348800 ) ) ;
#122 = LINE ( 'NONE', #550, #422 ) ;
#123 = PLANE ( 'NONE',  #638 ) ;
#124 = AXIS2_PLACEMENT_3D ( 'NONE', #543, #595, #299 ) ;
#125 = ORIENTED_EDGE ( 'NONE', *, *, #535, .T. ) ;
#126 = DIMENSIONAL_EXPONENTS ( 1.000000000000000000, 0.0000000000000000000, 0.0000000000000000000, 0.0000000000000000000, 0.0000000000000000000, 0.0000000000000000000, 0.0000000000000000000 ) ;
#127 = CARTESIAN_POINT ( 'NONE',  ( 2.993272996566406000, 0.7700000000000000200, 0.0000000000000000000 ) ) ;
#128 = DIRECTION ( 'NONE',  ( 0.0000000000000000000, 0.0000000000000000000, 1.000000000000000000 ) ) ;
#129 = ADVANCED_FACE ( 'NONE', ( #353 ), #6, .F. ) ;
#130 = ORIENTED_EDGE ( 'NONE', *, *, #258, .F. ) ;
#131 = ORIENTED_EDGE ( 'NONE', *, *, #39, .T. ) ;
#132 = EDGE_CURVE ( 'NONE', #498, #381, #623, .T. ) ;
#133 = AXIS2_PLACEMENT_3D ( 'NONE', #333, #578, #238 ) ;
#134 = VECTOR ( 'NONE', #160, 39.37007874015748100 ) ;
#135 = CARTESIAN_POINT ( 'NONE',  ( 3.076236220472441800, 1.820000000000000300, 0.1327755905511811300 ) ) ;
#136 = VECTOR ( 'NONE', #278, 39.37007874015748100 ) ;
#137 = ORIENTED_EDGE ( 'NONE', *, *, #546, .T. ) ;
#138 = EDGE_CURVE ( 'NONE', #247, #193, #442, .T. ) ;
#139 = FACE_BOUND ( 'NONE', #233, .T. ) ;
#140 = AXIS2_PLACEMENT_3D ( 'NONE', #370, #419, #571 ) ;
#141 = CARTESIAN_POINT ( 'NONE',  ( 0.0000000000000000000, 0.0000000000000000000, 0.0000000000000000000 ) ) ;
#142 = ORIENTED_EDGE ( 'NONE', *, *, #620, .F. ) ;
#143 = ORIENTED_EDGE ( 'NONE', *, *, #90, .F. ) ;
#144 = CARTESIAN_POINT ( 'NONE',  ( 2.256727003433594000, 0.7700000000000001300, 0.0000000000000000000 ) ) ;
#145 = VECTOR ( 'NONE', #609, 39.37007874015748100 ) ;
#146 = DIRECTION ( 'NONE',  ( 6.450933630775880100E-017, 1.000000000000000000, -0.0000000000000000000 ) ) ;
#147 = SURFACE_SIDE_STYLE ('',( #582 ) ) ;
#148 = CARTESIAN_POINT ( 'NONE',  ( 2.191181102362204800, 1.070000000000000100, 0.1327755905511811300 ) ) ;
#149 =( GEOMETRIC_REPRESENTATION_CONTEXT ( 3 ) GLOBAL_UNCERTAINTY_ASSIGNED_CONTEXT ( ( #482 ) ) GLOBAL_UNIT_ASSIGNED_CONTEXT ( ( #106, #467, #117 ) ) REPRESENTATION_CONTEXT ( 'NONE', 'WORKASPACE' ) );
#150 = FILL_AREA_STYLE_COLOUR ( '', #280 ) ;
#151 = FACE_OUTER_BOUND ( 'NONE', #383, .T. ) ;
#152 = ORIENTED_EDGE ( 'NONE', *, *, #47, .T. ) ;
#153 = DIRECTION ( 'NONE',  ( -1.000000000000000000, 0.0000000000000000000, 0.0000000000000000000 ) ) ;
#154 = VECTOR ( 'NONE', #514, 39.37007874015748100 ) ;
#155 = DIRECTION ( 'NONE',  ( -1.000000000000000000, 0.0000000000000000000, 0.0000000000000000000 ) ) ;
#156 = AXIS2_PLACEMENT_3D ( 'NONE', #495, #206, #155 ) ;
#157 = DIRECTION ( 'NONE',  ( -0.0000000000000000000, -0.0000000000000000000, 1.000000000000000000 ) ) ;
#158 = CARTESIAN_POINT ( 'NONE',  ( 3.724999999999999600, -0.02500000000000014400, 0.0000000000000000000 ) ) ;
#159 = CARTESIAN_POINT ( 'NONE',  ( 1.673763779527558400, 1.820000000000000300, 0.1327755905511811300 ) ) ;
#160 = DIRECTION ( 'NONE',  ( -0.0000000000000000000, -0.0000000000000000000, 1.000000000000000000 ) ) ;
#161 = FACE_OUTER_BOUND ( 'NONE', #407, .T. ) ;
#162 = ORIENTED_EDGE ( 'NONE', *, *, #611, .F. ) ;
#163 = CARTESIAN_POINT ( 'NONE',  ( 3.076236220472441800, 1.320000000000000100, 0.0000000000000000000 ) ) ;
#164 = ORIENTED_EDGE ( 'NONE', *, *, #572, .F. ) ;
#165 = VECTOR ( 'NONE', #359, 39.37007874015748100 ) ;
#166 = DIRECTION ( 'NONE',  ( 1.000000000000000000, 0.0000000000000000000, 0.0000000000000000000 ) ) ;
#167 = EDGE_CURVE ( 'NONE', #355, #603, #532, .T. ) ;
#168 = AXIS2_PLACEMENT_3D ( 'NONE', #16, #319, #614 ) ;
#169 = DIRECTION ( 'NONE',  ( 0.0000000000000000000, -1.000000000000000000, 0.0000000000000000000 ) ) ;
#170 = CARTESIAN_POINT ( 'NONE',  ( 2.625000000000000000, 1.070000000000000100, -0.05000000000000000300 ) ) ;
#171 = LINE ( 'NONE', #476, #136 ) ;
#172 = CARTESIAN_POINT ( 'NONE',  ( 1.673763779527558800, 1.319999999999999800, 0.0000000000000000000 ) ) ;
#173 = ORIENTED_EDGE ( 'NONE', *, *, #434, .F. ) ;
#174 = VERTEX_POINT ( 'NONE', #458 ) ;
#175 = FACE_OUTER_BOUND ( 'NONE', #373, .T. ) ;
#176 = CYLINDRICAL_SURFACE ( 'NONE', #140, 0.07381889763779533900 ) ;
#177 = DIRECTION ( 'NONE',  ( 1.000000000000000000, -1.854499256756980400E-016, -0.0000000000000000000 ) ) ;
#178 = DIRECTION ( 'NONE',  ( -1.000000000000000000, 0.0000000000000000000, 0.0000000000000000000 ) ) ;
#179 = ADVANCED_FACE ( 'NONE', ( #552 ), #89, .F. ) ;
#180 = LINE ( 'NONE', #226, #429 ) ;
#181 =( GEOMETRIC_REPRESENTATION_CONTEXT ( 3 ) GLOBAL_UNCERTAINTY_ASSIGNED_CONTEXT ( ( #479 ) ) GLOBAL_UNIT_ASSIGNED_CONTEXT ( ( #348, #651, #303 ) ) REPRESENTATION_CONTEXT ( 'NONE', 'WORKASPACE' ) );
#182 = ORIENTED_EDGE ( 'NONE', *, *, #535, .F. ) ;
#183 = EDGE_LOOP ( 'NONE', ( #357, #152, #553, #173 ) ) ;
#184 = CYLINDRICAL_SURFACE ( 'NONE', #600, 0.4750000000000002600 ) ;
#185 = ORIENTED_EDGE ( 'NONE', *, *, #579, .T. ) ;
#186 = VERTEX_POINT ( 'NONE', #362 ) ;
#187 = FACE_OUTER_BOUND ( 'NONE', #605, .T. ) ;
#188 = LINE ( 'NONE', #562, #643 ) ;
#189 = AXIS2_PLACEMENT_3D ( 'NONE', #63, #405, #111 ) ;
#190 = FACE_OUTER_BOUND ( 'NONE', #626, .T. ) ;
#191 = ORIENTED_EDGE ( 'NONE', *, *, #620, .T. ) ;
#192 = ORIENTED_EDGE ( 'NONE', *, *, #102, .T. ) ;
#193 = VERTEX_POINT ( 'NONE', #316 ) ;
#194 = LINE ( 'NONE', #356, #332 ) ;
#195 = EDGE_LOOP ( 'NONE', ( #408, #267, #182, #192 ) ) ;
#196 = CARTESIAN_POINT ( 'NONE',  ( 3.724999999999999600, 1.820000000000000300, 0.0000000000000000000 ) ) ;
#197 = EDGE_CURVE ( 'NONE', #371, #43, #245, .T. ) ;
#198 = AXIS2_PLACEMENT_3D ( 'NONE', #451, #103, #399 ) ;
#199 = APPLICATION_PROTOCOL_DEFINITION ( 'draft international standard', 'automotive_design', 1998, #538 ) ;
#200 = CARTESIAN_POINT ( 'NONE',  ( 1.673763779527559100, -0.02500000000000001200, 0.1327755905511811300 ) ) ;
#201 = APPLICATION_CONTEXT ( 'automotive_design' ) ;
#202 = VECTOR ( 'NONE', #177, 39.37007874015748100 ) ;
#203 = EDGE_LOOP ( 'NONE', ( #80, #386 ) ) ;
#204 = FACE_OUTER_BOUND ( 'NONE', #183, .T. ) ;
#205 = DIRECTION ( 'NONE',  ( 0.0000000000000000000, 0.0000000000000000000, -1.000000000000000000 ) ) ;
#206 = DIRECTION ( 'NONE',  ( -0.0000000000000000000, -0.0000000000000000000, -1.000000000000000000 ) ) ;
#207 = CARTESIAN_POINT ( 'NONE',  ( 1.673763779527558800, 1.319999999999999800, 2.891687519587348800 ) ) ;
#208 = FACE_OUTER_BOUND ( 'NONE', #515, .T. ) ;
#209 = LINE ( 'NONE', #45, #74 ) ;
#210 = ORIENTED_EDGE ( 'NONE', *, *, #167, .F. ) ;
#211 = LINE ( 'NONE', #470, #254 ) ;
#212 = FACE_OUTER_BOUND ( 'NONE', #105, .T. ) ;
#213 = AXIS2_PLACEMENT_3D ( 'NONE', #217, #505, #166 ) ;
#214 = CARTESIAN_POINT ( 'NONE',  ( 2.993272996566406000, 1.370000000000000100, 0.0000000000000000000 ) ) ;
#215 = VERTEX_POINT ( 'NONE', #360 ) ;
#216 = DIRECTION ( 'NONE',  ( 0.0000000000000000000, -0.0000000000000000000, 1.000000000000000000 ) ) ;
#217 = CARTESIAN_POINT ( 'NONE',  ( 2.625000000000000000, 1.070000000000000100, 0.0000000000000000000 ) ) ;
#218 = DIRECTION ( 'NONE',  ( 0.5352657501972760700, -0.8446837139815986900, 0.0000000000000000000 ) ) ;
#219 = FACE_OUTER_BOUND ( 'NONE', #615, .T. ) ;
#220 = CARTESIAN_POINT ( 'NONE',  ( 3.724999999999999600, -0.02500000000000014400, 0.1327755905511811300 ) ) ;
#221 = ORIENTED_EDGE ( 'NONE', *, *, #138, .T. ) ;
#222 = CARTESIAN_POINT ( 'NONE',  ( 2.173763779527559100, 1.320000000000000100, 2.891687519587348800 ) ) ;
#223 = DIRECTION ( 'NONE',  ( 0.0000000000000000000, 0.0000000000000000000, -1.000000000000000000 ) ) ;
#224 = EDGE_CURVE ( 'NONE', #465, #524, #541, .T. ) ;
#225 = DIRECTION ( 'NONE',  ( -0.0000000000000000000, 0.0000000000000000000, 1.000000000000000000 ) ) ;
#226 = CARTESIAN_POINT ( 'NONE',  ( 1.673763779527558400, 1.820000000000000300, 0.0000000000000000000 ) ) ;
#227 = CARTESIAN_POINT ( 'NONE',  ( 2.256727003433594000, 0.7700000000000001300, -0.05000000000000000300 ) ) ;
#228 = MANIFOLD_SOLID_BREP ( 'Fillet2', #555 ) ;
#229 = PLANE ( 'NONE',  #294 ) ;
#230 = AXIS2_PLACEMENT_3D ( 'NONE', #8, #502, #216 ) ;
#231 = CARTESIAN_POINT ( 'NONE',  ( 2.911181102362204500, 1.070000000000000100, 0.1327755905511811300 ) ) ;
#232 = ORIENTED_EDGE ( 'NONE', *, *, #560, .T. ) ;
#233 = EDGE_LOOP ( 'NONE', ( #435, #443 ) ) ;
#234 = ADVANCED_FACE ( 'NONE', ( #151 ), #229, .T. ) ;
#235 = CYLINDRICAL_SURFACE ( 'NONE', #84, 0.07381889763779533900 ) ;
#236 = DIRECTION ( 'NONE',  ( 0.0000000000000000000, 0.0000000000000000000, -1.000000000000000000 ) ) ;
#237 = PRODUCT_DEFINITION_SHAPE ( 'NONE', 'NONE',  #249 ) ;
#238 = DIRECTION ( 'NONE',  ( 1.000000000000000000, 0.0000000000000000000, 0.0000000000000000000 ) ) ;
#239 = ADVANCED_FACE ( 'NONE', ( #190 ), #184, .T. ) ;
#240 = EDGE_CURVE ( 'NONE', #322, #498, #57, .T. ) ;
#241 = AXIS2_PLACEMENT_3D ( 'NONE', #309, #396, #450 ) ;
#242 = ORIENTED_EDGE ( 'NONE', *, *, #240, .T. ) ;
#243 = CIRCLE ( 'NONE', #168, 0.4750000000000002600 ) ;
#244 = PRODUCT ( 'shelf spacer', 'shelf spacer', '', ( #255 ) ) ;
#245 = CIRCLE ( 'NONE', #66, 0.4749999999999999800 ) ;
#246 = ORIENTED_EDGE ( 'NONE', *, *, #132, .T. ) ;
#247 = VERTEX_POINT ( 'NONE', #115 ) ;
#248 = VECTOR ( 'NONE', #463, 39.37007874015748100 ) ;
#249 = PRODUCT_DEFINITION ( 'UNKNOWN', '', #61, #592 ) ;
#250 = PLANE ( 'NONE',  #91 ) ;
#251 = CARTESIAN_POINT ( 'NONE',  ( 2.993272996566406000, 1.370000000000000100, -0.05000000000000000300 ) ) ;
#252 = ORIENTED_EDGE ( 'NONE', *, *, #500, .F. ) ;
#253 = VERTEX_POINT ( 'NONE', #220 ) ;
#254 = VECTOR ( 'NONE', #468, 39.37007874015748100 ) ;
#255 = PRODUCT_CONTEXT ( 'NONE', #201, 'mechanical' ) ;
#256 = APPLICATION_PROTOCOL_DEFINITION ( 'draft international standard', 'automotive_design', 1998, #201 ) ;
#257 = CARTESIAN_POINT ( 'NONE',  ( 2.655276980361160400, 1.682616583401461000, 0.0000000000000000000 ) ) ;
#258 = EDGE_CURVE ( 'NONE', #247, #544, #180, .T. ) ;
#259 = STYLED_ITEM ( 'NONE', ( #484 ), #228 ) ;
#260 = FILL_AREA_STYLE_COLOUR ( '', #295 ) ;
#261 = LINE ( 'NONE', #25, #369 ) ;
#262 = ORIENTED_EDGE ( 'NONE', *, *, #483, .T. ) ;
#263 = CARTESIAN_POINT ( 'NONE',  ( 3.576236220472441800, 0.2292837836171292300, -0.05000000000000001000 ) ) ;
#264 = DIRECTION ( 'NONE',  ( 0.0000000000000000000, 0.0000000000000000000, -1.000000000000000000 ) ) ;
#265 = CARTESIAN_POINT ( 'NONE',  ( 2.256727003433594000, 1.370000000000000100, -0.05000000000000000300 ) ) ;
#266 = CARTESIAN_POINT ( 'NONE',  ( 2.911181102362204500, 1.070000000000000100, 0.1327755905511811300 ) ) ;
#267 = ORIENTED_EDGE ( 'NONE', *, *, #606, .F. ) ;
#268 = VERTEX_POINT ( 'NONE', #493 ) ;
#269 = CIRCLE ( 'NONE', #580, 0.4749999999999999800 ) ;
#270 = EDGE_CURVE ( 'NONE', #603, #12, #104, .T. ) ;
#271 = AXIS2_PLACEMENT_3D ( 'NONE', #263, #358, #403 ) ;
#272 = CARTESIAN_POINT ( 'NONE',  ( 1.673763779527558400, 1.820000000000000300, 2.891687519587348800 ) ) ;
#273 = DIRECTION ( 'NONE',  ( -1.000000000000000000, -0.0000000000000000000, -0.0000000000000000000 ) ) ;
#274 = VECTOR ( 'NONE', #400, 39.37007874015748100 ) ;
#275 = ORIENTED_EDGE ( 'NONE', *, *, #474, .T. ) ;
#276 = CARTESIAN_POINT ( 'NONE',  ( 3.576236220472441800, 0.2292837836171292300, -0.05000000000000001000 ) ) ;
#277 = EDGE_CURVE ( 'NONE', #81, #268, #336, .T. ) ;
#278 = DIRECTION ( 'NONE',  ( 0.0000000000000000000, -1.000000000000000000, 0.0000000000000000000 ) ) ;
#279 = ADVANCED_FACE ( 'NONE', ( #2 ), #563, .T. ) ;
#280 = COLOUR_RGB ( '',1.000000000000000000, 0.2705882352941176300, 0.1843137254901960900 ) ;
#281 = CARTESIAN_POINT ( 'NONE',  ( 2.338818897637795500, 1.070000000000000100, 0.1327755905511811300 ) ) ;
#282 = ADVANCED_FACE ( 'NONE', ( #454 ), #477, .F. ) ;
#283 = VECTOR ( 'NONE', #218, 39.37007874015748100 ) ;
#284 = CARTESIAN_POINT ( 'NONE',  ( 3.724999999999999600, 1.820000000000000300, 2.891687519587348800 ) ) ;
#285 = ORIENTED_EDGE ( 'NONE', *, *, #448, .T. ) ;
#286 = ORIENTED_EDGE ( 'NONE', *, *, #599, .T. ) ;
#287 = LINE ( 'NONE', #214, #165 ) ;
#288 = EDGE_CURVE ( 'NONE', #12, #174, #10, .T. ) ;
#289 = LENGTH_MEASURE_WITH_UNIT ( LENGTH_MEASURE( 0.02539999999999999900 ), #604 );
#290 = ORIENTED_EDGE ( 'NONE', *, *, #277, .F. ) ;
#291 = ORIENTED_EDGE ( 'NONE', *, *, #240, .F. ) ;
#292 = ORIENTED_EDGE ( 'NONE', *, *, #611, .T. ) ;
#293 = FACE_OUTER_BOUND ( 'NONE', #36, .T. ) ;
#294 = AXIS2_PLACEMENT_3D ( 'NONE', #412, #223, #511 ) ;
#295 = COLOUR_RGB ( '',1.000000000000000000, 0.2705882352941176300, 0.1843137254901960900 ) ;
#296 = ORIENTED_EDGE ( 'NONE', *, *, #428, .F. ) ;
#297 = ORIENTED_EDGE ( 'NONE', *, *, #546, .F. ) ;
#298 = FACE_OUTER_BOUND ( 'NONE', #380, .T. ) ;
#299 = DIRECTION ( 'NONE',  ( -1.000000000000000000, 0.0000000000000000000, 0.0000000000000000000 ) ) ;
#300 = AXIS2_PLACEMENT_3D ( 'NONE', #92, #146, #489 ) ;
#301 = DIRECTION ( 'NONE',  ( 0.0000000000000000000, 0.0000000000000000000, 1.000000000000000000 ) ) ;
#302 = DIRECTION ( 'NONE',  ( 0.0000000000000000000, -0.0000000000000000000, 1.000000000000000000 ) ) ;
#303 =( NAMED_UNIT ( * ) SI_UNIT ( $, .STERADIAN. ) SOLID_ANGLE_UNIT ( ) );
#304 = VECTOR ( 'NONE', #109, 39.37007874015748100 ) ;
#305 = ORIENTED_EDGE ( 'NONE', *, *, #503, .F. ) ;
#306 = ORIENTED_EDGE ( 'NONE', *, *, #644, .F. ) ;
#307 = CARTESIAN_POINT ( 'NONE',  ( 0.0000000000000000000, 0.0000000000000000000, 0.0000000000000000000 ) ) ;
#308 = VECTOR ( 'NONE', #413, 39.37007874015748100 ) ;
#309 = CARTESIAN_POINT ( 'NONE',  ( 2.993272996566406000, 0.7700000000000000200, -0.05000000000000000300 ) ) ;
#310 = PLANE ( 'NONE',  #561 ) ;
#311 = ORIENTED_EDGE ( 'NONE', *, *, #65, .F. ) ;
#312 = DIRECTION ( 'NONE',  ( 1.000000000000000000, 0.0000000000000000000, 0.0000000000000000000 ) ) ;
#313 = ORIENTED_EDGE ( 'NONE', *, *, #71, .T. ) ;
#314 = AXIS2_PLACEMENT_3D ( 'NONE', #559, #617, #320 ) ;
#315 = CARTESIAN_POINT ( 'NONE',  ( 2.173763779527559100, 1.820000000000000300, 0.0000000000000000000 ) ) ;
#316 = CARTESIAN_POINT ( 'NONE',  ( 3.576236220472441800, 1.320000000000000100, 0.0000000000000000000 ) ) ;
#317 = VERTEX_POINT ( 'NONE', #281 ) ;
#318 = FILL_AREA_STYLE ('',( #260 ) ) ;
#319 = DIRECTION ( 'NONE',  ( -0.0000000000000000000, 0.0000000000000000000, -1.000000000000000000 ) ) ;
#320 = DIRECTION ( 'NONE',  ( 1.000000000000000000, 0.0000000000000000000, 0.0000000000000000000 ) ) ;
#321 = DIRECTION ( 'NONE',  ( -1.000000000000000000, 0.0000000000000000000, 0.0000000000000000000 ) ) ;
#322 = VERTEX_POINT ( 'NONE', #631 ) ;
#323 = ORIENTED_EDGE ( 'NONE', *, *, #500, .T. ) ;
#324 = VECTOR ( 'NONE', #352, 39.37007874015748100 ) ;
#325 = DIRECTION ( 'NONE',  ( -0.0000000000000000000, -0.0000000000000000000, -1.000000000000000000 ) ) ;
#326 = DIRECTION ( 'NONE',  ( 0.0000000000000000000, 0.0000000000000000000, -1.000000000000000000 ) ) ;
#327 = MECHANICAL_DESIGN_GEOMETRIC_PRESENTATION_REPRESENTATION (  '', ( #384 ), #420 ) ;
#328 = DIRECTION ( 'NONE',  ( 2.961352838660447200E-016, -1.000000000000000000, 0.0000000000000000000 ) ) ;
#329 = ORIENTED_EDGE ( 'NONE', *, *, #277, .T. ) ;
#330 = DIRECTION ( 'NONE',  ( -0.0000000000000000000, -0.0000000000000000000, -1.000000000000000000 ) ) ;
#331 = ADVANCED_FACE ( 'NONE', ( #161 ), #640, .F. ) ;
#332 = VECTOR ( 'NONE', #5, 39.37007874015748100 ) ;
#333 = CARTESIAN_POINT ( 'NONE',  ( 2.625000000000000000, 1.070000000000000100, -0.05000000000000000300 ) ) ;
#334 = EDGE_CURVE ( 'NONE', #215, #42, #261, .T. ) ;
#335 = AXIS2_PLACEMENT_3D ( 'NONE', #602, #264, #549 ) ;
#336 = LINE ( 'NONE', #374, #513 ) ;
#337 = EDGE_LOOP ( 'NONE', ( #397, #232, #415, #285 ) ) ;
#338 = EDGE_LOOP ( 'NONE', ( #530, #70, #387, #143 ) ) ;
#339 = EDGE_CURVE ( 'NONE', #322, #465, #171, .T. ) ;
#340 = CIRCLE ( 'NONE', #379, 0.4999999999999998300 ) ;
#341 = ORIENTED_EDGE ( 'NONE', *, *, #644, .T. ) ;
#342 = AXIS2_PLACEMENT_3D ( 'NONE', #27, #633, #372 ) ;
#343 =( NAMED_UNIT ( * ) SI_UNIT ( $, .STERADIAN. ) SOLID_ANGLE_UNIT ( ) );
#344 = LINE ( 'NONE', #627, #202 ) ;
#345 = EDGE_LOOP ( 'NONE', ( #185, #341 ) ) ;
#346 = DIRECTION ( 'NONE',  ( -0.0000000000000000000, 1.000000000000000000, -0.0000000000000000000 ) ) ;
#347 = LINE ( 'NONE', #639, #637 ) ;
#348 =( CONVERSION_BASED_UNIT ( 'INCH', #628 ) LENGTH_UNIT ( ) NAMED_UNIT ( #519 ) );
#349 = DIRECTION ( 'NONE',  ( 1.000000000000000000, -6.450933630775880100E-017, 0.0000000000000000000 ) ) ;
#350 = CARTESIAN_POINT ( 'NONE',  ( 2.984999999999999900, 1.070000000000000100, 0.1327755905511811300 ) ) ;
#351 = DIRECTION ( 'NONE',  ( -0.0000000000000000000, 0.0000000000000000000, 1.000000000000000000 ) ) ;
#352 = DIRECTION ( 'NONE',  ( -0.0000000000000000000, -0.0000000000000000000, 1.000000000000000000 ) ) ;
#353 = FACE_OUTER_BOUND ( 'NONE', #338, .T. ) ;
#354 = AXIS2_PLACEMENT_3D ( 'NONE', #548, #205, #494 ) ;
#355 = VERTEX_POINT ( 'NONE', #231 ) ;
#356 = CARTESIAN_POINT ( 'NONE',  ( 2.338818897637795500, 1.070000000000000100, 0.1327755905511811300 ) ) ;
#357 = ORIENTED_EDGE ( 'NONE', *, *, #474, .F. ) ;
#358 = DIRECTION ( 'NONE',  ( -0.8446837139815986900, -0.5352657501972760700, 0.0000000000000000000 ) ) ;
#359 = DIRECTION ( 'NONE',  ( -1.000000000000000000, 0.0000000000000000000, 0.0000000000000000000 ) ) ;
#360 = CARTESIAN_POINT ( 'NONE',  ( 1.673763779527558800, 1.319999999999999800, 0.1327755905511811300 ) ) ;
#361 = DIRECTION ( 'NONE',  ( 0.0000000000000000000, 0.0000000000000000000, -1.000000000000000000 ) ) ;
#362 = CARTESIAN_POINT ( 'NONE',  ( 2.191181102362204800, 1.070000000000000100, 0.0000000000000000000 ) ) ;
#363 = EDGE_LOOP ( 'NONE', ( #625, #395, #485, #636 ) ) ;
#364 = EDGE_CURVE ( 'NONE', #43, #371, #344, .T. ) ;
#365 = AXIS2_PLACEMENT_3D ( 'NONE', #121, #367, #20 ) ;
#366 = DIRECTION ( 'NONE',  ( -0.0000000000000000000, -0.0000000000000000000, -1.000000000000000000 ) ) ;
#367 = DIRECTION ( 'NONE',  ( 0.0000000000000000000, -1.000000000000000000, 0.0000000000000000000 ) ) ;
#368 = CARTESIAN_POINT ( 'NONE',  ( 3.058818897637795200, 1.070000000000000100, 0.0000000000000000000 ) ) ;
#369 = VECTOR ( 'NONE', #328, 39.37007874015748100 ) ;
#370 = CARTESIAN_POINT ( 'NONE',  ( 2.984999999999999900, 1.070000000000000100, 0.1327755905511811300 ) ) ;
#371 = VERTEX_POINT ( 'NONE', #127 ) ;
#372 = DIRECTION ( 'NONE',  ( -1.000000000000000000, 0.0000000000000000000, 0.0000000000000000000 ) ) ;
#373 = EDGE_LOOP ( 'NONE', ( #86, #87, #488, #506 ) ) ;
#374 = CARTESIAN_POINT ( 'NONE',  ( 2.993272996566406000, 0.7700000000000000200, -0.05000000000000000300 ) ) ;
#375 = EDGE_CURVE ( 'NONE', #253, #524, #547, .T. ) ;
#376 = VECTOR ( 'NONE', #366, 39.37007874015748100 ) ;
#377 = ADVANCED_FACE ( 'NONE', ( #79 ), #176, .F. ) ;
#378 = CARTESIAN_POINT ( 'NONE',  ( 2.265000000000000100, 1.070000000000000100, 0.1327755905511811300 ) ) ;
#379 = AXIS2_PLACEMENT_3D ( 'NONE', #1, #351, #54 ) ;
#380 = EDGE_LOOP ( 'NONE', ( #246, #313, #431, #275, #49, #444, #37, #242 ) ) ;
#381 = VERTEX_POINT ( 'NONE', #621 ) ;
#382 = VECTOR ( 'NONE', #558, 39.37007874015748100 ) ;
#383 = EDGE_LOOP ( 'NONE', ( #646, #329 ) ) ;
#384 = STYLED_ITEM ( 'NONE', ( #98 ), #645 ) ;
#385 = VECTOR ( 'NONE', #346, 39.37007874015748100 ) ;
#386 = ORIENTED_EDGE ( 'NONE', *, *, #364, .F. ) ;
#387 = ORIENTED_EDGE ( 'NONE', *, *, #18, .F. ) ;
#388 = CIRCLE ( 'NONE', #335, 0.07381889763779533900 ) ;
#389 = DIRECTION ( 'NONE',  ( -0.0000000000000000000, -0.0000000000000000000, 1.000000000000000000 ) ) ;
#390 = EDGE_CURVE ( 'NONE', #534, #465, #23, .T. ) ;
#391 = PRESENTATION_LAYER_ASSIGNMENT (  '', '', ( #259 ) ) ;
#392 =( CONVERSION_BASED_UNIT ( 'INCH', #594 ) LENGTH_UNIT ( ) NAMED_UNIT ( #622 ) );
#393 = DIRECTION ( 'NONE',  ( -1.000000000000000000, 0.0000000000000000000, 0.0000000000000000000 ) ) ;
#394 = DIRECTION ( 'NONE',  ( -0.0000000000000000000, 0.0000000000000000000, 1.000000000000000000 ) ) ;
#395 = ORIENTED_EDGE ( 'NONE', *, *, #401, .F. ) ;
#396 = DIRECTION ( 'NONE',  ( -1.854499256756980400E-016, -1.000000000000000000, 0.0000000000000000000 ) ) ;
#397 = ORIENTED_EDGE ( 'NONE', *, *, #258, .T. ) ;
#398 = FACE_BOUND ( 'NONE', #641, .T. ) ;
#399 = DIRECTION ( 'NONE',  ( 1.000000000000000000, 0.0000000000000000000, 0.0000000000000000000 ) ) ;
#400 = DIRECTION ( 'NONE',  ( 0.0000000000000000000, 0.0000000000000000000, -1.000000000000000000 ) ) ;
#401 = EDGE_CURVE ( 'NONE', #81, #43, #418, .T. ) ;
#402 = DIRECTION ( 'NONE',  ( 0.0000000000000000000, 0.0000000000000000000, -1.000000000000000000 ) ) ;
#403 = DIRECTION ( 'NONE',  ( 0.5352657501972760700, -0.8446837139815986900, 0.0000000000000000000 ) ) ;
#404 = CARTESIAN_POINT ( 'NONE',  ( 3.076236220472441800, 1.320000000000000100, -0.05000000000000001000 ) ) ;
#405 = DIRECTION ( 'NONE',  ( 0.0000000000000000000, 0.0000000000000000000, -1.000000000000000000 ) ) ;
#406 = LINE ( 'NONE', #207, #274 ) ;
#407 = EDGE_LOOP ( 'NONE', ( #142, #30, #486, #262 ) ) ;
#408 = ORIENTED_EDGE ( 'NONE', *, *, #572, .T. ) ;
#409 = VECTOR ( 'NONE', #501, 39.37007874015748100 ) ;
#410 = CARTESIAN_POINT ( 'NONE',  ( 3.576236220472441800, 0.2292837836171292300, 0.1327755905511809900 ) ) ;
#411 = DIRECTION ( 'NONE',  ( 1.000000000000000000, 2.961352838660447200E-016, -0.0000000000000000000 ) ) ;
#412 = CARTESIAN_POINT ( 'NONE',  ( 2.625000000000000000, 1.070000000000000100, -0.05000000000000000300 ) ) ;
#413 = DIRECTION ( 'NONE',  ( -0.0000000000000000000, -0.0000000000000000000, 1.000000000000000000 ) ) ;
#414 = LINE ( 'NONE', #257, #471 ) ;
#415 = ORIENTED_EDGE ( 'NONE', *, *, #132, .F. ) ;
#416 = ORIENTED_EDGE ( 'NONE', *, *, #339, .T. ) ;
#417 = EDGE_LOOP ( 'NONE', ( #507, #60 ) ) ;
#418 = LINE ( 'NONE', #227, #567 ) ;
#419 = DIRECTION ( 'NONE',  ( -0.0000000000000000000, -0.0000000000000000000, -1.000000000000000000 ) ) ;
#420 =( GEOMETRIC_REPRESENTATION_CONTEXT ( 3 ) GLOBAL_UNCERTAINTY_ASSIGNED_CONTEXT ( ( #34 ) ) GLOBAL_UNIT_ASSIGNED_CONTEXT ( ( #392, #46, #343 ) ) REPRESENTATION_CONTEXT ( 'NONE', 'WORKASPACE' ) );
#421 = ADVANCED_FACE ( 'NONE', ( #433 ), #24, .F. ) ;
#422 = VECTOR ( 'NONE', #452, 39.37007874015748100 ) ;
#423 = DIRECTION ( 'NONE',  ( -1.000000000000000000, 0.0000000000000000000, 0.0000000000000000000 ) ) ;
#424 = ORIENTED_EDGE ( 'NONE', *, *, #138, .F. ) ;
#425 = ORIENTED_EDGE ( 'NONE', *, *, #460, .F. ) ;
#426 = ADVANCED_FACE ( 'NONE', ( #293 ), #566, .F. ) ;
#427 = CIRCLE ( 'NONE', #198, 0.4999999999999998300 ) ;
#428 = EDGE_CURVE ( 'NONE', #268, #371, #446, .T. ) ;
#429 = VECTOR ( 'NONE', #273, 39.37007874015748100 ) ;
#430 = EDGE_LOOP ( 'NONE', ( #473, #210, #137, #496 ) ) ;
#431 = ORIENTED_EDGE ( 'NONE', *, *, #334, .T. ) ;
#432 = FACE_BOUND ( 'NONE', #417, .T. ) ;
#433 = FACE_OUTER_BOUND ( 'NONE', #337, .T. ) ;
#434 = EDGE_CURVE ( 'NONE', #253, #589, #52, .T. ) ;
#435 = ORIENTED_EDGE ( 'NONE', *, *, #586, .F. ) ;
#436 = ORIENTED_EDGE ( 'NONE', *, *, #390, .F. ) ;
#437 = CYLINDRICAL_SURFACE ( 'NONE', #528, 0.5000000000000001100 ) ;
#438 = AXIS2_PLACEMENT_3D ( 'NONE', #619, #469, #225 ) ;
#439 = CARTESIAN_POINT ( 'NONE',  ( 2.625000000000000000, 1.070000000000000100, 0.0000000000000000000 ) ) ;
#440 = SURFACE_STYLE_USAGE ( .BOTH. , #147 ) ;
#441 = CARTESIAN_POINT ( 'NONE',  ( 2.338818897637795500, 1.070000000000000100, 0.0000000000000000000 ) ) ;
#442 = CIRCLE ( 'NONE', #588, 0.5000000000000001100 ) ;
#443 = ORIENTED_EDGE ( 'NONE', *, *, #288, .F. ) ;
#444 = ORIENTED_EDGE ( 'NONE', *, *, #224, .F. ) ;
#445 = CARTESIAN_POINT ( 'NONE',  ( 2.265000000000000100, 1.070000000000000100, 0.1327755905511811300 ) ) ;
#446 = LINE ( 'NONE', #120, #308 ) ;
#447 = DIRECTION ( 'NONE',  ( 0.5352657501972760700, -0.8446837139815986900, 0.0000000000000000000 ) ) ;
#448 = EDGE_CURVE ( 'NONE', #498, #247, #466, .T. ) ;
#449 = DIRECTION ( 'NONE',  ( -0.0000000000000000000, -0.0000000000000000000, -1.000000000000000000 ) ) ;
#450 = DIRECTION ( 'NONE',  ( 1.000000000000000000, -1.854499256756980400E-016, 0.0000000000000000000 ) ) ;
#451 = CARTESIAN_POINT ( 'NONE',  ( 2.173763779527559100, 1.320000000000000100, 0.0000000000000000000 ) ) ;
#452 = DIRECTION ( 'NONE',  ( -0.0000000000000000000, -0.0000000000000000000, -1.000000000000000000 ) ) ;
#453 = AXIS2_PLACEMENT_3D ( 'NONE', #307, #301, #596 ) ;
#454 = FACE_OUTER_BOUND ( 'NONE', #487, .T. ) ;
#455 = VERTEX_POINT ( 'NONE', #172 ) ;
#456 = FACE_BOUND ( 'NONE', #598, .T. ) ;
#457 = CARTESIAN_POINT ( 'NONE',  ( 2.256727003433594000, 1.370000000000000100, 0.0000000000000000000 ) ) ;
#458 = CARTESIAN_POINT ( 'NONE',  ( 2.911181102362204500, 1.070000000000000100, 0.0000000000000000000 ) ) ;
#459 = PLANE ( 'NONE',  #536 ) ;
#460 = EDGE_CURVE ( 'NONE', #94, #186, #188, .T. ) ;
#461 = AXIS2_PLACEMENT_3D ( 'NONE', #445, #97, #393 ) ;
#462 = LINE ( 'NONE', #196, #385 ) ;
#463 = DIRECTION ( 'NONE',  ( 1.000000000000000000, -6.450933630775880100E-017, 0.0000000000000000000 ) ) ;
#464 = ORIENTED_EDGE ( 'NONE', *, *, #167, .T. ) ;
#465 = VERTEX_POINT ( 'NONE', #68 ) ;
#466 = LINE ( 'NONE', #618, #376 ) ;
#467 =( NAMED_UNIT ( * ) PLANE_ANGLE_UNIT ( ) SI_UNIT ( $, .RADIAN. ) );
#468 = DIRECTION ( 'NONE',  ( 2.961352838660447200E-016, -1.000000000000000000, 0.0000000000000000000 ) ) ;
#469 = DIRECTION ( 'NONE',  ( -1.000000000000000000, 0.0000000000000000000, -0.0000000000000000000 ) ) ;
#470 = CARTESIAN_POINT ( 'NONE',  ( 1.673763779527558400, 1.820000000000000300, 0.0000000000000000000 ) ) ;
#471 = VECTOR ( 'NONE', #447, 39.37007874015748100 ) ;
#472 = ADVANCED_FACE ( 'NONE', ( #175 ), #51, .T. ) ;
#473 = ORIENTED_EDGE ( 'NONE', *, *, #270, .F. ) ;
#474 = EDGE_CURVE ( 'NONE', #42, #253, #545, .T. ) ;
#475 = ORIENTED_EDGE ( 'NONE', *, *, #364, .T. ) ;
#476 = CARTESIAN_POINT ( 'NONE',  ( 3.576236220472441800, 1.820000000000000300, 0.1327755905511809900 ) ) ;
#477 = PLANE ( 'NONE',  #119 ) ;
#478 = ADVANCED_FACE ( 'NONE', ( #398, #139, #432, #187, #82 ), #250, .F. ) ;
#479 = UNCERTAINTY_MEASURE_WITH_UNIT (LENGTH_MEASURE( 1.000000000000000100E-005 ), #348, 'distance_accuracy_value', 'NONE');
#480 = LINE ( 'NONE', #540, #93 ) ;
#481 = ORIENTED_EDGE ( 'NONE', *, *, #102, .F. ) ;
#482 = UNCERTAINTY_MEASURE_WITH_UNIT (LENGTH_MEASURE( 1.000000000000000100E-005 ), #106, 'distance_accuracy_value', 'NONE');
#483 = EDGE_CURVE ( 'NONE', #186, #50, #616, .T. ) ;
#484 = PRESENTATION_STYLE_ASSIGNMENT (( #56 ) ) ;
#485 = ORIENTED_EDGE ( 'NONE', *, *, #531, .F. ) ;
#486 = ORIENTED_EDGE ( 'NONE', *, *, #460, .T. ) ;
#487 = EDGE_LOOP ( 'NONE', ( #624, #3, #647, #597 ) ) ;
#488 = ORIENTED_EDGE ( 'NONE', *, *, #599, .F. ) ;
#489 = DIRECTION ( 'NONE',  ( -1.000000000000000000, 6.450933630775880100E-017, 0.0000000000000000000 ) ) ;
#490 = LINE ( 'NONE', #266, #409 ) ;
#491 = EDGE_CURVE ( 'NONE', #575, #21, #243, .T. ) ;
#492 = FILL_AREA_STYLE ('',( #150 ) ) ;
#493 = CARTESIAN_POINT ( 'NONE',  ( 2.993272996566406000, 0.7700000000000000200, -0.05000000000000000300 ) ) ;
#494 = DIRECTION ( 'NONE',  ( -1.000000000000000000, 0.0000000000000000000, 0.0000000000000000000 ) ) ;
#495 = CARTESIAN_POINT ( 'NONE',  ( 2.265000000000000100, 1.070000000000000100, 0.1327755905511811300 ) ) ;
#496 = ORIENTED_EDGE ( 'NONE', *, *, #586, .T. ) ;
#497 = CARTESIAN_POINT ( 'NONE',  ( 3.058818897637795200, 1.070000000000000100, 0.1327755905511811300 ) ) ;
#498 = VERTEX_POINT ( 'NONE', #135 ) ;
#499 = VECTOR ( 'NONE', #325, 39.37007874015748100 ) ;
#500 = EDGE_CURVE ( 'NONE', #193, #322, #114, .T. ) ;
#501 = DIRECTION ( 'NONE',  ( -0.0000000000000000000, -0.0000000000000000000, -1.000000000000000000 ) ) ;
#502 = DIRECTION ( 'NONE',  ( 0.0000000000000000000, 1.000000000000000000, 0.0000000000000000000 ) ) ;
#503 = EDGE_CURVE ( 'NONE', #193, #534, #347, .T. ) ;
#504 = AXIS2_PLACEMENT_3D ( 'NONE', #108, #402, #55 ) ;
#505 = DIRECTION ( 'NONE',  ( -0.0000000000000000000, 0.0000000000000000000, -1.000000000000000000 ) ) ;
#506 = ORIENTED_EDGE ( 'NONE', *, *, #118, .F. ) ;
#507 = ORIENTED_EDGE ( 'NONE', *, *, #483, .F. ) ;
#508 = CIRCLE ( 'NONE', #213, 0.4750000000000002600 ) ;
#509 = CARTESIAN_POINT ( 'NONE',  ( 3.724999999999999600, -0.005475010030633318600, 0.1327755905511809900 ) ) ;
#510 = DIRECTION ( 'NONE',  ( -0.0000000000000000000, -0.0000000000000000000, -1.000000000000000000 ) ) ;
#511 = DIRECTION ( 'NONE',  ( -1.000000000000000000, 0.0000000000000000000, -0.0000000000000000000 ) ) ;
#512 = CARTESIAN_POINT ( 'NONE',  ( 3.724999999999999600, -0.02500000000000014400, 2.891687519587348800 ) ) ;
#513 = VECTOR ( 'NONE', #568, 39.37007874015748100 ) ;
#514 = DIRECTION ( 'NONE',  ( -0.0000000000000000000, -0.0000000000000000000, 1.000000000000000000 ) ) ;
#515 = EDGE_LOOP ( 'NONE', ( #565, #125 ) ) ;
#516 = DIRECTION ( 'NONE',  ( -0.0000000000000000000, -0.0000000000000000000, 1.000000000000000000 ) ) ;
#517 = VECTOR ( 'NONE', #72, 39.37007874015748100 ) ;
#518 = CARTESIAN_POINT ( 'NONE',  ( 3.724999999999999600, 1.820000000000000300, 0.1327755905511811300 ) ) ;
#519 = DIMENSIONAL_EXPONENTS ( 1.000000000000000000, 0.0000000000000000000, 0.0000000000000000000, 0.0000000000000000000, 0.0000000000000000000, 0.0000000000000000000, 0.0000000000000000000 ) ;
#520 = PRESENTATION_LAYER_ASSIGNMENT (  '', '', ( #384 ) ) ;
#521 = DIRECTION ( 'NONE',  ( -1.000000000000000000, 0.0000000000000000000, 0.0000000000000000000 ) ) ;
#522 = ADVANCED_FACE ( 'NONE', ( #649 ), #459, .F. ) ;
#523 = ORIENTED_EDGE ( 'NONE', *, *, #33, .F. ) ;
#524 = VERTEX_POINT ( 'NONE', #509 ) ;
#525 = PRODUCT_RELATED_PRODUCT_CATEGORY ( 'part', '', ( #244 ) ) ;
#526 = LINE ( 'NONE', #14, #145 ) ;
#527 = EDGE_CURVE ( 'NONE', #564, #69, #508, .T. ) ;
#528 = AXIS2_PLACEMENT_3D ( 'NONE', #404, #59, #7 ) ;
#529 = DIRECTION ( 'NONE',  ( 1.000000000000000000, 0.0000000000000000000, -0.0000000000000000000 ) ) ;
#530 = ORIENTED_EDGE ( 'NONE', *, *, #390, .T. ) ;
#531 = EDGE_CURVE ( 'NONE', #268, #81, #269, .T. ) ;
#532 = CIRCLE ( 'NONE', #189, 0.07381889763779533900 ) ;
#533 = EDGE_LOOP ( 'NONE', ( #58, #642, #635, #75 ) ) ;
#534 = VERTEX_POINT ( 'NONE', #557 ) ;
#535 = EDGE_CURVE ( 'NONE', #21, #575, #526, .T. ) ;
#536 = AXIS2_PLACEMENT_3D ( 'NONE', #272, #411, #67 ) ;
#537 = FACE_BOUND ( 'NONE', #345, .T. ) ;
#538 = APPLICATION_CONTEXT ( 'automotive_design' ) ;
#539 = PLANE ( 'NONE',  #300 ) ;
#540 = CARTESIAN_POINT ( 'NONE',  ( 1.673763779527559100, -0.02500000000000001200, 0.0000000000000000000 ) ) ;
#541 = LINE ( 'NONE', #410, #283 ) ;
#542 = ORIENTED_EDGE ( 'NONE', *, *, #288, .T. ) ;
#543 = CARTESIAN_POINT ( 'NONE',  ( 2.265000000000000100, 1.070000000000000100, 0.0000000000000000000 ) ) ;
#544 = VERTEX_POINT ( 'NONE', #315 ) ;
#545 = LINE ( 'NONE', #116, #248 ) ;
#546 = EDGE_CURVE ( 'NONE', #355, #174, #490, .T. ) ;
#547 = LINE ( 'NONE', #518, #517 ) ;
#548 = CARTESIAN_POINT ( 'NONE',  ( 2.984999999999999900, 1.070000000000000100, 0.1327755905511811300 ) ) ;
#549 = DIRECTION ( 'NONE',  ( -1.000000000000000000, 0.0000000000000000000, 0.0000000000000000000 ) ) ;
#550 = CARTESIAN_POINT ( 'NONE',  ( 1.673763779527559100, -0.02500000000000001200, 2.891687519587348800 ) ) ;
#551 = CARTESIAN_POINT ( 'NONE',  ( 1.673763779527559100, -0.02500000000000001200, 0.0000000000000000000 ) ) ;
#552 = FACE_OUTER_BOUND ( 'NONE', #195, .T. ) ;
#553 = ORIENTED_EDGE ( 'NONE', *, *, #65, .T. ) ;
#554 = CARTESIAN_POINT ( 'NONE',  ( 2.173763779527559100, 1.820000000000000300, 2.891687519587348800 ) ) ;
#555 = CLOSED_SHELL ( 'NONE', ( #634, #77, #478, #522, #26, #282, #421, #630, #331, #377, #239, #179, #29, #279, #73, #234, #426, #129, #472, #574 ) ) ;
#556 = DIRECTION ( 'NONE',  ( 1.000000000000000000, 0.0000000000000000000, 0.0000000000000000000 ) ) ;
#557 = CARTESIAN_POINT ( 'NONE',  ( 3.576236220472441800, 0.2292837836171292300, 0.0000000000000000000 ) ) ;
#558 = DIRECTION ( 'NONE',  ( 0.0000000000000000000, 0.0000000000000000000, 1.000000000000000000 ) ) ;
#559 = CARTESIAN_POINT ( 'NONE',  ( 3.076236220472441800, 1.320000000000000100, 0.1327755905511809900 ) ) ;
#560 = EDGE_CURVE ( 'NONE', #544, #381, #13, .T. ) ;
#561 = AXIS2_PLACEMENT_3D ( 'NONE', #100, #394, #53 ) ;
#562 = CARTESIAN_POINT ( 'NONE',  ( 2.191181102362204800, 1.070000000000000100, 0.1327755905511811300 ) ) ;
#563 = CYLINDRICAL_SURFACE ( 'NONE', #133, 0.4750000000000002600 ) ;
#564 = VERTEX_POINT ( 'NONE', #457 ) ;
#565 = ORIENTED_EDGE ( 'NONE', *, *, #491, .T. ) ;
#566 = PLANE ( 'NONE',  #438 ) ;
#567 = VECTOR ( 'NONE', #569, 39.37007874015748100 ) ;
#568 = DIRECTION ( 'NONE',  ( 1.000000000000000000, -1.854499256756980400E-016, -0.0000000000000000000 ) ) ;
#569 = DIRECTION ( 'NONE',  ( -0.0000000000000000000, -0.0000000000000000000, 1.000000000000000000 ) ) ;
#570 = DIRECTION ( 'NONE',  ( -1.000000000000000000, 0.0000000000000000000, 0.0000000000000000000 ) ) ;
#571 = DIRECTION ( 'NONE',  ( -1.000000000000000000, 0.0000000000000000000, 0.0000000000000000000 ) ) ;
#572 = EDGE_CURVE ( 'NONE', #69, #564, #287, .T. ) ;
#573 = CARTESIAN_POINT ( 'NONE',  ( 2.984999999999999900, 1.070000000000000100, 0.0000000000000000000 ) ) ;
#574 = ADVANCED_FACE ( 'NONE', ( #32 ), #437, .T. ) ;
#575 = VERTEX_POINT ( 'NONE', #265 ) ;
#576 = ORIENTED_EDGE ( 'NONE', *, *, #527, .T. ) ;
#577 = LINE ( 'NONE', #607, #324 ) ;
#578 = DIRECTION ( 'NONE',  ( -0.0000000000000000000, -0.0000000000000000000, 1.000000000000000000 ) ) ;
#579 = EDGE_CURVE ( 'NONE', #94, #317, #44, .T. ) ;
#580 = AXIS2_PLACEMENT_3D ( 'NONE', #64, #361, #9 ) ;
#581 = ORIENTED_EDGE ( 'NONE', *, *, #606, .T. ) ;
#582 = SURFACE_STYLE_FILL_AREA ( #492 ) ;
#583 = SURFACE_STYLE_FILL_AREA ( #318 ) ;
#584 = EDGE_LOOP ( 'NONE', ( #424, #107, #291, #252 ) ) ;
#585 = VERTEX_POINT ( 'NONE', #551 ) ;
#586 = EDGE_CURVE ( 'NONE', #174, #12, #388, .T. ) ;
#587 = CYLINDRICAL_SURFACE ( 'NONE', #156, 0.07381889763779533900 ) ;
#588 = AXIS2_PLACEMENT_3D ( 'NONE', #163, #608, #312 ) ;
#589 = VERTEX_POINT ( 'NONE', #158 ) ;
#590 = ORIENTED_EDGE ( 'NONE', *, *, #503, .T. ) ;
#591 = CIRCLE ( 'NONE', #461, 0.07381889763779533900 ) ;
#592 = PRODUCT_DEFINITION_CONTEXT ( 'detailed design', #538, 'design' ) ;
#593 = EDGE_LOOP ( 'NONE', ( #475, #296, #290, #113 ) ) ;
#594 = LENGTH_MEASURE_WITH_UNIT ( LENGTH_MEASURE( 0.02539999999999999900 ), #95 );
#595 = DIRECTION ( 'NONE',  ( 0.0000000000000000000, 0.0000000000000000000, -1.000000000000000000 ) ) ;
#596 = DIRECTION ( 'NONE',  ( 1.000000000000000000, 0.0000000000000000000, 0.0000000000000000000 ) ) ;
#597 = ORIENTED_EDGE ( 'NONE', *, *, #434, .T. ) ;
#598 = EDGE_LOOP ( 'NONE', ( #464, #292 ) ) ;
#599 = EDGE_CURVE ( 'NONE', #455, #544, #427, .T. ) ;
#600 = AXIS2_PLACEMENT_3D ( 'NONE', #170, #516, #556 ) ;
#601 = CARTESIAN_POINT ( 'NONE',  ( 3.724999999999999600, -0.005475010030633318600, 0.0000000000000000000 ) ) ;
#602 = CARTESIAN_POINT ( 'NONE',  ( 2.984999999999999900, 1.070000000000000100, 0.0000000000000000000 ) ) ;
#603 = VERTEX_POINT ( 'NONE', #497 ) ;
#604 =( LENGTH_UNIT ( ) NAMED_UNIT ( * ) SI_UNIT ( $, .METRE. ) );
#605 = EDGE_LOOP ( 'NONE', ( #88, #286, #130, #221, #590, #31, #523, #311 ) ) ;
#606 = EDGE_CURVE ( 'NONE', #575, #564, #577, .T. ) ;
#607 = CARTESIAN_POINT ( 'NONE',  ( 2.256727003433594000, 1.370000000000000100, -0.05000000000000000300 ) ) ;
#608 = DIRECTION ( 'NONE',  ( -0.0000000000000000000, -0.0000000000000000000, -1.000000000000000000 ) ) ;
#609 = DIRECTION ( 'NONE',  ( -1.000000000000000000, 0.0000000000000000000, 0.0000000000000000000 ) ) ;
#610 = DIRECTION ( 'NONE',  ( -0.0000000000000000000, -0.0000000000000000000, -1.000000000000000000 ) ) ;
#611 = EDGE_CURVE ( 'NONE', #603, #355, #62, .T. ) ;
#612 = MECHANICAL_DESIGN_GEOMETRIC_PRESENTATION_REPRESENTATION (  '', ( #259 ), #149 ) ;
#613 = VECTOR ( 'NONE', #157, 39.37007874015748100 ) ;
#614 = DIRECTION ( 'NONE',  ( 1.000000000000000000, 0.0000000000000000000, 0.0000000000000000000 ) ) ;
#615 = EDGE_LOOP ( 'NONE', ( #306, #191, #131, #425 ) ) ;
#616 = CIRCLE ( 'NONE', #342, 0.07381889763779533900 ) ;
#617 = DIRECTION ( 'NONE',  ( -0.0000000000000000000, 0.0000000000000000000, 1.000000000000000000 ) ) ;
#618 = CARTESIAN_POINT ( 'NONE',  ( 3.076236220472441800, 1.820000000000000300, 2.891687519587348800 ) ) ;
#619 = CARTESIAN_POINT ( 'NONE',  ( 3.576236220472441800, 1.820000000000000300, -0.05000000000000001000 ) ) ;
#620 = EDGE_CURVE ( 'NONE', #317, #50, #194, .T. ) ;
#621 = CARTESIAN_POINT ( 'NONE',  ( 2.173763779527559100, 1.820000000000000300, 0.1327755905511811300 ) ) ;
#622 = DIMENSIONAL_EXPONENTS ( 1.000000000000000000, 0.0000000000000000000, 0.0000000000000000000, 0.0000000000000000000, 0.0000000000000000000, 0.0000000000000000000, 0.0000000000000000000 ) ;
#623 = LINE ( 'NONE', #159, #304 ) ;
#624 = ORIENTED_EDGE ( 'NONE', *, *, #33, .T. ) ;
#625 = ORIENTED_EDGE ( 'NONE', *, *, #197, .T. ) ;
#626 = EDGE_LOOP ( 'NONE', ( #576, #481, #11, #581 ) ) ;
#627 = CARTESIAN_POINT ( 'NONE',  ( 2.993272996566406000, 0.7700000000000000200, 0.0000000000000000000 ) ) ;
#628 = LENGTH_MEASURE_WITH_UNIT ( LENGTH_MEASURE( 0.02539999999999999900 ), #48 );
#629 = AXIS2_PLACEMENT_3D ( 'NONE', #573, #236, #521 ) ;
#630 = ADVANCED_FACE ( 'NONE', ( #298, #456, #537 ), #310, .T. ) ;
#631 = CARTESIAN_POINT ( 'NONE',  ( 3.576236220472441800, 1.320000000000000100, 0.1327755905511809900 ) ) ;
#632 = SHAPE_DEFINITION_REPRESENTATION ( #237, #645 ) ;
#633 = DIRECTION ( 'NONE',  ( 0.0000000000000000000, 0.0000000000000000000, -1.000000000000000000 ) ) ;
#634 = ADVANCED_FACE ( 'NONE', ( #212 ), #235, .F. ) ;
#635 = ORIENTED_EDGE ( 'NONE', *, *, #4, .T. ) ;
#636 = ORIENTED_EDGE ( 'NONE', *, *, #428, .T. ) ;
#637 = VECTOR ( 'NONE', #169, 39.37007874015748100 ) ;
#638 = AXIS2_PLACEMENT_3D ( 'NONE', #22, #302, #650 ) ;
#639 = CARTESIAN_POINT ( 'NONE',  ( 3.576236220472441800, 0.0000000000000000000, 0.0000000000000000000 ) ) ;
#640 = CYLINDRICAL_SURFACE ( 'NONE', #40, 0.07381889763779533900 ) ;
#641 = EDGE_LOOP ( 'NONE', ( #112, #164 ) ) ;
#642 = ORIENTED_EDGE ( 'NONE', *, *, #118, .T. ) ;
#643 = VECTOR ( 'NONE', #510, 39.37007874015748100 ) ;
#644 = EDGE_CURVE ( 'NONE', #317, #94, #591, .T. ) ;
#645 = ADVANCED_BREP_SHAPE_REPRESENTATION ( 'shelf spacer', ( #228, #453 ), #181 ) ;
#646 = ORIENTED_EDGE ( 'NONE', *, *, #531, .T. ) ;
#647 = ORIENTED_EDGE ( 'NONE', *, *, #375, .F. ) ;
#648 = CARTESIAN_POINT ( 'NONE',  ( 2.993272996566406000, 1.370000000000000100, -0.05000000000000000300 ) ) ;
#649 = FACE_OUTER_BOUND ( 'NONE', #533, .T. ) ;
#650 = DIRECTION ( 'NONE',  ( 1.000000000000000000, 0.0000000000000000000, -0.0000000000000000000 ) ) ;
#651 =( NAMED_UNIT ( * ) PLANE_ANGLE_UNIT ( ) SI_UNIT ( $, .RADIAN. ) );
ENDSEC;
END-ISO-10303-21;
