ISO-10303-21;
HEADER;
FILE_DESCRIPTION (( 'STEP AP214' ),
    '1' );
FILE_NAME ('motor cap.STEP',
    '2016-04-22T00:10:18',
    ( '' ),
    ( '' ),
    'SwSTEP 2.0',
    'SolidWorks 2015',
    '' );
FILE_SCHEMA (( 'AUTOMOTIVE_DESIGN' ));
ENDSEC;

DATA;
#1 = EDGE_CURVE ( 'NONE', #499, #660, #17, .T. ) ;
#2 = DIRECTION ( 'NONE',  ( 5.551115123125782700E-017, 1.000000000000000000, 0.0000000000000000000 ) ) ;
#3 = FACE_OUTER_BOUND ( 'NONE', #494, .T. ) ;
#4 = ORIENTED_EDGE ( 'NONE', *, *, #78, .T. ) ;
#5 = EDGE_CURVE ( 'NONE', #274, #632, #9, .T. ) ;
#6 = CARTESIAN_POINT ( 'NONE',  ( -3.405758354506076600, 3.785000000000000100, 0.3099999999999993300 ) ) ;
#7 = ORIENTED_EDGE ( 'NONE', *, *, #527, .F. ) ;
#8 = ORIENTED_EDGE ( 'NONE', *, *, #63, .F. ) ;
#9 = LINE ( 'NONE', #294, #440 ) ;
#10 = DIRECTION ( 'NONE',  ( -1.261675270669477000E-016, 7.003704675487148800E-033, -1.000000000000000000 ) ) ;
#11 = EDGE_CURVE ( 'NONE', #587, #33, #190, .T. ) ;
#12 = CIRCLE ( 'NONE', #220, 0.07381889763779533900 ) ;
#13 = EDGE_CURVE ( 'NONE', #42, #402, #23, .T. ) ;
#14 = CIRCLE ( 'NONE', #120, 0.1980000000000004500 ) ;
#15 = ORIENTED_EDGE ( 'NONE', *, *, #519, .T. ) ;
#16 =( NAMED_UNIT ( * ) PLANE_ANGLE_UNIT ( ) SI_UNIT ( $, .RADIAN. ) );
#17 = LINE ( 'NONE', #160, #196 ) ;
#18 = DIRECTION ( 'NONE',  ( 1.000000000000000000, -0.0000000000000000000, -1.703958505166034400E-016 ) ) ;
#19 = LINE ( 'NONE', #541, #332 ) ;
#20 = DIRECTION ( 'NONE',  ( -1.000000000000000000, 0.0000000000000000000, 1.156482317317870500E-016 ) ) ;
#21 = CARTESIAN_POINT ( 'NONE',  ( -3.033345883345394800, 3.817396289218529600, -1.129411299181013900 ) ) ;
#22 = CARTESIAN_POINT ( 'NONE',  ( -2.121763779527558600, 3.570000000000000300, 0.3099999999999997200 ) ) ;
#23 = LINE ( 'NONE', #340, #254 ) ;
#24 = DIRECTION ( 'NONE',  ( 0.0000000000000000000, 0.0000000000000000000, -1.000000000000000000 ) ) ;
#25 = VERTEX_POINT ( 'NONE', #161 ) ;
#26 = CARTESIAN_POINT ( 'NONE',  ( -2.121763779527558600, 3.570000000000000300, 0.01000000000000000000 ) ) ;
#27 = AXIS2_PLACEMENT_3D ( 'NONE', #386, #70, #545 ) ;
#28 = EDGE_LOOP ( 'NONE', ( #658, #650 ) ) ;
#29 = LINE ( 'NONE', #295, #476 ) ;
#30 = VECTOR ( 'NONE', #450, 39.37007874015748100 ) ;
#31 = VERTEX_POINT ( 'NONE', #238 ) ;
#32 = CARTESIAN_POINT ( 'NONE',  ( -2.264763779527559300, 3.330236220472441400, 0.3100000000000000000 ) ) ;
#33 = VERTEX_POINT ( 'NONE', #288 ) ;
#34 = EDGE_CURVE ( 'NONE', #518, #299, #235, .T. ) ;
#35 = DIRECTION ( 'NONE',  ( 5.551115123125782700E-017, 1.000000000000000000, 0.0000000000000000000 ) ) ;
#36 = CARTESIAN_POINT ( 'NONE',  ( -2.965985485666192900, 3.570000000000000300, 0.01000000000000000400 ) ) ;
#37 = ORIENTED_EDGE ( 'NONE', *, *, #542, .F. ) ;
#38 = DIRECTION ( 'NONE',  ( -1.261675270669477200E-016, 7.003704675487150100E-033, -1.000000000000000000 ) ) ;
#39 = CYLINDRICAL_SURFACE ( 'NONE', #195, 0.1549999999999998600 ) ;
#40 = ORIENTED_EDGE ( 'NONE', *, *, #174, .T. ) ;
#41 =( NAMED_UNIT ( * ) SI_UNIT ( $, .STERADIAN. ) SOLID_ANGLE_UNIT ( ) );
#42 = VERTEX_POINT ( 'NONE', #385 ) ;
#43 = EDGE_LOOP ( 'NONE', ( #596, #576, #388, #365 ) ) ;
#44 = LINE ( 'NONE', #116, #266 ) ;
#45 = CARTESIAN_POINT ( 'NONE',  ( -3.559055118110236100, 3.330236220472441400, 0.01000000000000018100 ) ) ;
#46 = ORIENTED_EDGE ( 'NONE', *, *, #418, .T. ) ;
#47 = AXIS2_PLACEMENT_3D ( 'NONE', #531, #441, #316 ) ;
#48 = DIRECTION ( 'NONE',  ( -1.000000000000000000, -3.524965153115182800E-015, 1.703958505166034400E-016 ) ) ;
#49 = EDGE_LOOP ( 'NONE', ( #46, #73 ) ) ;
#50 = CARTESIAN_POINT ( 'NONE',  ( -2.965985485666192900, 3.570000000000000300, 0.3099999999999998300 ) ) ;
#51 = FACE_OUTER_BOUND ( 'NONE', #172, .T. ) ;
#52 = DIRECTION ( 'NONE',  ( 0.0000000000000000000, 0.0000000000000000000, 1.000000000000000000 ) ) ;
#53 = CARTESIAN_POINT ( 'NONE',  ( -2.264763779527559300, 3.330236220472441400, 0.01000000000000001900 ) ) ;
#54 =( CONVERSION_BASED_UNIT ( 'INCH', #533 ) LENGTH_UNIT ( ) NAMED_UNIT ( #387 ) );
#55 = EDGE_CURVE ( 'NONE', #488, #183, #252, .T. ) ;
#56 = FACE_OUTER_BOUND ( 'NONE', #508, .T. ) ;
#57 = EDGE_LOOP ( 'NONE', ( #428, #375, #400, #415 ) ) ;
#58 = DIRECTION ( 'NONE',  ( -1.261675270669477000E-016, 7.003704675487148800E-033, -1.000000000000000000 ) ) ;
#59 =( LENGTH_UNIT ( ) NAMED_UNIT ( * ) SI_UNIT ( $, .METRE. ) );
#60 = CARTESIAN_POINT ( 'NONE',  ( -2.121763779527558600, 3.570000000000000300, 0.01000000000000000000 ) ) ;
#61 = PRODUCT_DEFINITION_FORMATION_WITH_SPECIFIED_SOURCE ( 'ANY', '', #128, .NOT_KNOWN. ) ;
#62 = VECTOR ( 'NONE', #18, 39.37007874015748100 ) ;
#63 = EDGE_CURVE ( 'NONE', #338, #354, #234, .T. ) ;
#64 = CYLINDRICAL_SURFACE ( 'NONE', #479, 0.04999999999999973900 ) ;
#65 = DIRECTION ( 'NONE',  ( -1.000000000000000000, 0.0000000000000000000, 0.0000000000000000000 ) ) ;
#66 = CARTESIAN_POINT ( 'NONE',  ( -3.485236220472440700, 3.330236220472441400, 0.01000000000000017400 ) ) ;
#67 = DIRECTION ( 'NONE',  ( -1.261675270669477200E-016, 7.003704675487150100E-033, -1.000000000000000000 ) ) ;
#68 = DIRECTION ( 'NONE',  ( -1.261675270669477000E-016, 7.003704675487148800E-033, -1.000000000000000000 ) ) ;
#69 = SURFACE_STYLE_USAGE ( .BOTH. , #82 ) ;
#70 = DIRECTION ( 'NONE',  ( -3.307998733641005800E-017, 1.836308179759552500E-033, -1.000000000000000000 ) ) ;
#71 = FACE_OUTER_BOUND ( 'NONE', #487, .T. ) ;
#72 = VECTOR ( 'NONE', #35, 39.37007874015748100 ) ;
#73 = ORIENTED_EDGE ( 'NONE', *, *, #542, .T. ) ;
#74 = AXIS2_PLACEMENT_3D ( 'NONE', #32, #67, #112 ) ;
#75 = AXIS2_PLACEMENT_3D ( 'NONE', #350, #297, #366 ) ;
#76 = CARTESIAN_POINT ( 'NONE',  ( -2.121763779527558600, 1.521173260732761000, 0.3099999999999997200 ) ) ;
#77 = EDGE_LOOP ( 'NONE', ( #631, #633, #641, #648, #667, #668, #649, #666 ) ) ;
#78 = EDGE_CURVE ( 'NONE', #468, #669, #245, .T. ) ;
#79 = CYLINDRICAL_SURFACE ( 'NONE', #333, 0.1980000000000004500 ) ;
#80 = CARTESIAN_POINT ( 'NONE',  ( -2.276763779527557900, 3.152236220472441500, 0.01000000000000001900 ) ) ;
#81 = DIRECTION ( 'NONE',  ( -1.261675270669477200E-016, 7.003704675487150100E-033, -1.000000000000000000 ) ) ;
#82 = SURFACE_SIDE_STYLE ('',( #272 ) ) ;
#83 = FILL_AREA_STYLE ('',( #251 ) ) ;
#84 = ORIENTED_EDGE ( 'NONE', *, *, #346, .T. ) ;
#85 = CARTESIAN_POINT ( 'NONE',  ( -3.411417322834645400, 3.330236220472441400, 0.3100000000000001600 ) ) ;
#86 = AXIS2_PLACEMENT_3D ( 'NONE', #283, #246, #265 ) ;
#87 = CARTESIAN_POINT ( 'NONE',  ( -3.485236220472440700, 3.330236220472441400, 0.3100000000000001600 ) ) ;
#88 = CARTESIAN_POINT ( 'NONE',  ( -3.033345883345394800, 3.817396289218529600, 0.3099999999999993300 ) ) ;
#89 = DIRECTION ( 'NONE',  ( 1.000000000000000000, 0.0000000000000000000, -1.703958505166034100E-016 ) ) ;
#90 = ORIENTED_EDGE ( 'NONE', *, *, #132, .T. ) ;
#91 = EDGE_CURVE ( 'NONE', #153, #188, #261, .T. ) ;
#92 = CARTESIAN_POINT ( 'NONE',  ( -3.776118141393837800, 3.734263460035309300, 0.01000000000000003100 ) ) ;
#93 = VERTEX_POINT ( 'NONE', #517 ) ;
#94 = LINE ( 'NONE', #76, #150 ) ;
#95 = ORIENTED_EDGE ( 'NONE', *, *, #263, .F. ) ;
#96 = AXIS2_PLACEMENT_3D ( 'NONE', #129, #38, #353 ) ;
#97 = DIRECTION ( 'NONE',  ( 1.703958505166034100E-016, -9.458869827205974200E-033, 1.000000000000000000 ) ) ;
#98 = EDGE_LOOP ( 'NONE', ( #546, #581, #647, #628 ) ) ;
#99 = AXIS2_PLACEMENT_3D ( 'NONE', #344, #352, #475 ) ;
#100 = FACE_BOUND ( 'NONE', #330, .T. ) ;
#101 = ORIENTED_EDGE ( 'NONE', *, *, #113, .F. ) ;
#102 = CARTESIAN_POINT ( 'NONE',  ( -2.190944881889763900, 3.330236220472441400, 0.3100000000000000000 ) ) ;
#103 = UNCERTAINTY_MEASURE_WITH_UNIT (LENGTH_MEASURE( 1.000000000000000100E-005 ), #54, 'distance_accuracy_value', 'NONE');
#104 = EDGE_CURVE ( 'NONE', #216, #626, #271, .T. ) ;
#105 = DIRECTION ( 'NONE',  ( -1.000000000000000000, 0.0000000000000000000, 0.0000000000000000000 ) ) ;
#106 = DIRECTION ( 'NONE',  ( 5.551115123125782700E-017, 1.000000000000000000, 0.0000000000000000000 ) ) ;
#107 = VECTOR ( 'NONE', #198, 39.37007874015748900 ) ;
#108 = DIRECTION ( 'NONE',  ( -5.551115123125782700E-017, -1.000000000000000000, -0.0000000000000000000 ) ) ;
#109 = FACE_OUTER_BOUND ( 'NONE', #98, .T. ) ;
#110 = ORIENTED_EDGE ( 'NONE', *, *, #405, .T. ) ;
#111 = CARTESIAN_POINT ( 'NONE',  ( -2.623999999999999700, 3.570000000000000300, 0.0000000000000000000 ) ) ;
#112 = DIRECTION ( 'NONE',  ( -1.000000000000000000, 0.0000000000000000000, 0.0000000000000000000 ) ) ;
#113 = EDGE_CURVE ( 'NONE', #452, #329, #215, .T. ) ;
#114 = CARTESIAN_POINT ( 'NONE',  ( -2.121763779527564300, 3.152236220472441900, 0.01000000000000000000 ) ) ;
#115 = AXIS2_PLACEMENT_3D ( 'NONE', #481, #478, #473 ) ;
#116 = CARTESIAN_POINT ( 'NONE',  ( -3.725000000000005900, 3.152236220472436600, 0.01000000000000003000 ) ) ;
#117 = EDGE_LOOP ( 'NONE', ( #604, #590 ) ) ;
#118 = LENGTH_MEASURE_WITH_UNIT ( LENGTH_MEASURE( 0.02539999999999999900 ), #451 );
#119 = ORIENTED_EDGE ( 'NONE', *, *, #662, .F. ) ;
#120 = AXIS2_PLACEMENT_3D ( 'NONE', #111, #108, #105 ) ;
#121 = CARTESIAN_POINT ( 'NONE',  ( -3.485236220472440700, 3.330236220472441400, 0.3100000000000001600 ) ) ;
#122 = CARTESIAN_POINT ( 'NONE',  ( -2.426252686491067000, 1.521173260732761000, 0.01000000000000003100 ) ) ;
#123 = DIRECTION ( 'NONE',  ( -1.000000000000000000, 0.0000000000000000000, 0.0000000000000000000 ) ) ;
#124 = EDGE_CURVE ( 'NONE', #149, #632, #197, .T. ) ;
#125 = CIRCLE ( 'NONE', #146, 0.07381889763779533900 ) ;
#126 = CARTESIAN_POINT ( 'NONE',  ( -2.338582677165354600, 3.330236220472441400, 0.3100000000000000000 ) ) ;
#127 = EDGE_LOOP ( 'NONE', ( #614, #624, #619, #615 ) ) ;
#128 = PRODUCT ( 'motor cap', 'motor cap', '', ( #303 ) ) ;
#129 = CARTESIAN_POINT ( 'NONE',  ( -2.264763779527559300, 3.330236220472441400, 0.3100000000000000000 ) ) ;
#130 = ORIENTED_EDGE ( 'NONE', *, *, #1, .T. ) ;
#131 = ORIENTED_EDGE ( 'NONE', *, *, #425, .T. ) ;
#132 = EDGE_CURVE ( 'NONE', #499, #338, #159, .T. ) ;
#133 = AXIS2_PLACEMENT_3D ( 'NONE', #229, #189, #222 ) ;
#134 = CARTESIAN_POINT ( 'NONE',  ( -2.121763779527564300, 3.152236220472441900, 0.3099999999999997200 ) ) ;
#135 = CARTESIAN_POINT ( 'NONE',  ( -2.338582677165354600, 3.330236220472441400, 0.01000000000000002800 ) ) ;
#136 = ORIENTED_EDGE ( 'NONE', *, *, #438, .T. ) ;
#137 = CIRCLE ( 'NONE', #184, 0.07381889763779533900 ) ;
#138 = FACE_BOUND ( 'NONE', #49, .T. ) ;
#139 = DIRECTION ( 'NONE',  ( -1.000000000000000000, 5.551115123125782700E-017, 0.0000000000000000000 ) ) ;
#140 = AXIS2_PLACEMENT_3D ( 'NONE', #87, #642, #273 ) ;
#141 = AXIS2_PLACEMENT_3D ( 'NONE', #597, #592, #591 ) ;
#142 = ORIENTED_EDGE ( 'NONE', *, *, #638, .T. ) ;
#143 = CARTESIAN_POINT ( 'NONE',  ( -3.776118141393837800, 3.734263460035309300, -1.129411299181013900 ) ) ;
#144 = CARTESIAN_POINT ( 'NONE',  ( -3.724999999999999600, 3.361118110236218200, -1.129411299181013900 ) ) ;
#145 = CIRCLE ( 'NONE', #75, 0.1549999999999998600 ) ;
#146 = AXIS2_PLACEMENT_3D ( 'NONE', #53, #10, #20 ) ;
#147 = VERTEX_POINT ( 'NONE', #421 ) ;
#148 = EDGE_CURVE ( 'NONE', #281, #587, #503, .T. ) ;
#149 = VERTEX_POINT ( 'NONE', #524 ) ;
#150 = VECTOR ( 'NONE', #106, 39.37007874015748100 ) ;
#151 = CARTESIAN_POINT ( 'NONE',  ( -3.405758354506076600, 3.785000000000000100, -1.129411299181013900 ) ) ;
#152 = DIRECTION ( 'NONE',  ( 1.000000000000000000, 3.524965153115182800E-015, -3.307998733641005800E-017 ) ) ;
#153 = VERTEX_POINT ( 'NONE', #455 ) ;
#154 = DIRECTION ( 'NONE',  ( 1.000000000000000000, 3.524965153115182800E-015, 0.0000000000000000000 ) ) ;
#155 = VECTOR ( 'NONE', #462, 39.37007874015748100 ) ;
#156 = ORIENTED_EDGE ( 'NONE', *, *, #383, .T. ) ;
#157 = DIRECTION ( 'NONE',  ( 0.0000000000000000000, 0.0000000000000000000, 1.000000000000000000 ) ) ;
#158 = DIRECTION ( 'NONE',  ( -3.524965153115182800E-015, 1.000000000000000000, 0.0000000000000000000 ) ) ;
#159 = CIRCLE ( 'NONE', #357, 0.07381889763779533900 ) ;
#160 = CARTESIAN_POINT ( 'NONE',  ( -2.190944881889763900, 3.330236220472441400, 0.3100000000000000000 ) ) ;
#161 = CARTESIAN_POINT ( 'NONE',  ( -2.121763779527558600, 3.570000000000000300, 0.3099999999999997200 ) ) ;
#162 = VERTEX_POINT ( 'NONE', #191 ) ;
#163 = EDGE_LOOP ( 'NONE', ( #170, #130, #506, #8 ) ) ;
#164 = DIRECTION ( 'NONE',  ( 1.000000000000000000, 0.0000000000000000000, 0.0000000000000000000 ) ) ;
#165 = FACE_OUTER_BOUND ( 'NONE', #57, .T. ) ;
#166 = CARTESIAN_POINT ( 'NONE',  ( -2.264763779527559300, 3.330236220472441400, 0.3100000000000000000 ) ) ;
#167 = DIRECTION ( 'NONE',  ( -1.000000000000000000, 0.0000000000000000000, 1.156482317317870500E-016 ) ) ;
#168 = ORIENTED_EDGE ( 'NONE', *, *, #148, .F. ) ;
#169 = CARTESIAN_POINT ( 'NONE',  ( -3.724999999999999600, 3.361118110236218200, 0.01000000000000003000 ) ) ;
#170 = ORIENTED_EDGE ( 'NONE', *, *, #132, .F. ) ;
#171 = PLANE ( 'NONE',  #364 ) ;
#172 = EDGE_LOOP ( 'NONE', ( #454, #477, #497, #512 ) ) ;
#173 = DIRECTION ( 'NONE',  ( 0.0000000000000000000, 0.0000000000000000000, 1.000000000000000000 ) ) ;
#174 = EDGE_CURVE ( 'NONE', #93, #379, #498, .T. ) ;
#175 = CYLINDRICAL_SURFACE ( 'NONE', #96, 0.07381889763779533900 ) ;
#176 = LINE ( 'NONE', #134, #446 ) ;
#177 = CARTESIAN_POINT ( 'NONE',  ( -3.033345883345394800, 3.817396289218529600, 0.01000000000000003000 ) ) ;
#178 = ORIENTED_EDGE ( 'NONE', *, *, #470, .T. ) ;
#179 = CARTESIAN_POINT ( 'NONE',  ( -3.559055118110236100, 3.330236220472441400, 0.3100000000000001600 ) ) ;
#180 = DIRECTION ( 'NONE',  ( 0.0000000000000000000, 0.0000000000000000000, -1.000000000000000000 ) ) ;
#181 = ORIENTED_EDGE ( 'NONE', *, *, #662, .T. ) ;
#182 = DIRECTION ( 'NONE',  ( 0.0000000000000000000, 0.0000000000000000000, 1.000000000000000000 ) ) ;
#183 = VERTEX_POINT ( 'NONE', #237 ) ;
#184 = AXIS2_PLACEMENT_3D ( 'NONE', #270, #227, #243 ) ;
#185 = CARTESIAN_POINT ( 'NONE',  ( -3.015797369644504800, 3.615666847045020400, 0.01000000000000003100 ) ) ;
#186 = FACE_OUTER_BOUND ( 'NONE', #43, .T. ) ;
#187 = DIRECTION ( 'NONE',  ( 5.551115123125782700E-017, 1.000000000000000000, 0.0000000000000000000 ) ) ;
#188 = VERTEX_POINT ( 'NONE', #490 ) ;
#189 = DIRECTION ( 'NONE',  ( 1.703958505166034100E-016, -9.458869827205974200E-033, 1.000000000000000000 ) ) ;
#190 = CIRCLE ( 'NONE', #99, 0.07381889763779533900 ) ;
#191 = CARTESIAN_POINT ( 'NONE',  ( -3.724999999999999600, 3.152236220472436600, 0.01000000000000003000 ) ) ;
#192 = EDGE_LOOP ( 'NONE', ( #461, #181, #258, #600 ) ) ;
#193 = CIRCLE ( 'NONE', #550, 0.07381889763779533900 ) ;
#194 = ORIENTED_EDGE ( 'NONE', *, *, #277, .T. ) ;
#195 = AXIS2_PLACEMENT_3D ( 'NONE', #349, #24, #347 ) ;
#196 = VECTOR ( 'NONE', #522, 39.37007874015748100 ) ;
#197 = LINE ( 'NONE', #570, #155 ) ;
#198 = DIRECTION ( 'NONE',  ( -0.08666305909959376400, 0.9962376795662268900, 2.866812897549120300E-018 ) ) ;
#199 = VECTOR ( 'NONE', #371, 39.37007874015748900 ) ;
#200 = CYLINDRICAL_SURFACE ( 'NONE', #296, 0.07381889763779533900 ) ;
#201 = DIRECTION ( 'NONE',  ( 0.0000000000000000000, 0.0000000000000000000, 1.000000000000000000 ) ) ;
#202 = CARTESIAN_POINT ( 'NONE',  ( -3.331939456868281200, 3.785000000000000100, -1.129411299181013900 ) ) ;
#203 = ORIENTED_EDGE ( 'NONE', *, *, #502, .T. ) ;
#204 = CARTESIAN_POINT ( 'NONE',  ( -3.724999999999999600, 3.152236220472436600, 0.3100000000000000000 ) ) ;
#205 = EDGE_CURVE ( 'NONE', #42, #518, #336, .T. ) ;
#206 = DIRECTION ( 'NONE',  ( -1.000000000000000000, -0.0000000000000000000, 3.307998733641005800E-017 ) ) ;
#207 = VECTOR ( 'NONE', #644, 39.37007874015748100 ) ;
#208 = DIRECTION ( 'NONE',  ( 1.000000000000000000, 0.0000000000000000000, 0.0000000000000000000 ) ) ;
#209 = ORIENTED_EDGE ( 'NONE', *, *, #527, .T. ) ;
#210 = MECHANICAL_DESIGN_GEOMETRIC_PRESENTATION_REPRESENTATION (  '', ( #429 ), #289 ) ;
#211 = DIRECTION ( 'NONE',  ( 1.000000000000000000, 0.0000000000000000000, 0.0000000000000000000 ) ) ;
#212 = EDGE_CURVE ( 'NONE', #162, #299, #225, .T. ) ;
#213 = AXIS2_PLACEMENT_3D ( 'NONE', #427, #557, #465 ) ;
#214 = VECTOR ( 'NONE', #480, 39.37007874015748100 ) ;
#215 = CIRCLE ( 'NONE', #406, 0.07381889763779533900 ) ;
#216 = VERTEX_POINT ( 'NONE', #267 ) ;
#217 = CARTESIAN_POINT ( 'NONE',  ( -3.405758354506076600, 3.785000000000000100, 0.3099999999999993300 ) ) ;
#218 = FACE_OUTER_BOUND ( 'NONE', #549, .T. ) ;
#219 = ORIENTED_EDGE ( 'NONE', *, *, #552, .T. ) ;
#220 = AXIS2_PLACEMENT_3D ( 'NONE', #66, #58, #420 ) ;
#221 = CARTESIAN_POINT ( 'NONE',  ( -3.724999999999999600, 3.570000000000000300, 0.01000000000000003000 ) ) ;
#222 = DIRECTION ( 'NONE',  ( 1.000000000000000000, 0.0000000000000000000, 0.0000000000000000000 ) ) ;
#223 = EDGE_CURVE ( 'NONE', #216, #537, #145, .T. ) ;
#224 = DIRECTION ( 'NONE',  ( 0.0000000000000000000, -0.0000000000000000000, 1.000000000000000000 ) ) ;
#225 = LINE ( 'NONE', #661, #535 ) ;
#226 = EDGE_LOOP ( 'NONE', ( #84, #90 ) ) ;
#227 = DIRECTION ( 'NONE',  ( -1.261675270669477000E-016, 7.003704675487148800E-033, -1.000000000000000000 ) ) ;
#228 = LINE ( 'NONE', #448, #207 ) ;
#229 = CARTESIAN_POINT ( 'NONE',  ( -2.276763779527558800, 3.307236220472441300, 0.3099999999999997200 ) ) ;
#230 = VERTEX_POINT ( 'NONE', #36 ) ;
#231 = DIRECTION ( 'NONE',  ( -1.000000000000000000, 0.0000000000000000000, 0.0000000000000000000 ) ) ;
#232 = VECTOR ( 'NONE', #380, 39.37007874015748900 ) ;
#233 = DIRECTION ( 'NONE',  ( 0.0000000000000000000, 0.0000000000000000000, 1.000000000000000000 ) ) ;
#234 = LINE ( 'NONE', #247, #253 ) ;
#235 = LINE ( 'NONE', #567, #232 ) ;
#236 = AXIS2_PLACEMENT_3D ( 'NONE', #507, #359, #655 ) ;
#237 = CARTESIAN_POINT ( 'NONE',  ( -3.015797369644504800, 3.615666847045020400, 0.3099999999999993300 ) ) ;
#238 = CARTESIAN_POINT ( 'NONE',  ( -2.821747313508931900, 3.152236220472439700, 0.01000000000000001200 ) ) ;
#239 = VECTOR ( 'NONE', #276, 39.37007874015748100 ) ;
#240 = SHAPE_DEFINITION_REPRESENTATION ( #504, #640 ) ;
#241 = CARTESIAN_POINT ( 'NONE',  ( -2.426252686491067000, 3.570000000000000300, 0.01000000000000003100 ) ) ;
#242 = ORIENTED_EDGE ( 'NONE', *, *, #464, .T. ) ;
#243 = DIRECTION ( 'NONE',  ( -1.000000000000000000, 0.0000000000000000000, 0.0000000000000000000 ) ) ;
#244 = DIRECTION ( 'NONE',  ( -1.261675270669477200E-016, 7.003704675487150100E-033, -1.000000000000000000 ) ) ;
#245 = CIRCLE ( 'NONE', #133, 0.1549999999999998600 ) ;
#246 = DIRECTION ( 'NONE',  ( -3.307998733641005800E-017, 1.836308179759552500E-033, -1.000000000000000000 ) ) ;
#247 = CARTESIAN_POINT ( 'NONE',  ( -2.338582677165354600, 3.330236220472441400, 0.3100000000000000000 ) ) ;
#248 = LINE ( 'NONE', #88, #199 ) ;
#249 = ORIENTED_EDGE ( 'NONE', *, *, #284, .T. ) ;
#250 = DIRECTION ( 'NONE',  ( -0.0000000000000000000, -0.0000000000000000000, -1.000000000000000000 ) ) ;
#251 = FILL_AREA_STYLE_COLOUR ( '', #482 ) ;
#252 = CIRCLE ( 'NONE', #547, 0.04999999999999973900 ) ;
#253 = VECTOR ( 'NONE', #244, 39.37007874015748100 ) ;
#254 = VECTOR ( 'NONE', #305, 39.37007874015748100 ) ;
#255 = EDGE_CURVE ( 'NONE', #402, #274, #513, .T. ) ;
#256 = PRESENTATION_LAYER_ASSIGNMENT (  '', '', ( #327 ) ) ;
#257 = AXIS2_PLACEMENT_3D ( 'NONE', #511, #384, #167 ) ;
#258 = ORIENTED_EDGE ( 'NONE', *, *, #113, .T. ) ;
#259 = LINE ( 'NONE', #177, #107 ) ;
#260 = ORIENTED_EDGE ( 'NONE', *, *, #483, .T. ) ;
#261 = CIRCLE ( 'NONE', #290, 0.07381889763779533900 ) ;
#262 = CARTESIAN_POINT ( 'NONE',  ( -3.559055118110236100, 3.330236220472441400, 0.3100000000000001600 ) ) ;
#263 = EDGE_CURVE ( 'NONE', #329, #452, #335, .T. ) ;
#264 = DIRECTION ( 'NONE',  ( -1.261675270669477000E-016, 7.003704675487148800E-033, -1.000000000000000000 ) ) ;
#265 = DIRECTION ( 'NONE',  ( -1.000000000000000000, 0.0000000000000000000, 4.268512490100433500E-017 ) ) ;
#266 = VECTOR ( 'NONE', #152, 39.37007874015748100 ) ;
#267 = CARTESIAN_POINT ( 'NONE',  ( -2.121763779527558600, 3.307236220472441300, 0.01000000000000000000 ) ) ;
#268 = ORIENTED_EDGE ( 'NONE', *, *, #588, .T. ) ;
#269 = DIRECTION ( 'NONE',  ( 1.000000000000000000, 0.0000000000000000000, 0.0000000000000000000 ) ) ;
#270 = CARTESIAN_POINT ( 'NONE',  ( -3.485236220472440700, 3.330236220472441400, 0.3100000000000001600 ) ) ;
#271 = LINE ( 'NONE', #466, #214 ) ;
#272 = SURFACE_STYLE_FILL_AREA ( #83 ) ;
#273 = DIRECTION ( 'NONE',  ( -1.000000000000000000, 0.0000000000000000000, 0.0000000000000000000 ) ) ;
#274 = VERTEX_POINT ( 'NONE', #355 ) ;
#275 = CIRCLE ( 'NONE', #257, 0.07381889763779533900 ) ;
#276 = DIRECTION ( 'NONE',  ( 1.000000000000000000, 3.524965153115182800E-015, -1.261675270669477000E-016 ) ) ;
#277 = EDGE_CURVE ( 'NONE', #147, #230, #279, .T. ) ;
#278 = DIRECTION ( 'NONE',  ( 0.0000000000000000000, 0.0000000000000000000, 1.000000000000000000 ) ) ;
#279 = LINE ( 'NONE', #221, #515 ) ;
#280 = CARTESIAN_POINT ( 'NONE',  ( -2.965985485666193800, 3.620000000000000100, 0.3099999999999993300 ) ) ;
#281 = VERTEX_POINT ( 'NONE', #262 ) ;
#282 = CIRCLE ( 'NONE', #141, 0.1980000000000004500 ) ;
#283 = CARTESIAN_POINT ( 'NONE',  ( -2.965985485666193800, 3.620000000000000100, 0.01000000000000003000 ) ) ;
#284 = EDGE_CURVE ( 'NONE', #149, #162, #562, .T. ) ;
#285 = CARTESIAN_POINT ( 'NONE',  ( -2.965985485666193800, 3.620000000000000100, -1.129411299181013900 ) ) ;
#286 = FACE_OUTER_BOUND ( 'NONE', #521, .T. ) ;
#287 = VECTOR ( 'NONE', #180, 39.37007874015748100 ) ;
#288 = CARTESIAN_POINT ( 'NONE',  ( -3.411417322834645400, 3.330236220472441400, 0.01000000000000016500 ) ) ;
#289 =( GEOMETRIC_REPRESENTATION_CONTEXT ( 3 ) GLOBAL_UNCERTAINTY_ASSIGNED_CONTEXT ( ( #571 ) ) GLOBAL_UNIT_ASSIGNED_CONTEXT ( ( #302, #412, #630 ) ) REPRESENTATION_CONTEXT ( 'NONE', 'WORKASPACE' ) );
#290 = AXIS2_PLACEMENT_3D ( 'NONE', #540, #536, #458 ) ;
#291 =( GEOMETRIC_REPRESENTATION_CONTEXT ( 3 ) GLOBAL_UNCERTAINTY_ASSIGNED_CONTEXT ( ( #103 ) ) GLOBAL_UNIT_ASSIGNED_CONTEXT ( ( #54, #16, #41 ) ) REPRESENTATION_CONTEXT ( 'NONE', 'WORKASPACE' ) );
#292 = CIRCLE ( 'NONE', #86, 0.04999999999999973900 ) ;
#293 = VERTEX_POINT ( 'NONE', #185 ) ;
#294 = CARTESIAN_POINT ( 'NONE',  ( -3.724999999999999600, 3.361118110236218200, 0.3099999999999993300 ) ) ;
#295 = CARTESIAN_POINT ( 'NONE',  ( -2.276763779527557900, 3.152236220472441500, 0.3099999999999997200 ) ) ;
#296 = AXIS2_PLACEMENT_3D ( 'NONE', #151, #532, #164 ) ;
#297 = DIRECTION ( 'NONE',  ( -1.261675270669477000E-016, 7.003704675487148800E-033, -1.000000000000000000 ) ) ;
#298 = PRESENTATION_LAYER_ASSIGNMENT (  '', '', ( #429 ) ) ;
#299 = VERTEX_POINT ( 'NONE', #169 ) ;
#300 = EDGE_CURVE ( 'NONE', #188, #329, #456, .T. ) ;
#301 = LINE ( 'NONE', #505, #30 ) ;
#302 =( CONVERSION_BASED_UNIT ( 'INCH', #337 ) LENGTH_UNIT ( ) NAMED_UNIT ( #377 ) );
#303 = PRODUCT_CONTEXT ( 'NONE', #334, 'mechanical' ) ;
#304 =( LENGTH_UNIT ( ) NAMED_UNIT ( * ) SI_UNIT ( $, .METRE. ) );
#305 = DIRECTION ( 'NONE',  ( 0.0000000000000000000, 0.0000000000000000000, 1.000000000000000000 ) ) ;
#306 = ORIENTED_EDGE ( 'NONE', *, *, #104, .F. ) ;
#307 = PRESENTATION_STYLE_ASSIGNMENT (( #308 ) ) ;
#308 = SURFACE_STYLE_USAGE ( .BOTH. , #313 ) ;
#309 = VECTOR ( 'NONE', #595, 39.37007874015748100 ) ;
#310 = LINE ( 'NONE', #22, #62 ) ;
#311 = ORIENTED_EDGE ( 'NONE', *, *, #395, .F. ) ;
#312 = CARTESIAN_POINT ( 'NONE',  ( -2.821747313508931900, 1.521173260732761000, 0.01000000000000000000 ) ) ;
#313 = SURFACE_SIDE_STYLE ('',( #598 ) ) ;
#314 = ORIENTED_EDGE ( 'NONE', *, *, #464, .F. ) ;
#315 = EDGE_CURVE ( 'NONE', #299, #632, #534, .T. ) ;
#316 = DIRECTION ( 'NONE',  ( -1.000000000000000000, 0.0000000000000000000, 3.425599281154831500E-017 ) ) ;
#317 = FACE_OUTER_BOUND ( 'NONE', #127, .T. ) ;
#318 = CARTESIAN_POINT ( 'NONE',  ( -2.276763779527557900, 3.152236220472441500, 0.3099999999999997200 ) ) ;
#319 = ORIENTED_EDGE ( 'NONE', *, *, #124, .F. ) ;
#320 = DIRECTION ( 'NONE',  ( 1.000000000000000000, 0.0000000000000000000, 0.0000000000000000000 ) ) ;
#321 = EDGE_CURVE ( 'NONE', #518, #274, #569, .T. ) ;
#322 = ORIENTED_EDGE ( 'NONE', *, *, #575, .T. ) ;
#323 = FILL_AREA_STYLE ('',( #437 ) ) ;
#324 = LINE ( 'NONE', #60, #551 ) ;
#325 = FACE_OUTER_BOUND ( 'NONE', #77, .T. ) ;
#326 = ORIENTED_EDGE ( 'NONE', *, *, #78, .F. ) ;
#327 = STYLED_ITEM ( 'NONE', ( #525 ), #331 ) ;
#328 =( GEOMETRIC_REPRESENTATION_CONTEXT ( 3 ) GLOBAL_UNCERTAINTY_ASSIGNED_CONTEXT ( ( #586 ) ) GLOBAL_UNIT_ASSIGNED_CONTEXT ( ( #424, #393, #368 ) ) REPRESENTATION_CONTEXT ( 'NONE', 'WORKASPACE' ) );
#329 = VERTEX_POINT ( 'NONE', #495 ) ;
#330 = EDGE_LOOP ( 'NONE', ( #374, #358 ) ) ;
#331 = MANIFOLD_SOLID_BREP ( 'Boss-Extrude3', #432 ) ;
#332 = VECTOR ( 'NONE', #278, 39.37007874015748100 ) ;
#333 = AXIS2_PLACEMENT_3D ( 'NONE', #554, #577, #568 ) ;
#334 = APPLICATION_CONTEXT ( 'automotive_design' ) ;
#335 = CIRCLE ( 'NONE', #663, 0.07381889763779533900 ) ;
#336 = CIRCLE ( 'NONE', #47, 0.3738188976377954100 ) ;
#337 = LENGTH_MEASURE_WITH_UNIT ( LENGTH_MEASURE( 0.02539999999999999900 ), #304 );
#338 = VERTEX_POINT ( 'NONE', #126 ) ;
#339 = ORIENTED_EDGE ( 'NONE', *, *, #552, .F. ) ;
#340 = CARTESIAN_POINT ( 'NONE',  ( -3.033345883345394800, 3.817396289218529600, -1.129411299181013900 ) ) ;
#341 = AXIS2_PLACEMENT_3D ( 'NONE', #621, #376, #139 ) ;
#342 = ORIENTED_EDGE ( 'NONE', *, *, #425, .F. ) ;
#343 = CARTESIAN_POINT ( 'NONE',  ( -2.121763779527558600, 3.307236220472441300, 0.01000000000000003000 ) ) ;
#344 = CARTESIAN_POINT ( 'NONE',  ( -3.485236220472440700, 3.330236220472441400, 0.01000000000000017400 ) ) ;
#345 = PRODUCT_RELATED_PRODUCT_CATEGORY ( 'part', '', ( #128 ) ) ;
#346 = EDGE_CURVE ( 'NONE', #338, #499, #578, .T. ) ;
#347 = DIRECTION ( 'NONE',  ( -1.000000000000000000, 0.0000000000000000000, 0.0000000000000000000 ) ) ;
#348 = ORIENTED_EDGE ( 'NONE', *, *, #1, .F. ) ;
#349 = CARTESIAN_POINT ( 'NONE',  ( -2.276763779527558800, 3.307236220472441300, -1.155831740387290200 ) ) ;
#350 = CARTESIAN_POINT ( 'NONE',  ( -2.276763779527558800, 3.307236220472441300, 0.01000000000000003000 ) ) ;
#351 = ORIENTED_EDGE ( 'NONE', *, *, #223, .T. ) ;
#352 = DIRECTION ( 'NONE',  ( -1.261675270669477000E-016, 7.003704675487148800E-033, -1.000000000000000000 ) ) ;
#353 = DIRECTION ( 'NONE',  ( -1.000000000000000000, 0.0000000000000000000, 0.0000000000000000000 ) ) ;
#354 = VERTEX_POINT ( 'NONE', #135 ) ;
#355 = CARTESIAN_POINT ( 'NONE',  ( -3.776118141393837800, 3.734263460035309300, 0.3099999999999993300 ) ) ;
#356 = APPLICATION_PROTOCOL_DEFINITION ( 'draft international standard', 'automotive_design', 1998, #334 ) ;
#357 = AXIS2_PLACEMENT_3D ( 'NONE', #166, #572, #123 ) ;
#358 = ORIENTED_EDGE ( 'NONE', *, *, #573, .F. ) ;
#359 = DIRECTION ( 'NONE',  ( -1.261675270669477200E-016, 7.003704675487150100E-033, -1.000000000000000000 ) ) ;
#360 = FACE_OUTER_BOUND ( 'NONE', #445, .T. ) ;
#361 = CYLINDRICAL_SURFACE ( 'NONE', #140, 0.07381889763779533900 ) ;
#362 = ORIENTED_EDGE ( 'NONE', *, *, #346, .F. ) ;
#363 = CARTESIAN_POINT ( 'NONE',  ( -3.405758354506076600, 3.785000000000000100, 0.3099999999999993300 ) ) ;
#364 = AXIS2_PLACEMENT_3D ( 'NONE', #467, #158, #154 ) ;
#365 = ORIENTED_EDGE ( 'NONE', *, *, #174, .F. ) ;
#366 = DIRECTION ( 'NONE',  ( -1.000000000000000000, 0.0000000000000000000, 1.239245561642056000E-016 ) ) ;
#367 = CARTESIAN_POINT ( 'NONE',  ( -2.264763779527559300, 3.330236220472441400, 0.3100000000000000000 ) ) ;
#368 =( NAMED_UNIT ( * ) SI_UNIT ( $, .STERADIAN. ) SOLID_ANGLE_UNIT ( ) );
#369 = FACE_BOUND ( 'NONE', #28, .T. ) ;
#370 = ORIENTED_EDGE ( 'NONE', *, *, #63, .T. ) ;
#371 = DIRECTION ( 'NONE',  ( -0.08666305909959376400, 0.9962376795662268900, -0.0000000000000000000 ) ) ;
#372 = DIRECTION ( 'NONE',  ( 0.0000000000000000000, 0.0000000000000000000, 1.000000000000000000 ) ) ;
#373 = ORIENTED_EDGE ( 'NONE', *, *, #383, .F. ) ;
#374 = ORIENTED_EDGE ( 'NONE', *, *, #584, .F. ) ;
#375 = ORIENTED_EDGE ( 'NONE', *, *, #395, .T. ) ;
#376 = DIRECTION ( 'NONE',  ( 5.551115123125782700E-017, 1.000000000000000000, 0.0000000000000000000 ) ) ;
#377 = DIMENSIONAL_EXPONENTS ( 1.000000000000000000, 0.0000000000000000000, 0.0000000000000000000, 0.0000000000000000000, 0.0000000000000000000, 0.0000000000000000000, 0.0000000000000000000 ) ;
#378 = AXIS2_PLACEMENT_3D ( 'NONE', #651, #639, #269 ) ;
#379 = VERTEX_POINT ( 'NONE', #241 ) ;
#380 = DIRECTION ( 'NONE',  ( 0.1357249199687374500, -0.9907465599735785200, -4.489778633801105000E-018 ) ) ;
#381 = CYLINDRICAL_SURFACE ( 'NONE', #378, 0.3738188976377954100 ) ;
#382 = ORIENTED_EDGE ( 'NONE', *, *, #584, .T. ) ;
#383 = EDGE_CURVE ( 'NONE', #626, #379, #228, .T. ) ;
#384 = DIRECTION ( 'NONE',  ( -1.261675270669477000E-016, 7.003704675487148800E-033, -1.000000000000000000 ) ) ;
#385 = CARTESIAN_POINT ( 'NONE',  ( -3.033345883345394800, 3.817396289218529600, 0.01000000000000003000 ) ) ;
#386 = CARTESIAN_POINT ( 'NONE',  ( -3.724999999999999600, 1.521173260732761000, 0.01000000000000003000 ) ) ;
#387 = DIMENSIONAL_EXPONENTS ( 1.000000000000000000, 0.0000000000000000000, 0.0000000000000000000, 0.0000000000000000000, 0.0000000000000000000, 0.0000000000000000000, 0.0000000000000000000 ) ;
#388 = ORIENTED_EDGE ( 'NONE', *, *, #470, .F. ) ;
#389 = DIMENSIONAL_EXPONENTS ( 1.000000000000000000, 0.0000000000000000000, 0.0000000000000000000, 0.0000000000000000000, 0.0000000000000000000, 0.0000000000000000000, 0.0000000000000000000 ) ;
#390 = DIRECTION ( 'NONE',  ( 1.000000000000000000, 0.0000000000000000000, 0.0000000000000000000 ) ) ;
#391 = ADVANCED_FACE ( 'NONE', ( #286, #138, #656, #501 ), #566, .T. ) ;
#392 = ADVANCED_FACE ( 'NONE', ( #636 ), #361, .F. ) ;
#393 =( NAMED_UNIT ( * ) PLANE_ANGLE_UNIT ( ) SI_UNIT ( $, .RADIAN. ) );
#394 = FACE_BOUND ( 'NONE', #117, .T. ) ;
#395 = EDGE_CURVE ( 'NONE', #669, #216, #423, .T. ) ;
#396 = ORIENTED_EDGE ( 'NONE', *, *, #418, .F. ) ;
#397 = DIRECTION ( 'NONE',  ( 0.0000000000000000000, 0.0000000000000000000, 1.000000000000000000 ) ) ;
#398 = ADVANCED_FACE ( 'NONE', ( #317 ), #523, .T. ) ;
#399 = ADVANCED_FACE ( 'NONE', ( #325, #369, #394 ), #457, .T. ) ;
#400 = ORIENTED_EDGE ( 'NONE', *, *, #104, .T. ) ;
#401 = DIRECTION ( 'NONE',  ( 0.0000000000000000000, 0.0000000000000000000, 1.000000000000000000 ) ) ;
#402 = VERTEX_POINT ( 'NONE', #413 ) ;
#403 = ORIENTED_EDGE ( 'NONE', *, *, #255, .T. ) ;
#404 = ADVANCED_FACE ( 'NONE', ( #645 ), #608, .F. ) ;
#405 = EDGE_CURVE ( 'NONE', #230, #488, #19, .T. ) ;
#406 = AXIS2_PLACEMENT_3D ( 'NONE', #6, #173, #410 ) ;
#407 = ADVANCED_FACE ( 'NONE', ( #654 ), #646, .F. ) ;
#408 = ADVANCED_FACE ( 'NONE', ( #165 ), #670, .T. ) ;
#409 = ORIENTED_EDGE ( 'NONE', *, *, #148, .T. ) ;
#410 = DIRECTION ( 'NONE',  ( 1.000000000000000000, 0.0000000000000000000, 0.0000000000000000000 ) ) ;
#411 = ADVANCED_FACE ( 'NONE', ( #564 ), #496, .F. ) ;
#412 =( NAMED_UNIT ( * ) PLANE_ANGLE_UNIT ( ) SI_UNIT ( $, .RADIAN. ) );
#413 = CARTESIAN_POINT ( 'NONE',  ( -3.033345883345394800, 3.817396289218529600, 0.3099999999999993300 ) ) ;
#414 = DIRECTION ( 'NONE',  ( 1.000000000000000000, 0.0000000000000000000, 0.0000000000000000000 ) ) ;
#415 = ORIENTED_EDGE ( 'NONE', *, *, #638, .F. ) ;
#416 = ADVANCED_FACE ( 'NONE', ( #360 ), #538, .T. ) ;
#417 = ADVANCED_FACE ( 'NONE', ( #671 ), #39, .T. ) ;
#418 = EDGE_CURVE ( 'NONE', #281, #543, #193, .T. ) ;
#419 = EDGE_LOOP ( 'NONE', ( #95, #101 ) ) ;
#420 = DIRECTION ( 'NONE',  ( -1.000000000000000000, 0.0000000000000000000, 1.156482317317870500E-016 ) ) ;
#421 = CARTESIAN_POINT ( 'NONE',  ( -2.821747313508931900, 3.570000000000000300, 0.01000000000000000000 ) ) ;
#422 = ADVANCED_FACE ( 'NONE', ( #109 ), #64, .F. ) ;
#423 = LINE ( 'NONE', #343, #309 ) ;
#424 =( CONVERSION_BASED_UNIT ( 'INCH', #118 ) LENGTH_UNIT ( ) NAMED_UNIT ( #389 ) );
#425 = EDGE_CURVE ( 'NONE', #488, #25, #310, .T. ) ;
#426 = ADVANCED_FACE ( 'NONE', ( #3 ), #175, .F. ) ;
#427 = CARTESIAN_POINT ( 'NONE',  ( -3.724999999999999600, 1.521173260732761000, 0.3100000000000000000 ) ) ;
#428 = ORIENTED_EDGE ( 'NONE', *, *, #519, .F. ) ;
#429 = STYLED_ITEM ( 'NONE', ( #307 ), #640 ) ;
#430 = ORIENTED_EDGE ( 'NONE', *, *, #55, .T. ) ;
#431 = ADVANCED_FACE ( 'NONE', ( #51 ), #381, .T. ) ;
#432 = CLOSED_SHELL ( 'NONE', ( #404, #392, #411, #398, #399, #444, #442, #408, #391, #416, #447, #417, #426, #407, #431, #436, #422, #439, #449 ) ) ;
#433 = LINE ( 'NONE', #312, #72 ) ;
#434 = AXIS2_PLACEMENT_3D ( 'NONE', #529, #372, #500 ) ;
#435 = ORIENTED_EDGE ( 'NONE', *, *, #11, .T. ) ;
#436 = ADVANCED_FACE ( 'NONE', ( #218 ), #623, .T. ) ;
#437 = FILL_AREA_STYLE_COLOUR ( '', #484 ) ;
#438 = EDGE_CURVE ( 'NONE', #543, #33, #463, .T. ) ;
#439 = ADVANCED_FACE ( 'NONE', ( #71 ), #599, .T. ) ;
#440 = VECTOR ( 'NONE', #469, 39.37007874015748900 ) ;
#441 = DIRECTION ( 'NONE',  ( 3.307998733641005800E-017, -1.836308179759552500E-033, 1.000000000000000000 ) ) ;
#442 = ADVANCED_FACE ( 'NONE', ( #100, #558 ), #574, .T. ) ;
#443 = CARTESIAN_POINT ( 'NONE',  ( -3.479577252143871900, 3.785000000000000100, 0.3099999999999993300 ) ) ;
#444 = ADVANCED_FACE ( 'NONE', ( #186 ), #79, .F. ) ;
#445 = EDGE_LOOP ( 'NONE', ( #110, #131, #142, #156, #178, #194 ) ) ;
#446 = VECTOR ( 'NONE', #48, 39.37007874015748100 ) ;
#447 = ADVANCED_FACE ( 'NONE', ( #56 ), #171, .F. ) ;
#448 = CARTESIAN_POINT ( 'NONE',  ( -2.121763779527558600, 3.570000000000000300, 0.01000000000000000000 ) ) ;
#449 = ADVANCED_FACE ( 'NONE', ( #489 ), #200, .F. ) ;
#450 = DIRECTION ( 'NONE',  ( 0.0000000000000000000, 0.0000000000000000000, 1.000000000000000000 ) ) ;
#451 =( LENGTH_UNIT ( ) NAMED_UNIT ( * ) SI_UNIT ( $, .METRE. ) );
#452 = VERTEX_POINT ( 'NONE', #443 ) ;
#453 = CIRCLE ( 'NONE', #115, 0.07381889763779533900 ) ;
#454 = ORIENTED_EDGE ( 'NONE', *, *, #13, .F. ) ;
#455 = CARTESIAN_POINT ( 'NONE',  ( -3.479577252143871900, 3.785000000000000100, 0.01000000000000003100 ) ) ;
#456 = LINE ( 'NONE', #202, #563 ) ;
#457 = PLANE ( 'NONE',  #27 ) ;
#458 = DIRECTION ( 'NONE',  ( -1.000000000000000000, 0.0000000000000000000, 2.891205793294676200E-017 ) ) ;
#459 = EDGE_LOOP ( 'NONE', ( #37, #136, #203, #168 ) ) ;
#460 = AXIS2_PLACEMENT_3D ( 'NONE', #580, #618, #561 ) ;
#461 = ORIENTED_EDGE ( 'NONE', *, *, #91, .F. ) ;
#462 = DIRECTION ( 'NONE',  ( 5.551115123125782700E-017, 1.000000000000000000, 0.0000000000000000000 ) ) ;
#463 = LINE ( 'NONE', #605, #544 ) ;
#464 = EDGE_CURVE ( 'NONE', #468, #149, #176, .T. ) ;
#465 = DIRECTION ( 'NONE',  ( -5.551115123125782700E-017, -1.000000000000000000, 0.0000000000000000000 ) ) ;
#466 = CARTESIAN_POINT ( 'NONE',  ( -2.121763779527558600, 1.521173260732761000, 0.01000000000000000000 ) ) ;
#467 = CARTESIAN_POINT ( 'NONE',  ( -2.276763779527558800, 3.152236220472441500, -1.155831740387290200 ) ) ;
#468 = VERTEX_POINT ( 'NONE', #318 ) ;
#469 = DIRECTION ( 'NONE',  ( 0.1357249199687374500, -0.9907465599735785200, -0.0000000000000000000 ) ) ;
#470 = EDGE_CURVE ( 'NONE', #379, #147, #14, .T. ) ;
#471 = CARTESIAN_POINT ( 'NONE',  ( -2.121763779527558600, 1.521173260732761000, 0.01000000000000000000 ) ) ;
#472 = EDGE_LOOP ( 'NONE', ( #119, #672, #657, #526 ) ) ;
#473 = DIRECTION ( 'NONE',  ( -1.000000000000000000, 0.0000000000000000000, 2.891205793294676200E-017 ) ) ;
#474 = VECTOR ( 'NONE', #233, 39.37007874015748100 ) ;
#475 = DIRECTION ( 'NONE',  ( -1.000000000000000000, 0.0000000000000000000, 1.156482317317870500E-016 ) ) ;
#476 = VECTOR ( 'NONE', #224, 39.37007874015748100 ) ;
#477 = ORIENTED_EDGE ( 'NONE', *, *, #205, .T. ) ;
#478 = DIRECTION ( 'NONE',  ( 3.307998733641005800E-017, -1.836308179759552500E-033, 1.000000000000000000 ) ) ;
#479 = AXIS2_PLACEMENT_3D ( 'NONE', #285, #583, #320 ) ;
#480 = DIRECTION ( 'NONE',  ( 5.551115123125782700E-017, 1.000000000000000000, 0.0000000000000000000 ) ) ;
#481 = CARTESIAN_POINT ( 'NONE',  ( -3.405758354506076600, 3.785000000000000100, 0.01000000000000003000 ) ) ;
#482 = COLOUR_RGB ( '',1.000000000000000000, 0.2705882352941176300, 0.1843137254901960900 ) ;
#483 = EDGE_CURVE ( 'NONE', #162, #31, #44, .T. ) ;
#484 = COLOUR_RGB ( '',1.000000000000000000, 0.2705882352941176300, 0.1843137254901960900 ) ;
#485 = CARTESIAN_POINT ( 'NONE',  ( -2.121763779527558600, 3.307236220472441300, 0.3099999999999997200 ) ) ;
#486 = PRODUCT_DEFINITION_CONTEXT ( 'detailed design', #634, 'design' ) ;
#487 = EDGE_LOOP ( 'NONE', ( #637, #594, #609, #617 ) ) ;
#488 = VERTEX_POINT ( 'NONE', #50 ) ;
#489 = FACE_OUTER_BOUND ( 'NONE', #472, .T. ) ;
#490 = CARTESIAN_POINT ( 'NONE',  ( -3.331939456868281200, 3.785000000000000100, 0.01000000000000002800 ) ) ;
#491 = CARTESIAN_POINT ( 'NONE',  ( 0.0000000000000000000, 0.0000000000000000000, 0.0000000000000000000 ) ) ;
#492 = VECTOR ( 'NONE', #2, 39.37007874015748100 ) ;
#493 = VECTOR ( 'NONE', #81, 39.37007874015748100 ) ;
#494 = EDGE_LOOP ( 'NONE', ( #348, #362, #370, #382 ) ) ;
#495 = CARTESIAN_POINT ( 'NONE',  ( -3.331939456868281200, 3.785000000000000100, 0.3099999999999993300 ) ) ;
#496 = CYLINDRICAL_SURFACE ( 'NONE', #74, 0.07381889763779533900 ) ;
#497 = ORIENTED_EDGE ( 'NONE', *, *, #321, .T. ) ;
#498 = LINE ( 'NONE', #122, #492 ) ;
#499 = VERTEX_POINT ( 'NONE', #102 ) ;
#500 = DIRECTION ( 'NONE',  ( 1.000000000000000000, 0.0000000000000000000, 0.0000000000000000000 ) ) ;
#501 = FACE_BOUND ( 'NONE', #419, .T. ) ;
#502 = EDGE_CURVE ( 'NONE', #33, #587, #12, .T. ) ;
#503 = LINE ( 'NONE', #179, #493 ) ;
#504 = PRODUCT_DEFINITION_SHAPE ( 'NONE', 'NONE',  #620 ) ;
#505 = CARTESIAN_POINT ( 'NONE',  ( -3.479577252143871900, 3.785000000000000100, -1.129411299181013900 ) ) ;
#506 = ORIENTED_EDGE ( 'NONE', *, *, #573, .T. ) ;
#507 = CARTESIAN_POINT ( 'NONE',  ( -3.485236220472440700, 3.330236220472441400, 0.3100000000000001600 ) ) ;
#508 = EDGE_LOOP ( 'NONE', ( #209, #219, #242, #249, #260, #268 ) ) ;
#509 = DIRECTION ( 'NONE',  ( -0.0000000000000000000, -0.0000000000000000000, -1.000000000000000000 ) ) ;
#510 = AXIS2_PLACEMENT_3D ( 'NONE', #627, #97, #89 ) ;
#511 = CARTESIAN_POINT ( 'NONE',  ( -2.264763779527559300, 3.330236220472441400, 0.01000000000000001900 ) ) ;
#512 = ORIENTED_EDGE ( 'NONE', *, *, #255, .F. ) ;
#513 = CIRCLE ( 'NONE', #606, 0.3738188976377954100 ) ;
#514 = DIRECTION ( 'NONE',  ( 5.551115123125782700E-017, 1.000000000000000000, 0.0000000000000000000 ) ) ;
#515 = VECTOR ( 'NONE', #206, 39.37007874015748100 ) ;
#516 = CARTESIAN_POINT ( 'NONE',  ( -2.190944881889763900, 3.330236220472441400, 0.01000000000000001100 ) ) ;
#517 = CARTESIAN_POINT ( 'NONE',  ( -2.426252686491067000, 3.152236220472440600, 0.01000000000000003800 ) ) ;
#518 = VERTEX_POINT ( 'NONE', #92 ) ;
#519 = EDGE_CURVE ( 'NONE', #669, #25, #94, .T. ) ;
#520 = DIRECTION ( 'NONE',  ( 1.000000000000000000, -5.551115123125782700E-017, 0.0000000000000000000 ) ) ;
#521 = EDGE_LOOP ( 'NONE', ( #342, #430, #322, #403, #616, #319, #314, #4, #15 ) ) ;
#522 = DIRECTION ( 'NONE',  ( -1.261675270669477200E-016, 7.003704675487150100E-033, -1.000000000000000000 ) ) ;
#523 = PLANE ( 'NONE',  #213 ) ;
#524 = CARTESIAN_POINT ( 'NONE',  ( -3.724999999999999600, 3.152236220472436600, 0.3100000000000000000 ) ) ;
#525 = PRESENTATION_STYLE_ASSIGNMENT (( #69 ) ) ;
#526 = ORIENTED_EDGE ( 'NONE', *, *, #263, .T. ) ;
#527 = EDGE_CURVE ( 'NONE', #93, #537, #528, .T. ) ;
#528 = LINE ( 'NONE', #114, #239 ) ;
#529 = CARTESIAN_POINT ( 'NONE',  ( -3.405758354506076600, 3.785000000000000100, -1.129411299181013900 ) ) ;
#530 = ORIENTED_EDGE ( 'NONE', *, *, #610, .F. ) ;
#531 = CARTESIAN_POINT ( 'NONE',  ( -3.405758354506076600, 3.785000000000000100, 0.01000000000000003000 ) ) ;
#532 = DIRECTION ( 'NONE',  ( 0.0000000000000000000, 0.0000000000000000000, 1.000000000000000000 ) ) ;
#533 = LENGTH_MEASURE_WITH_UNIT ( LENGTH_MEASURE( 0.02539999999999999900 ), #59 );
#534 = LINE ( 'NONE', #144, #560 ) ;
#535 = VECTOR ( 'NONE', #187, 39.37007874015748100 ) ;
#536 = DIRECTION ( 'NONE',  ( 3.307998733641005800E-017, -1.836308179759552500E-033, 1.000000000000000000 ) ) ;
#537 = VERTEX_POINT ( 'NONE', #80 ) ;
#538 = PLANE ( 'NONE',  #341 ) ;
#539 = ORIENTED_EDGE ( 'NONE', *, *, #555, .T. ) ;
#540 = CARTESIAN_POINT ( 'NONE',  ( -3.405758354506076600, 3.785000000000000100, 0.01000000000000003000 ) ) ;
#541 = CARTESIAN_POINT ( 'NONE',  ( -2.965985485666192900, 3.570000000000000300, -1.129411299181013900 ) ) ;
#542 = EDGE_CURVE ( 'NONE', #543, #281, #137, .T. ) ;
#543 = VERTEX_POINT ( 'NONE', #85 ) ;
#544 = VECTOR ( 'NONE', #602, 39.37007874015748100 ) ;
#545 = DIRECTION ( 'NONE',  ( -1.000000000000000000, 0.0000000000000000000, 3.307998733641005800E-017 ) ) ;
#546 = ORIENTED_EDGE ( 'NONE', *, *, #405, .F. ) ;
#547 = AXIS2_PLACEMENT_3D ( 'NONE', #280, #250, #390 ) ;
#548 = VECTOR ( 'NONE', #401, 39.37007874015748100 ) ;
#549 = EDGE_LOOP ( 'NONE', ( #530, #539, #565, #559 ) ) ;
#550 = AXIS2_PLACEMENT_3D ( 'NONE', #121, #68, #65 ) ;
#551 = VECTOR ( 'NONE', #509, 39.37007874015748100 ) ;
#552 = EDGE_CURVE ( 'NONE', #537, #468, #29, .T. ) ;
#553 = APPLICATION_PROTOCOL_DEFINITION ( 'draft international standard', 'automotive_design', 1998, #634 ) ;
#554 = CARTESIAN_POINT ( 'NONE',  ( -2.623999999999999700, 1.521173260732761000, 0.0000000000000000000 ) ) ;
#555 = EDGE_CURVE ( 'NONE', #293, #42, #259, .T. ) ;
#556 = ORIENTED_EDGE ( 'NONE', *, *, #223, .F. ) ;
#557 = DIRECTION ( 'NONE',  ( -1.000000000000000000, 5.551115123125782700E-017, 0.0000000000000000000 ) ) ;
#558 = FACE_OUTER_BOUND ( 'NONE', #579, .T. ) ;
#559 = ORIENTED_EDGE ( 'NONE', *, *, #575, .F. ) ;
#560 = VECTOR ( 'NONE', #157, 39.37007874015748100 ) ;
#561 = DIRECTION ( 'NONE',  ( -1.000000000000000000, 0.0000000000000000000, 1.261675270669477000E-016 ) ) ;
#562 = LINE ( 'NONE', #204, #287 ) ;
#563 = VECTOR ( 'NONE', #182, 39.37007874015748100 ) ;
#564 = FACE_OUTER_BOUND ( 'NONE', #163, .T. ) ;
#565 = ORIENTED_EDGE ( 'NONE', *, *, #13, .T. ) ;
#566 = PLANE ( 'NONE',  #510 ) ;
#567 = CARTESIAN_POINT ( 'NONE',  ( -3.724999999999999600, 3.361118110236218200, 0.01000000000000003000 ) ) ;
#568 = DIRECTION ( 'NONE',  ( -1.000000000000000000, 0.0000000000000000000, 0.0000000000000000000 ) ) ;
#569 = LINE ( 'NONE', #143, #548 ) ;
#570 = CARTESIAN_POINT ( 'NONE',  ( -3.724999999999999600, 1.521173260732761000, 0.3100000000000000000 ) ) ;
#571 = UNCERTAINTY_MEASURE_WITH_UNIT (LENGTH_MEASURE( 1.000000000000000100E-005 ), #302, 'distance_accuracy_value', 'NONE');
#572 = DIRECTION ( 'NONE',  ( -1.261675270669477000E-016, 7.003704675487148800E-033, -1.000000000000000000 ) ) ;
#573 = EDGE_CURVE ( 'NONE', #660, #354, #125, .T. ) ;
#574 = PLANE ( 'NONE',  #460 ) ;
#575 = EDGE_CURVE ( 'NONE', #183, #402, #248, .T. ) ;
#576 = ORIENTED_EDGE ( 'NONE', *, *, #625, .T. ) ;
#577 = DIRECTION ( 'NONE',  ( 5.551115123125782700E-017, 1.000000000000000000, 0.0000000000000000000 ) ) ;
#578 = CIRCLE ( 'NONE', #665, 0.07381889763779533900 ) ;
#579 = EDGE_LOOP ( 'NONE', ( #306, #351, #7, #40, #373 ) ) ;
#580 = CARTESIAN_POINT ( 'NONE',  ( -2.121763779527558600, 1.521173260732761000, 0.01000000000000000000 ) ) ;
#581 = ORIENTED_EDGE ( 'NONE', *, *, #603, .T. ) ;
#582 = AXIS2_PLACEMENT_3D ( 'NONE', #471, #520, #514 ) ;
#583 = DIRECTION ( 'NONE',  ( 0.0000000000000000000, 0.0000000000000000000, 1.000000000000000000 ) ) ;
#584 = EDGE_CURVE ( 'NONE', #354, #660, #275, .T. ) ;
#585 = CARTESIAN_POINT ( 'NONE',  ( -3.015797369644504800, 3.615666847045020400, -1.129411299181013900 ) ) ;
#586 = UNCERTAINTY_MEASURE_WITH_UNIT (LENGTH_MEASURE( 1.000000000000000100E-005 ), #424, 'distance_accuracy_value', 'NONE');
#587 = VERTEX_POINT ( 'NONE', #45 ) ;
#588 = EDGE_CURVE ( 'NONE', #31, #93, #282, .T. ) ;
#589 = DIRECTION ( 'NONE',  ( 0.1357249199687374500, -0.9907465599735785200, 0.0000000000000000000 ) ) ;
#590 = ORIENTED_EDGE ( 'NONE', *, *, #91, .T. ) ;
#591 = DIRECTION ( 'NONE',  ( -1.000000000000000000, -2.759442417842683600E-015, 0.0000000000000000000 ) ) ;
#592 = DIRECTION ( 'NONE',  ( -3.524965153115182400E-015, 1.000000000000000000, 0.0000000000000000000 ) ) ;
#593 = DIRECTION ( 'NONE',  ( -0.9907465599735786300, -0.1357249199687374800, 0.0000000000000000000 ) ) ;
#594 = ORIENTED_EDGE ( 'NONE', *, *, #34, .T. ) ;
#595 = DIRECTION ( 'NONE',  ( -0.0000000000000000000, -0.0000000000000000000, -1.000000000000000000 ) ) ;
#596 = ORIENTED_EDGE ( 'NONE', *, *, #588, .F. ) ;
#597 = CARTESIAN_POINT ( 'NONE',  ( -2.623999999999999700, 3.152236220472440100, 0.0000000000000000000 ) ) ;
#598 = SURFACE_STYLE_FILL_AREA ( #323 ) ;
#599 = PLANE ( 'NONE',  #601 ) ;
#600 = ORIENTED_EDGE ( 'NONE', *, *, #300, .F. ) ;
#601 = AXIS2_PLACEMENT_3D ( 'NONE', #611, #593, #589 ) ;
#602 = DIRECTION ( 'NONE',  ( -1.261675270669477200E-016, 7.003704675487150100E-033, -1.000000000000000000 ) ) ;
#603 = EDGE_CURVE ( 'NONE', #230, #293, #292, .T. ) ;
#604 = ORIENTED_EDGE ( 'NONE', *, *, #659, .T. ) ;
#605 = CARTESIAN_POINT ( 'NONE',  ( -3.411417322834645400, 3.330236220472441400, 0.3100000000000001600 ) ) ;
#606 = AXIS2_PLACEMENT_3D ( 'NONE', #363, #397, #211 ) ;
#607 = CARTESIAN_POINT ( 'NONE',  ( -3.724999999999999600, 3.361118110236218200, 0.3100000000000000000 ) ) ;
#608 = CYLINDRICAL_SURFACE ( 'NONE', #434, 0.07381889763779533900 ) ;
#609 = ORIENTED_EDGE ( 'NONE', *, *, #315, .T. ) ;
#610 = EDGE_CURVE ( 'NONE', #293, #183, #612, .T. ) ;
#611 = CARTESIAN_POINT ( 'NONE',  ( -3.724999999999999600, 3.361118110236218200, -1.129411299181013900 ) ) ;
#612 = LINE ( 'NONE', #585, #474 ) ;
#613 = DIRECTION ( 'NONE',  ( -0.08666305909959376400, 0.9962376795662268900, 0.0000000000000000000 ) ) ;
#614 = ORIENTED_EDGE ( 'NONE', *, *, #315, .F. ) ;
#615 = ORIENTED_EDGE ( 'NONE', *, *, #124, .T. ) ;
#616 = ORIENTED_EDGE ( 'NONE', *, *, #5, .T. ) ;
#617 = ORIENTED_EDGE ( 'NONE', *, *, #5, .F. ) ;
#618 = DIRECTION ( 'NONE',  ( -1.261675270669477000E-016, 7.003704675487148800E-033, -1.000000000000000000 ) ) ;
#619 = ORIENTED_EDGE ( 'NONE', *, *, #284, .F. ) ;
#620 = PRODUCT_DEFINITION ( 'UNKNOWN', '', #61, #486 ) ;
#621 = CARTESIAN_POINT ( 'NONE',  ( -2.623999999999999700, 3.570000000000000300, 0.0000000000000000000 ) ) ;
#622 = AXIS2_PLACEMENT_3D ( 'NONE', #21, #664, #613 ) ;
#623 = PLANE ( 'NONE',  #622 ) ;
#624 = ORIENTED_EDGE ( 'NONE', *, *, #212, .F. ) ;
#625 = EDGE_CURVE ( 'NONE', #31, #147, #433, .T. ) ;
#626 = VERTEX_POINT ( 'NONE', #26 ) ;
#627 = CARTESIAN_POINT ( 'NONE',  ( -2.121763779527558600, 1.521173260732761000, 0.3099999999999997200 ) ) ;
#628 = ORIENTED_EDGE ( 'NONE', *, *, #55, .F. ) ;
#629 = MECHANICAL_DESIGN_GEOMETRIC_PRESENTATION_REPRESENTATION (  '', ( #327 ), #291 ) ;
#630 =( NAMED_UNIT ( * ) SI_UNIT ( $, .STERADIAN. ) SOLID_ANGLE_UNIT ( ) );
#631 = ORIENTED_EDGE ( 'NONE', *, *, #603, .F. ) ;
#632 = VERTEX_POINT ( 'NONE', #607 ) ;
#633 = ORIENTED_EDGE ( 'NONE', *, *, #277, .F. ) ;
#634 = APPLICATION_CONTEXT ( 'automotive_design' ) ;
#635 = EDGE_LOOP ( 'NONE', ( #653, #396, #409, #435 ) ) ;
#636 = FACE_OUTER_BOUND ( 'NONE', #459, .T. ) ;
#637 = ORIENTED_EDGE ( 'NONE', *, *, #321, .F. ) ;
#638 = EDGE_CURVE ( 'NONE', #25, #626, #324, .T. ) ;
#639 = DIRECTION ( 'NONE',  ( 0.0000000000000000000, 0.0000000000000000000, 1.000000000000000000 ) ) ;
#640 = ADVANCED_BREP_SHAPE_REPRESENTATION ( 'motor cap', ( #331, #652 ), #328 ) ;
#641 = ORIENTED_EDGE ( 'NONE', *, *, #625, .F. ) ;
#642 = DIRECTION ( 'NONE',  ( -1.261675270669477200E-016, 7.003704675487150100E-033, -1.000000000000000000 ) ) ;
#643 = EDGE_LOOP ( 'NONE', ( #556, #311, #326, #339 ) ) ;
#644 = DIRECTION ( 'NONE',  ( -1.000000000000000000, 0.0000000000000000000, 1.261675270669477000E-016 ) ) ;
#645 = FACE_OUTER_BOUND ( 'NONE', #192, .T. ) ;
#646 = CYLINDRICAL_SURFACE ( 'NONE', #236, 0.07381889763779533900 ) ;
#647 = ORIENTED_EDGE ( 'NONE', *, *, #610, .T. ) ;
#648 = ORIENTED_EDGE ( 'NONE', *, *, #483, .F. ) ;
#649 = ORIENTED_EDGE ( 'NONE', *, *, #205, .F. ) ;
#650 = ORIENTED_EDGE ( 'NONE', *, *, #502, .F. ) ;
#651 = CARTESIAN_POINT ( 'NONE',  ( -3.405758354506076600, 3.785000000000000100, -1.129411299181013900 ) ) ;
#652 = AXIS2_PLACEMENT_3D ( 'NONE', #491, #52, #414 ) ;
#653 = ORIENTED_EDGE ( 'NONE', *, *, #438, .F. ) ;
#654 = FACE_OUTER_BOUND ( 'NONE', #635, .T. ) ;
#655 = DIRECTION ( 'NONE',  ( -1.000000000000000000, 0.0000000000000000000, 0.0000000000000000000 ) ) ;
#656 = FACE_BOUND ( 'NONE', #226, .T. ) ;
#657 = ORIENTED_EDGE ( 'NONE', *, *, #300, .T. ) ;
#658 = ORIENTED_EDGE ( 'NONE', *, *, #11, .F. ) ;
#659 = EDGE_CURVE ( 'NONE', #188, #153, #453, .T. ) ;
#660 = VERTEX_POINT ( 'NONE', #516 ) ;
#661 = CARTESIAN_POINT ( 'NONE',  ( -3.724999999999999600, 1.521173260732761000, 0.01000000000000003000 ) ) ;
#662 = EDGE_CURVE ( 'NONE', #153, #452, #301, .T. ) ;
#663 = AXIS2_PLACEMENT_3D ( 'NONE', #217, #201, #208 ) ;
#664 = DIRECTION ( 'NONE',  ( 0.9962376795662270000, 0.08666305909959377800, -0.0000000000000000000 ) ) ;
#665 = AXIS2_PLACEMENT_3D ( 'NONE', #367, #264, #231 ) ;
#666 = ORIENTED_EDGE ( 'NONE', *, *, #555, .F. ) ;
#667 = ORIENTED_EDGE ( 'NONE', *, *, #212, .T. ) ;
#668 = ORIENTED_EDGE ( 'NONE', *, *, #34, .F. ) ;
#669 = VERTEX_POINT ( 'NONE', #485 ) ;
#670 = PLANE ( 'NONE',  #582 ) ;
#671 = FACE_OUTER_BOUND ( 'NONE', #643, .T. ) ;
#672 = ORIENTED_EDGE ( 'NONE', *, *, #659, .F. ) ;
ENDSEC;
END-ISO-10303-21;
