{
  "name": "common",
  "basePath": "../codingworkbench-common",
  "srcRoot": "lib",
  "files": [
    "package.json",
    "package-lock.json",
    "tsconfig.json",
    "tslint.json",
    ".eslintrc.json",
    "LICENSE",
    "README.md"
  ]
}
