{
  "name": "server-security",
  "basePath": "../codingworkbench-server-security",
  "srcRoot": "lib",
  "commands": ["npm --prefix server-security run build:publish:view"] ,
  "files": [
    "package.json",
    "package-lock.json",
    "tsconfig.json",
    "tslint.json",
    ".eslintrc.json",
    "README.md",
    "views.webpack.config.js",
    "ext"
  ]
}
