;FLAVOR:Marlin
;TIME:98
;Filament used: 0.0823574m
;Layer height: 0.2
;MINX:101.1
;MINY:101.1
;MINZ:0.2
;MAXX:133.9
;MAXY:133.9
;MAXZ:0.4
;Generated with Cura_SteamEngine 4.1.0
M140 S60
M105
M190 S60
M104 S200
M105
M109 S200
M82 ;absolute extrusion mode
; Ender 3 Custom Start G-code
G28 ; Home all axes
G92 E0 ; Reset Extruder
G1 Z2.0 F3000 ; Move Z Axis up little to prevent scratching of Heat Bed
G1 X0.1 Y20 Z0.3 F5000.0 ; Move to start position
G1 X0.1 Y200.0 Z0.3 F1500.0 E15 ; Draw the first line
G1 X0.4 Y200.0 Z0.3 F5000.0 ; Move to side a little
G1 X0.4 Y20 Z0.3 F1500.0 E30 ; Draw the second line
G92 E0 ; Reset Extruder
G1 Z2.0 F3000 ; Move Z Axis up little to prevent scratching of Heat Bed
; End of custom start GCode
G92 E0
G92 E0
G1 F2400 E-5
;LAYER_COUNT:2
;LAYER:0
M107
M204 S500
M205 X10 Y10
G0 F3600 X103.033 Y102.935 Z0.2
;TYPE:SKIRT
G1 F2400 E0
G1 F1800 X103.571 Y102.464 E0.02378
G1 X104.159 Y102.056 E0.04759
G1 X104.788 Y101.716 E0.07137
G1 X105.452 Y101.449 E0.09517
G1 X106.141 Y101.257 E0.11896
G1 X106.847 Y101.143 E0.14275
G1 X107.33 Y101.112 E0.15884
G1 X107.651 Y101.103 E0.16952
G1 X107.83 Y101.1 E0.17548
G1 X126.793 Y101.1 E0.80619
G1 X126.885 Y101.101 E0.80925
G1 X127.583 Y101.111 E0.83247
G1 X128.296 Y101.161 E0.85624
G1 X129 Y101.29 E0.88005
G1 X129.684 Y101.498 E0.90383
G1 X130.341 Y101.78 E0.9276
G1 X130.963 Y102.134 E0.95141
G1 X131.541 Y102.555 E0.97519
G1 X132.069 Y103.038 E0.99899
G1 X132.539 Y103.576 E1.02275
G1 X132.947 Y104.164 E1.04656
G1 X133.286 Y104.794 E1.07035
G1 X133.553 Y105.457 E1.09412
G1 X133.744 Y106.147 E1.11794
G1 X133.857 Y106.853 E1.14172
G1 X133.888 Y107.33 E1.15762
G1 X133.897 Y107.65 E1.16826
G1 X133.9 Y107.83 E1.17425
G1 X133.9 Y126.843 E1.80663
G1 X133.891 Y127.57 E1.83081
G1 X133.842 Y128.284 E1.85461
G1 X133.714 Y128.988 E1.87841
G1 X133.508 Y129.673 E1.9022
G1 X133.227 Y130.33 E1.92597
G1 X132.874 Y130.953 E1.94978
G1 X132.454 Y131.532 E1.97358
G1 X131.972 Y132.06 E1.99735
G1 X131.435 Y132.532 E2.02113
G1 X130.847 Y132.94 E2.04494
G1 X130.218 Y133.281 E2.06873
G1 X129.555 Y133.549 E2.09252
G1 X128.866 Y133.741 E2.11631
G1 X128.16 Y133.856 E2.1401
G1 X127.67 Y133.888 E2.15643
G1 X127.349 Y133.897 E2.16711
G1 X127.17 Y133.9 E2.17307
G1 X108.207 Y133.9 E2.80378
G1 X108.124 Y133.899 E2.80654
G1 X107.426 Y133.89 E2.82976
G1 X106.713 Y133.841 E2.85353
G1 X106.009 Y133.713 E2.87733
G1 X105.324 Y133.507 E2.90112
G1 X104.667 Y133.225 E2.9249
G1 X104.045 Y132.872 E2.94868
G1 X103.466 Y132.452 E2.97248
G1 X102.937 Y131.97 E2.99628
G1 X102.466 Y131.432 E3.02006
G1 X102.058 Y130.845 E3.04384
G1 X101.718 Y130.215 E3.06765
G1 X101.45 Y129.552 E3.09143
G1 X101.258 Y128.863 E3.11522
G1 X101.144 Y128.157 E3.13901
G1 X101.111 Y127.664 E3.15544
G1 X101.102 Y127.331 E3.16652
G1 X101.1 Y127.158 E3.17228
G1 X101.1 Y108.174 E3.80369
G1 X101.101 Y108.087 E3.80658
G1 X101.11 Y107.422 E3.8287
G1 X101.159 Y106.709 E3.85247
G1 X101.288 Y106.005 E3.87628
G1 X101.495 Y105.321 E3.90004
G1 X101.777 Y104.663 E3.92385
G1 X102.13 Y104.041 E3.94764
G1 X102.55 Y103.463 E3.97141
G1 X103.033 Y102.935 E3.99521
G0 F3600 X103.424 Y103.114
G1 F1800 X103.958 Y102.673 E4.01824
G1 X104.539 Y102.296 E4.04128
G1 X105.159 Y101.988 E4.0643
G1 X105.811 Y101.754 E4.08734
G1 X106.485 Y101.597 E4.11036
G1 X107.341 Y101.511 E4.13897
G1 X107.662 Y101.502 E4.14965
G1 X107.83 Y101.5 E4.15524
G1 X126.793 Y101.5 E4.78595
G1 X126.879 Y101.501 E4.78881
G1 X127.577 Y101.511 E4.81203
G1 X128.268 Y101.56 E4.83507
G1 X128.948 Y101.69 E4.8581
G1 X129.609 Y101.896 E4.88113
G1 X130.242 Y102.178 E4.90418
G1 X130.838 Y102.53 E4.9272
G1 X131.389 Y102.949 E4.95022
G1 X131.889 Y103.429 E4.97327
G1 X132.33 Y103.963 E4.99631
G1 X132.707 Y104.544 E5.01934
G1 X133.014 Y105.165 E5.04239
G1 X133.247 Y105.817 E5.06541
G1 X133.404 Y106.491 E5.08843
G1 X133.489 Y107.341 E5.11684
G1 X133.498 Y107.661 E5.12749
G1 X133.5 Y107.83 E5.13311
G1 X133.5 Y126.838 E5.76532
G1 X133.491 Y127.565 E5.7895
G1 X133.442 Y128.256 E5.81254
G1 X133.314 Y128.937 E5.83559
G1 X133.109 Y129.598 E5.85861
G1 X132.829 Y130.231 E5.88163
G1 X132.477 Y130.828 E5.90468
G1 X132.06 Y131.381 E5.92772
G1 X131.581 Y131.881 E5.95075
G1 X131.048 Y132.323 E5.97378
G1 X130.467 Y132.701 E5.99683
G1 X129.847 Y133.009 E6.01986
G1 X129.196 Y133.244 E6.04288
G1 X128.521 Y133.402 E6.06593
G1 X127.659 Y133.489 E6.09475
G1 X127.338 Y133.498 E6.10543
G1 X127.17 Y133.5 E6.11102
G1 X108.13 Y133.5 E6.74429
G1 X107.432 Y133.491 E6.76751
G1 X106.741 Y133.442 E6.79055
G1 X106.06 Y133.313 E6.8136
G1 X105.399 Y133.108 E6.83662
G1 X104.766 Y132.827 E6.85966
G1 X104.169 Y132.476 E6.88269
G1 X103.617 Y132.058 E6.90572
G1 X103.117 Y131.579 E6.92875
G1 X102.675 Y131.045 E6.9518
G1 X102.298 Y130.465 E6.97481
G1 X101.99 Y129.844 E6.99787
G1 X101.755 Y129.193 E7.02089
G1 X101.598 Y128.518 E7.04394
G1 X101.511 Y127.653 E7.07285
G1 X101.502 Y127.32 E7.08393
G1 X101.5 Y127.158 E7.08932
G1 X101.5 Y108.174 E7.72073
G1 X101.501 Y108.093 E7.72343
G1 X101.51 Y107.428 E7.74555
G1 X101.559 Y106.737 E7.76859
G1 X101.687 Y106.057 E7.7916
G1 X101.894 Y105.395 E7.81467
G1 X102.175 Y104.762 E7.8377
G1 X102.527 Y104.166 E7.86073
G1 X102.945 Y103.614 E7.88376
G1 X103.424 Y103.114 E7.90679
G0 F3600 X103.814 Y103.301
G1 F1800 X104.343 Y102.89 E7.92907
G1 X104.916 Y102.545 E7.95131
G1 X105.527 Y102.272 E7.97357
G1 X106.165 Y102.073 E7.9958
G1 X106.823 Y101.951 E8.01806
G1 X107.352 Y101.911 E8.0357
G1 X107.673 Y101.902 E8.04638
G1 X107.83 Y101.9 E8.05161
G1 X126.793 Y101.9 E8.68232
G1 X126.873 Y101.901 E8.68498
G1 X127.571 Y101.911 E8.7082
G1 X128.238 Y101.96 E8.73044
G1 X128.895 Y102.089 E8.75271
G1 X129.531 Y102.295 E8.77494
G1 X130.139 Y102.576 E8.79722
G1 X130.708 Y102.926 E8.81944
G1 X131.232 Y103.343 E8.84171
G1 X131.702 Y103.819 E8.86396
G1 X132.112 Y104.347 E8.8862
G1 X132.457 Y104.921 E8.90847
G1 X132.73 Y105.532 E8.93073
G1 X132.928 Y106.171 E8.95298
G1 X133.049 Y106.829 E8.97523
G1 X133.089 Y107.353 E8.99271
G1 X133.098 Y107.673 E9.00336
G1 X133.1 Y107.83 E9.00858
G1 X133.1 Y126.833 E9.64062
G1 X133.091 Y127.56 E9.66481
G1 X133.042 Y128.228 E9.68708
G1 X132.915 Y128.884 E9.70931
G1 X132.71 Y129.521 E9.73156
G1 X132.431 Y130.129 E9.75381
G1 X132.081 Y130.699 E9.77606
G1 X131.665 Y131.224 E9.79834
G1 X131.19 Y131.695 E9.82059
G1 X130.663 Y132.106 E9.84282
G1 X130.09 Y132.452 E9.86508
G1 X129.48 Y132.726 E9.88732
G1 X128.841 Y132.926 E9.90959
G1 X128.183 Y133.048 E9.93185
G1 X127.648 Y133.089 E9.9497
G1 X127.327 Y133.098 E9.96038
G1 X127.17 Y133.1 E9.9656
G1 X108.135 Y133.1 E10.5987
G1 X107.437 Y133.091 E10.62192
G1 X106.77 Y133.042 E10.64417
G1 X106.113 Y132.914 E10.66643
G1 X105.476 Y132.709 E10.68869
G1 X104.868 Y132.429 E10.71095
G1 X104.298 Y132.079 E10.7332
G1 X103.774 Y131.663 E10.75545
G1 X103.303 Y131.188 E10.7777
G1 X102.892 Y130.66 E10.79995
G1 X102.547 Y130.087 E10.8222
G1 X102.273 Y129.477 E10.84444
G1 X102.073 Y128.838 E10.86671
G1 X101.952 Y128.18 E10.88896
G1 X101.911 Y127.642 E10.90691
G1 X101.902 Y127.309 E10.91799
G1 X101.9 Y127.158 E10.92301
G1 X101.9 Y108.174 E11.55442
G1 X101.901 Y108.098 E11.55695
G1 X101.91 Y107.433 E11.57907
G1 X101.959 Y106.766 E11.60131
G1 X102.087 Y106.109 E11.62358
G1 X102.292 Y105.473 E11.6458
G1 X102.572 Y104.865 E11.66806
G1 X102.923 Y104.295 E11.69033
G1 X103.339 Y103.771 E11.71258
G1 X103.814 Y103.301 E11.73481
G0 F3600 X103.732 Y103.935
G1 F1800 X104.203 Y103.495 E11.75624
G1 X104.726 Y103.117 E11.77771
G1 X105.29 Y102.806 E11.79913
G1 X105.889 Y102.568 E11.82057
G1 X106.513 Y102.405 E11.84202
G1 X107.363 Y102.311 E11.87046
G1 X107.684 Y102.302 E11.88114
G1 X107.83 Y102.3 E11.886
G1 X126.793 Y102.3 E12.51671
G1 X126.867 Y102.301 E12.51917
G1 X127.565 Y102.311 E12.54239
G1 X128.208 Y102.36 E12.56384
G1 X128.84 Y102.488 E12.58529
G1 X129.451 Y102.694 E12.60673
G1 X130.032 Y102.973 E12.62817
G1 X130.574 Y103.322 E12.64961
G1 X131.068 Y103.736 E12.67105
G1 X131.508 Y104.208 E12.69251
G1 X131.886 Y104.73 E12.71394
G1 X132.196 Y105.295 E12.73538
G1 X132.434 Y105.894 E12.75682
G1 X132.596 Y106.518 E12.77826
G1 X132.689 Y107.364 E12.80657
G1 X132.698 Y107.684 E12.81721
G1 X132.7 Y107.83 E12.82207
G1 X132.7 Y126.828 E13.45395
G1 X132.691 Y127.555 E13.47813
G1 X132.643 Y128.198 E13.49957
G1 X132.516 Y128.83 E13.52101
G1 X132.311 Y129.442 E13.54248
G1 X132.033 Y130.023 E13.5639
G1 X131.685 Y130.566 E13.58535
G1 X131.272 Y131.061 E13.6068
G1 X130.801 Y131.501 E13.62823
G1 X130.279 Y131.88 E13.64969
G1 X129.715 Y132.191 E13.67111
G1 X129.116 Y132.43 E13.69256
G1 X128.493 Y132.594 E13.71399
G1 X127.637 Y132.689 E13.74263
G1 X127.316 Y132.698 E13.75331
G1 X127.17 Y132.7 E13.75817
G1 X108.14 Y132.7 E14.39111
G1 X107.442 Y132.691 E14.41433
G1 X106.799 Y132.642 E14.43578
G1 X106.167 Y132.515 E14.45722
G1 X105.556 Y132.31 E14.47865
G1 X104.975 Y132.032 E14.50008
G1 X104.432 Y131.683 E14.52154
G1 X103.937 Y131.27 E14.54299
G1 X103.497 Y130.799 E14.56442
G1 X103.118 Y130.277 E14.58588
G1 X102.807 Y129.713 E14.6073
G1 X102.569 Y129.114 E14.62874
G1 X102.406 Y128.49 E14.65019
G1 X102.311 Y127.631 E14.67893
G1 X102.302 Y127.298 E14.69001
G1 X102.3 Y127.158 E14.69467
G1 X102.3 Y108.104 E15.32841
G1 X102.309 Y107.439 E15.35053
G1 X102.358 Y106.796 E15.37198
G1 X102.486 Y106.164 E15.39342
G1 X102.691 Y105.553 E15.41486
G1 X102.97 Y104.972 E15.4363
G1 X103.319 Y104.429 E15.45777
G1 X103.732 Y103.935 E15.47918
G1 F2400 E10.47918
;MESH:square.stl
G0 F3600 X106.835 Y108.114
G0 X108.114 Y108.114
G0 X108.17 Y126.83
G0 X108.1 Y126.9
;TYPE:WALL-INNER
G1 F2400 E15.47918
G1 F1800 X108.1 Y108.1 E16.10447
G1 X126.9 Y108.1 E16.72976
G1 X126.9 Y126.9 E17.35505
G1 X108.1 Y126.9 E17.98034
G0 F3600 X107.7 Y127.3
;TYPE:WALL-OUTER
G1 F1800 X107.7 Y107.7 E18.63224
G1 X127.3 Y107.7 E19.28414
G1 X127.3 Y127.3 E19.93604
G1 X107.7 Y127.3 E20.58794
G0 F3600 X107.7 Y127.1
G0 X108.49 Y126.51
;TYPE:SKIN
G1 F1800 X108.49 Y108.49 E21.18729
G1 X126.51 Y108.49 E21.78663
G1 X126.51 Y126.51 E22.38598
G1 X108.49 Y126.51 E22.98533
G0 F3600 X108.793 Y126.329
G1 F1800 X108.669 Y126.205 E22.99116
G0 F3600 X108.669 Y125.64
G1 F1800 X109.359 Y126.329 E23.02359
G0 F3600 X109.924 Y126.329
G1 F1800 X108.669 Y125.074 E23.08262
G0 F3600 X108.669 Y124.508
G1 F1800 X110.49 Y126.329 E23.16828
G0 F3600 X111.056 Y126.329
G1 F1800 X108.669 Y123.943 E23.28053
G0 F3600 X108.669 Y123.377
G1 F1800 X111.621 Y126.329 E23.41939
G0 F3600 X112.187 Y126.329
G1 F1800 X108.669 Y122.811 E23.58486
G0 F3600 X108.669 Y122.246
G1 F1800 X112.753 Y126.329 E23.77694
G0 F3600 X113.318 Y126.329
G1 F1800 X108.669 Y121.68 E23.99561
G0 F3600 X108.669 Y121.114
G1 F1800 X113.884 Y126.329 E24.24091
G0 F3600 X114.45 Y126.329
G1 F1800 X108.669 Y120.548 E24.51283
G0 F3600 X108.669 Y119.983
G1 F1800 X115.015 Y126.329 E24.81133
G0 F3600 X115.581 Y126.329
G1 F1800 X108.669 Y119.417 E25.13645
G0 F3600 X108.669 Y118.851
G1 F1800 X116.147 Y126.329 E25.48819
G0 F3600 X116.712 Y126.329
G1 F1800 X108.669 Y118.286 E25.86651
G0 F3600 X108.669 Y117.72
G1 F1800 X117.278 Y126.329 E26.27145
G0 F3600 X117.844 Y126.329
G1 F1800 X108.669 Y117.154 E26.70301
G0 F3600 X108.669 Y116.589
G1 F1800 X118.409 Y126.329 E27.16115
G0 F3600 X118.975 Y126.329
G1 F1800 X108.669 Y116.023 E27.64591
G0 F3600 X108.669 Y115.457
G1 F1800 X119.541 Y126.329 E28.1573
G0 F3600 X120.107 Y126.329
G1 F1800 X108.669 Y114.892 E28.69528
G0 F3600 X108.669 Y114.326
G1 F1800 X120.672 Y126.329 E29.25987
G0 F3600 X121.238 Y126.329
G1 F1800 X108.669 Y113.76 E29.85107
G0 F3600 X108.669 Y113.195
G1 F1800 X121.804 Y126.329 E30.46888
G0 F3600 X122.369 Y126.329
G1 F1800 X108.669 Y112.629 E31.11329
G0 F3600 X108.669 Y112.063
G1 F1800 X122.935 Y126.329 E31.78432
G0 F3600 X123.501 Y126.329
G1 F1800 X108.669 Y111.498 E32.48194
G0 F3600 X108.669 Y110.932
G1 F1800 X124.066 Y126.329 E33.20617
G0 F3600 X124.632 Y126.329
G1 F1800 X108.669 Y110.366 E33.95702
G0 F3600 X108.669 Y109.8
G1 F1800 X125.198 Y126.329 E34.7345
G0 F3600 X125.763 Y126.329
G1 F1800 X108.669 Y109.235 E35.53855
G0 F3600 X108.669 Y108.669
G1 F1800 X126.329 Y126.329 E36.36922
G0 F3600 X126.329 Y125.763
G1 F1800 X109.235 Y108.67 E37.17324
G0 F3600 X109.801 Y108.67
G1 F1800 X126.329 Y125.198 E37.95067
G0 F3600 X126.329 Y124.632
G1 F1800 X110.367 Y108.67 E38.70147
G0 F3600 X110.933 Y108.67
G1 F1800 X126.329 Y124.066 E39.42565
G0 F3600 X126.329 Y123.501
G1 F1800 X111.498 Y108.67 E40.12326
G0 F3600 X112.064 Y108.67
G1 F1800 X126.329 Y122.935 E40.79424
G0 F3600 X126.329 Y122.369
G1 F1800 X112.63 Y108.67 E41.4386
G0 F3600 X113.195 Y108.67
G1 F1800 X126.329 Y121.804 E42.05638
G0 F3600 X126.329 Y121.238
G1 F1800 X113.761 Y108.67 E42.64754
G0 F3600 X114.327 Y108.67
G1 F1800 X126.329 Y120.672 E43.21208
G0 F3600 X126.329 Y120.107
G1 F1800 X114.892 Y108.67 E43.75004
G0 F3600 X115.458 Y108.67
G1 F1800 X126.329 Y119.541 E44.26138
G0 F3600 X126.329 Y118.975
G1 F1800 X116.024 Y108.67 E44.7461
G0 F3600 X116.589 Y108.67
G1 F1800 X126.329 Y118.409 E45.20421
G0 F3600 X126.329 Y117.844
G1 F1800 X117.155 Y108.67 E45.63573
G0 F3600 X117.721 Y108.67
G1 F1800 X126.329 Y117.278 E46.04062
G0 F3600 X126.329 Y116.712
G1 F1800 X118.286 Y108.67 E46.41892
G0 F3600 X118.852 Y108.67
G1 F1800 X126.329 Y116.147 E46.77061
G0 F3600 X126.329 Y115.581
G1 F1800 X119.418 Y108.67 E47.09569
G0 F3600 X119.983 Y108.67
G1 F1800 X126.329 Y115.015 E47.39416
G0 F3600 X126.329 Y114.45
G1 F1800 X120.549 Y108.67 E47.66603
G0 F3600 X121.115 Y108.67
G1 F1800 X126.329 Y113.884 E47.91128
G0 F3600 X126.329 Y113.318
G1 F1800 X121.681 Y108.67 E48.12991
G0 F3600 X122.246 Y108.67
G1 F1800 X126.329 Y112.753 E48.32196
G0 F3600 X126.329 Y112.187
G1 F1800 X122.812 Y108.67 E48.48739
G0 F3600 X123.378 Y108.67
G1 F1800 X126.329 Y111.621 E48.6262
G0 F3600 X126.329 Y111.056
G1 F1800 X123.943 Y108.67 E48.73843
G0 F3600 X124.509 Y108.67
G1 F1800 X126.329 Y110.49 E48.82403
G0 F3600 X126.329 Y109.924
G1 F1800 X125.075 Y108.67 E48.88302
G0 F3600 X125.64 Y108.67
G1 F1800 X126.329 Y109.359 E48.91543
G0 F3600 X126.329 Y108.793
G1 F1800 X126.206 Y108.67 E48.92121
;MESH:NONMESH
G0 F3600 X108.17 Y126.83
G0 X108.1 Y126.9
;TIME_ELAPSED:59.953893
;LAYER:1
M140 S60
M106 S255
;MESH:square.stl
G0 F5400 X108.1 Y126.9 Z0.4
;TYPE:WALL-INNER
G1 F2700 X108.1 Y108.1 E49.5465
G1 X126.9 Y108.1 E50.17179
G1 X126.9 Y126.9 E50.79708
G1 X108.1 Y126.9 E51.42237
G0 F5400 X107.7 Y127.3
;TYPE:WALL-OUTER
G1 F1800 X107.7 Y107.7 E52.07427
G1 X127.3 Y107.7 E52.72617
G1 X127.3 Y127.3 E53.37807
G1 X107.7 Y127.3 E54.02997
G0 F5400 X107.7 Y127.1
G0 X108.49 Y126.51
;TYPE:SKIN
G1 F1800 X108.49 Y108.49 E54.62932
G1 X126.51 Y108.49 E55.22866
G1 X126.51 Y126.51 E55.82801
G1 X108.49 Y126.51 E56.42736
G0 F5400 X108.67 Y109.118
G1 F1800 X109.119 Y108.669 E56.44848
G0 F5400 X109.684 Y108.669
G1 F1800 X108.67 Y109.684 E56.4962
G0 F5400 X108.67 Y110.249
G1 F1800 X110.25 Y108.669 E56.57052
G0 F5400 X110.816 Y108.669
G1 F1800 X108.67 Y110.815 E56.67146
G0 F5400 X108.67 Y111.381
G1 F1800 X111.382 Y108.669 E56.79902
G0 F5400 X111.947 Y108.669
G1 F1800 X108.67 Y111.947 E56.95319
G0 F5400 X108.67 Y112.512
G1 F1800 X112.513 Y108.669 E57.13395
G0 F5400 X113.079 Y108.669
G1 F1800 X108.67 Y113.078 E57.34133
G0 F5400 X108.67 Y113.644
G1 F1800 X113.644 Y108.669 E57.57532
G0 F5400 X114.21 Y108.669
G1 F1800 X108.67 Y114.209 E57.8359
G0 F5400 X108.67 Y114.775
G1 F1800 X114.776 Y108.669 E58.12311
G0 F5400 X115.341 Y108.669
G1 F1800 X108.67 Y115.341 E58.43692
G0 F5400 X108.67 Y115.906
G1 F1800 X115.907 Y108.669 E58.77732
G0 F5400 X116.473 Y108.669
G1 F1800 X108.67 Y116.472 E59.14435
G0 F5400 X108.67 Y117.038
G1 F1800 X117.038 Y108.669 E59.53798
G0 F5400 X117.604 Y108.669
G1 F1800 X108.67 Y117.603 E59.95821
G0 F5400 X108.67 Y118.169
G1 F1800 X118.17 Y108.669 E60.40506
G0 F5400 X118.735 Y108.669
G1 F1800 X108.67 Y118.735 E60.87851
G0 F5400 X108.67 Y119.3
G1 F1800 X119.301 Y108.669 E61.37856
G0 F5400 X119.867 Y108.669
G1 F1800 X108.67 Y119.866 E61.90523
G0 F5400 X108.67 Y120.432
G1 F1800 X120.433 Y108.669 E62.45853
G0 F5400 X120.998 Y108.669
G1 F1800 X108.67 Y120.997 E63.0384
G0 F5400 X108.67 Y121.563
G1 F1800 X121.564 Y108.669 E63.64489
G0 F5400 X122.13 Y108.669
G1 F1800 X108.67 Y122.129 E64.27801
G0 F5400 X108.67 Y122.695
G1 F1800 X122.695 Y108.669 E64.93773
G0 F5400 X123.261 Y108.669
G1 F1800 X108.67 Y123.26 E65.62404
G0 F5400 X108.67 Y123.826
G1 F1800 X123.827 Y108.669 E66.33698
G0 F5400 X124.392 Y108.669
G1 F1800 X108.67 Y124.392 E67.07652
G0 F5400 X108.67 Y124.957
G1 F1800 X124.958 Y108.669 E67.84266
G0 F5400 X125.524 Y108.669
G1 F1800 X108.67 Y125.523 E68.63542
G0 F5400 X108.67 Y126.089
G1 F1800 X126.089 Y108.669 E69.45478
G0 F5400 X126.329 Y108.995
G1 F1800 X108.995 Y126.329 E70.27012
G0 F5400 X109.561 Y126.329
G1 F1800 X126.329 Y109.561 E71.05883
G0 F5400 X126.329 Y110.126
G1 F1800 X110.126 Y126.329 E71.82097
G0 F5400 X110.692 Y126.329
G1 F1800 X126.329 Y110.692 E72.55649
G0 F5400 X126.329 Y111.258
G1 F1800 X111.258 Y126.329 E73.26538
G0 F5400 X111.823 Y126.329
G1 F1800 X126.329 Y111.823 E73.9477
G0 F5400 X126.329 Y112.389
G1 F1800 X112.389 Y126.329 E74.60339
G0 F5400 X112.955 Y126.329
G1 F1800 X126.329 Y112.955 E75.23247
G0 F5400 X126.329 Y113.521
G1 F1800 X113.521 Y126.329 E75.83492
G0 F5400 X114.086 Y126.329
G1 F1800 X126.329 Y114.086 E76.41079
G0 F5400 X126.329 Y114.652
G1 F1800 X114.652 Y126.329 E76.96004
G0 F5400 X115.218 Y126.329
G1 F1800 X126.329 Y115.218 E77.48267
G0 F5400 X126.329 Y115.783
G1 F1800 X115.783 Y126.329 E77.97872
G0 F5400 X116.349 Y126.329
G1 F1800 X126.329 Y116.349 E78.44815
G0 F5400 X126.329 Y116.915
G1 F1800 X116.915 Y126.329 E78.89095
G0 F5400 X117.48 Y126.329
G1 F1800 X126.329 Y117.48 E79.30718
G0 F5400 X126.329 Y118.046
G1 F1800 X118.046 Y126.329 E79.69679
G0 F5400 X118.612 Y126.329
G1 F1800 X126.329 Y118.612 E80.05977
G0 F5400 X126.329 Y119.177
G1 F1800 X119.177 Y126.329 E80.39618
G0 F5400 X119.743 Y126.329
G1 F1800 X126.329 Y119.743 E80.70597
G0 F5400 X126.329 Y120.309
G1 F1800 X120.309 Y126.329 E80.98913
G0 F5400 X120.874 Y126.329
G1 F1800 X126.329 Y120.874 E81.24572
G0 F5400 X126.329 Y121.44
G1 F1800 X121.44 Y126.329 E81.47568
G0 F5400 X122.006 Y126.329
G1 F1800 X126.329 Y122.006 E81.67902
G0 F5400 X126.329 Y122.572
G1 F1800 X122.572 Y126.329 E81.85574
G0 F5400 X123.137 Y126.329
G1 F1800 X126.329 Y123.137 E82.00588
G0 F5400 X126.329 Y123.703
G1 F1800 X123.703 Y126.329 E82.1294
G0 F5400 X124.269 Y126.329
G1 F1800 X126.329 Y124.269 E82.22629
G0 F5400 X126.329 Y124.834
G1 F1800 X124.834 Y126.329 E82.29661
G0 F5400 X125.4 Y126.329
G1 F1800 X126.329 Y125.4 E82.34031
G0 F5400 X126.329 Y125.966
G1 F1800 X125.966 Y126.329 E82.35739
;TIME_ELAPSED:98.859765
G1 F2400 E77.35739
M140 S0
M204 S4000
M205 X20 Y20
M107
; Ender 3 Custom End G-code
G4 ; Wait
M220 S100 ; Reset Speed factor override percentage to default (100%)
M221 S100 ; Reset Extrude factor override percentage to default (100%)
G91 ; Set coordinates to relative
G1 F1800 E-3 ; Retract filament 3 mm to prevent oozing
G1 F3000 Z20 ; Move Z Axis up 20 mm to allow filament ooze freely
G90 ; Set coordinates to absolute
G1 X0 Y235 F1000 ; Move Heat Bed to the front for easy print removal
M84 ; Disable stepper motors
; End of custom end GCode
M82 ;absolute extrusion mode
M104 S0
;End of Gcode
