{
    "defaultSeverity": "error",
    "extends": [
        "tslint:recommended"
    ],
    "jsRules": {},
    "rules": {
        "no-namespace": [false, "allow-declarations"],
        "no-console": false,
        "no-empty-interface": false,
        "no-string-literal": false,
        "variable-name": false,
        "no-empty": false,
        "object-literal-sort-keys": false,
        "no-implicit-dependencies": false,
        "no-unsafe-any": false,
        "no-any": false,
        "max-classes-per-file": false,
        "max-line-length": {
            "options": {"limit": 180}
        }
    },
    "rulesDirectory": []
}
